[
  {
    "id": 4428106,
    "iid": 203,
    "projectId": 2724222,
    "title": "Mise à jour des paramètres de traitement par défaut",
    "description": "+Niveau 1+\n\nLe seuil \"RF tot maximum\" par défaut doit être mis à 250 (actuellement il vaut 500). Rf minus 10 et RF plus 10 restent à 500.\n\n\n+Niveau 2+\n\nSeuil minimal de poids échantillonné/capturé : mettre à 250 par défaut (actuellement 40)\nNote : le libellé correct de ce paramètres est en fait : Seuil minimal de poids capturé/échantillonné\n\n+Niveau 3+\n\nSeuil minimal de poids échantillonné/capturé : mettre à 250 par défaut (actuellement 40)\nNote : le libellé correct de ce paramètres est en fait : Seuil minimal de poids capturé/échantillonné\n\nSeuils par espèce et type de banc :\n\u003e BO (tailles) YFT         : 150                                                            \n\u003e BO (tailles) SKJ         : 150                                                            \n\u003e BO (tailles) BET         : 180                                                            \n\u003e BO (tailles) ALB         :  25                                                            \n\u003e BO (tailles) LTA         :  25                                                            \n\u003e BO (tailles) FRI         :  25                                                            \n\u003e BL (tailles) YFT         : 150                                                            \n\u003e BL (tailles) SKJ         : 150                                                            \n\u003e BL (tailles) BET         :  25                                                            \n\u003e BL (tailles) ALB         :  25                                                            \n\u003e BL (tailles) LTA         :  25                                                            \n\u003e BL (tailles) FRI         :  25    \n\n*(from redmine issue 7764 created on 2015-11-25, closed on 2015-11-30, relates #2298, relates #3228)*\n\n### Files\n  * [picture309-1.png] (https://forge.codelutin.com/attachments/download/3484/picture309-1.png)\n  * [picture309-2.png] (https://forge.codelutin.com/attachments/download/3485/picture309-2.png)\n  * [picture309-3.png] (https://forge.codelutin.com/attachments/download/3486/picture309-3.png)",
    "labels": [
      "Evolution",
      "From Redmine",
      "Immédiat"
    ],
    "milestone": {
      "id": 268856,
      "iid": 14,
      "projectId": 2724222,
      "groupId": 0,
      "title": "1.6",
      "description": "\n\n*(from redmine: created on 2013-04-12)*",
      "dueDate": "Nov 30, 2015 1:00:00 AM",
      "state": "closed"
    },
    "assignee": {
      "_id": 166231,
      "_username": "tchemit",
      "_name": "Tony CHEMIT",
      "_state": "active",
      "_darkScheme": false,
      "_isAdmin": false,
      "_canCreateGroup": false,
      "_canCreateProject": false,
      "_canCreateTeam": false,
      "_avatarUrl": "https://secure.gravatar.com/avatar/2a915aa9a1df35c8b609ff2f750d5dac?s\u003d80\u0026d\u003didenticon"
    },
    "author": {
      "_id": 166231,
      "_username": "tchemit",
      "_name": "Tony CHEMIT",
      "_state": "active",
      "_darkScheme": false,
      "_isAdmin": false,
      "_canCreateGroup": false,
      "_canCreateProject": false,
      "_canCreateTeam": false,
      "_avatarUrl": "https://secure.gravatar.com/avatar/2a915aa9a1df35c8b609ff2f750d5dac?s\u003d80\u0026d\u003didenticon"
    },
    "state": "closed",
    "updatedAt": "Mar 30, 2017 10:07:42 AM",
    "createdAt": "Feb 17, 2017 4:16:33 PM"
  },
  {
    "id": 4428100,
    "iid": 200,
    "projectId": 2724222,
    "title": "[N0.2] Possibilité de shunter le calcul RF2",
    "description": "+*Rappels*+\n\nLe calcul du RF2 (N0.2) vise à corriger l’absence éventuelle de logbooks pour certaines marées.\n\nCeci n’est utile/pertinent que pour un cas particulier (les canneurs de Dakar), mais par souci de généricité on a permis de l\u0027appliquer à toute capture, l\u0027utilisateur devant sélectionner les données à traiter par application des filtres proposés sur l\u0027interface graphique (voir la capture d\u0027écran en PJ).\n\nA partir de la configuration N0.2 fournie par l\u0027utilisateur :\n* On calcule les rf2 (un rf2 par marée concernée) sur les marées concernées par la configuration du traitement, et on les stocke dans trip.rf2\n* Pour les marées concernées par la plage temporelle de la configuration mais exclues par les filtres \"Type de bateau\", \"Port de débarquement\" ou \"Flotte\", on fixe trip.rf2 \u003d 1\n* Pour toutes ces marées (celles pour lesquelles un rf2 a été déterminé) on calcule elementarycatch.catchweightrf2 \u003d elementarycatch.catchweightrf1*trip.rf2\n\nAinsi le poids de capture est systématiquement reporté dans elementarycatch.catchweightrf2, soit conservé soit modifié par le rf2, que la calée ait été sélectionnée ou exclue par les filtres. Ceci est nécessaire puisque le champ de capture utilisé comme source pour les traitements suivants est elementarycatch.catchweightrf2, et plus jamais catchweightrf1.\n\n*+Problème+*\n\nLes filtres proposés par l\u0027UI sont : dates, type de bateau, port de débarquement, flotte\nOr cette UI exige qu\u0027au moins une entrée par filtre soit sélectionnée.\n\nCela implique :\n* Si les données ne contiennent que des marées senneur par exemple, on est obligé de cocher \"Senneur\", et donc d\u0027appliquer le calcul du rf2 aux senneurs même si on ne le veut pas\n* Idem pour les ports\n* Idem pour les flottes. Par exemple si les données ne contiennent que des marées françaises mais qu\u0027on ne veut pas appliquer le traitement sur les marées françaises, on est coincé, l\u0027UI exige la sélection de la flotte \"France\".\n\nVoir la capture d\u0027écran en PJ.\n\n*+Solution+*\n\nIl faut modifier l\u0027UI pour qu\u0027elle accepte qu\u0027aucune coche ne soit cochée dans les filtres.\nDans le cas où des marées seront sélectionnées par la plage temporelle, mais exclues par les filtres, on veillera bien à ce que ces marées soient affublées d\u0027un rf2\u003d1 (rf2 neutre) et à ce que ce rf2 neutre soit appliqué à ses captures, de sorte à ce que le poids elementraycatch.catchrf1 se retrouve, non altéré, dans elementraycatch.catchrf2.\n\n\n\n*(from redmine issue 7761 created on 2015-11-24, closed on 2015-11-30)*\n\n### Files\n  * [picture331-2.png] (https://forge.codelutin.com/attachments/download/3483/picture331-2.png)",
    "labels": [
      "Evolution",
      "From Redmine",
      "Urgent"
    ],
    "milestone": {
      "id": 268856,
      "iid": 14,
      "projectId": 2724222,
      "groupId": 0,
      "title": "1.6",
      "description": "\n\n*(from redmine: created on 2013-04-12)*",
      "dueDate": "Nov 30, 2015 1:00:00 AM",
      "state": "closed"
    },
    "assignee": {
      "_id": 166231,
      "_username": "tchemit",
      "_name": "Tony CHEMIT",
      "_state": "active",
      "_darkScheme": false,
      "_isAdmin": false,
      "_canCreateGroup": false,
      "_canCreateProject": false,
      "_canCreateTeam": false,
      "_avatarUrl": "https://secure.gravatar.com/avatar/2a915aa9a1df35c8b609ff2f750d5dac?s\u003d80\u0026d\u003didenticon"
    },
    "author": {
      "_id": 166231,
      "_username": "tchemit",
      "_name": "Tony CHEMIT",
      "_state": "active",
      "_darkScheme": false,
      "_isAdmin": false,
      "_canCreateGroup": false,
      "_canCreateProject": false,
      "_canCreateTeam": false,
      "_avatarUrl": "https://secure.gravatar.com/avatar/2a915aa9a1df35c8b609ff2f750d5dac?s\u003d80\u0026d\u003didenticon"
    },
    "state": "closed",
    "updatedAt": "Mar 30, 2017 10:07:42 AM",
    "createdAt": "Feb 17, 2017 4:16:17 PM"
  },
  {
    "id": 4428093,
    "iid": 194,
    "projectId": 2724222,
    "title": "[N1.4] Petite correction dans la conversion des individus mesurés en poids",
    "description": "Rappel : Les facteurs rfX (rftot, rf-10 et rf+10) calculés au niveau 1.5 servent à extrapoler les poids d\u0027échantillons au poids total de leur(s) calée(s) respective(s). En simplifié, poids échantillon*rfX \u003d poids calée. Mais il faut d\u0027abord calculer le facteur rfX...\n\nEn analysant les rfX (tot, m10, p10) calculés par t3+ d\u0027une part, et t3- d\u0027autre part, on constate une surestimation, faible mais constante, de ce facteur par t3+.\n\nNous pensons que ceci provient d\u0027une approximation réalisée par t3+ sur les mesures en classes de taille de 1cm. Explications.\n\n\nA l\u0027étape 1.4 (1.4b plus exactement), le but est de convertir chaque individu (mesuré en taille) en poids. Pour cela l\u0027algorithme applique sur chaque individu la relation taille-poids qui lui correspond. En sommant ces individus convertis en poids on en retire ensuite le poids total échantillonné (qui n\u0027est pas connu avant ce calcul). Plus précisément on en retire le poids total échantillonné pour la catégorie -10kg d\u0027une part, et la +10kg d\u0027autre part, la relation taille-poids permettant aussi de connaître la taille seuil à partir de laquelle un individu appartient à la catégorie +10kg.\n\nSur le terrain les mesures sont faites selon des classes de taille de 1cm ou 2 cm généralement (ceci est spécifié dans le référentiel, species.lflengthclassstep).\n\nPour que la conversion taille-poids soit la plus fidèle possible, il faut :\n* Selon l\u0027espèce, déterminer l\u0027intervalle de classe de taille utilisé\n* Appliquer à chaque individu longueur \u003d classe de taille + intervalle/2\n* Appliquer la formule de conversion taille poids sur cette longueur\n\nAinsi, en prenant le milieu de la classe comme base de conversion (et non pas le cm inférieur), on ne sous-estimera pas de façon générale le poids des individus.\n\nOr il semble, au moins pour les classes de taille de 1cm, que la conversion soit appliquée au cm inférieur, ce qui conduit à une sous-estimation des poids d\u0027échantillons (et par conséquent une surestimation du rfX).\n\nIl faudrait vérifier comment est déterminée la taille d\u0027un individu qui est utilisée pour la conversion :\n* Est-ce simplement la classe de taille (et dans ce cas toutes les espèces sont sous-estimées)\n* Est-ce le milieu de la classe de taille, mais avec arrondi au cm inférieur si classe de taille à décimale trouvée (par exemple 22.5cm arrondie à 22cm) ? Dans ce cas seules les classes de 1 cm seraient touchées (et celles de 3cm, 5cm... si elles existaient). Cas le plus probable.\n* Est-ce tout va bien et dans ce cas, nous devons chercher ailleurs la raison de notre biais\n\nSi cette approximation est confirmée, la corriger.\n\n*(from redmine issue 7755 created on 2015-11-24, closed on 2015-11-30)*",
    "labels": [
      "Evolution",
      "From Redmine",
      "Urgent"
    ],
    "milestone": {
      "id": 268856,
      "iid": 14,
      "projectId": 2724222,
      "groupId": 0,
      "title": "1.6",
      "description": "\n\n*(from redmine: created on 2013-04-12)*",
      "dueDate": "Nov 30, 2015 1:00:00 AM",
      "state": "closed"
    },
    "assignee": {
      "_id": 166231,
      "_username": "tchemit",
      "_name": "Tony CHEMIT",
      "_state": "active",
      "_darkScheme": false,
      "_isAdmin": false,
      "_canCreateGroup": false,
      "_canCreateProject": false,
      "_canCreateTeam": false,
      "_avatarUrl": "https://secure.gravatar.com/avatar/2a915aa9a1df35c8b609ff2f750d5dac?s\u003d80\u0026d\u003didenticon"
    },
    "author": {
      "_id": 166231,
      "_username": "tchemit",
      "_name": "Tony CHEMIT",
      "_state": "active",
      "_darkScheme": false,
      "_isAdmin": false,
      "_canCreateGroup": false,
      "_canCreateProject": false,
      "_canCreateTeam": false,
      "_avatarUrl": "https://secure.gravatar.com/avatar/2a915aa9a1df35c8b609ff2f750d5dac?s\u003d80\u0026d\u003didenticon"
    },
    "state": "closed",
    "updatedAt": "Mar 30, 2017 10:07:42 AM",
    "createdAt": "Feb 17, 2017 4:15:52 PM"
  },
  {
    "id": 4428081,
    "iid": 185,
    "projectId": 2724222,
    "title": "Initialisation correcte des index spatiaux",
    "description": "La création d\u0027index spatiaux sur les colonnes PostGIS améliore drastiquement les performances, notamment lors de la recherche de calées ou lors du zonage de celles-ci.\n\nPour ceci il suffit, après la création des colonnes géométriques par l\u0027installeur, fichier scripts/postgis-structure.sql, de créer des index GiST comme ceci :\n\nCREATE INDEX [indexname] ON [tablename] USING GIST ( [geometrycolumn] );\n\nPlacer aussi un VACUUM ANALYZE après le remplissage des tables de zones.\n\n*(from redmine issue 4343 created on 2014-02-05, closed on 2015-11-30, duplicates #2289)*",
    "labels": [
      "Evolution",
      "From Redmine",
      "Haut"
    ],
    "milestone": {
      "id": 268856,
      "iid": 14,
      "projectId": 2724222,
      "groupId": 0,
      "title": "1.6",
      "description": "\n\n*(from redmine: created on 2013-04-12)*",
      "dueDate": "Nov 30, 2015 1:00:00 AM",
      "state": "closed"
    },
    "assignee": {
      "_id": 166231,
      "_username": "tchemit",
      "_name": "Tony CHEMIT",
      "_state": "active",
      "_darkScheme": false,
      "_isAdmin": false,
      "_canCreateGroup": false,
      "_canCreateProject": false,
      "_canCreateTeam": false,
      "_avatarUrl": "https://secure.gravatar.com/avatar/2a915aa9a1df35c8b609ff2f750d5dac?s\u003d80\u0026d\u003didenticon"
    },
    "author": {
      "_id": 166231,
      "_username": "tchemit",
      "_name": "Tony CHEMIT",
      "_state": "active",
      "_darkScheme": false,
      "_isAdmin": false,
      "_canCreateGroup": false,
      "_canCreateProject": false,
      "_canCreateTeam": false,
      "_avatarUrl": "https://secure.gravatar.com/avatar/2a915aa9a1df35c8b609ff2f750d5dac?s\u003d80\u0026d\u003didenticon"
    },
    "state": "closed",
    "updatedAt": "Feb 17, 2017 4:15:28 PM",
    "createdAt": "Feb 17, 2017 4:15:25 PM"
  },
  {
    "id": 4428091,
    "iid": 193,
    "projectId": 2724222,
    "title": "Assistance pour compiler le projet dans un IDE",
    "description": "*(from redmine issue 7194 created on 2015-06-08, closed on 2015-11-30)*",
    "labels": [
      "From Redmine",
      "Normal",
      "Tâche"
    ],
    "milestone": {
      "id": 268856,
      "iid": 14,
      "projectId": 2724222,
      "groupId": 0,
      "title": "1.6",
      "description": "\n\n*(from redmine: created on 2013-04-12)*",
      "dueDate": "Nov 30, 2015 1:00:00 AM",
      "state": "closed"
    },
    "assignee": {
      "_id": 166231,
      "_username": "tchemit",
      "_name": "Tony CHEMIT",
      "_state": "active",
      "_darkScheme": false,
      "_isAdmin": false,
      "_canCreateGroup": false,
      "_canCreateProject": false,
      "_canCreateTeam": false,
      "_avatarUrl": "https://secure.gravatar.com/avatar/2a915aa9a1df35c8b609ff2f750d5dac?s\u003d80\u0026d\u003didenticon"
    },
    "author": {
      "_id": 166231,
      "_username": "tchemit",
      "_name": "Tony CHEMIT",
      "_state": "active",
      "_darkScheme": false,
      "_isAdmin": false,
      "_canCreateGroup": false,
      "_canCreateProject": false,
      "_canCreateTeam": false,
      "_avatarUrl": "https://secure.gravatar.com/avatar/2a915aa9a1df35c8b609ff2f750d5dac?s\u003d80\u0026d\u003didenticon"
    },
    "state": "closed",
    "updatedAt": "Feb 17, 2017 4:15:51 PM",
    "createdAt": "Feb 17, 2017 4:15:49 PM"
  },
  {
    "id": 4428079,
    "iid": 184,
    "projectId": 2724222,
    "title": "Avoid commons-loggin memory leak when hot-deploy in tomcat",
    "description": "See http://wiki.apache.org/commons/Logging/FrequentlyAskedQuestions#A_memory_leak_occurs_when_undeploying.2Fredeploying_a_webapp_that_uses_Commons_Logging._How_do_I_fix_this.3F\n\n*(from redmine issue 3549 created on 2013-10-19, closed on 2013-10-19)*",
    "labels": [
      "From Redmine",
      "Normal",
      "Tâche"
    ],
    "milestone": {
      "id": 268856,
      "iid": 14,
      "projectId": 2724222,
      "groupId": 0,
      "title": "1.6",
      "description": "\n\n*(from redmine: created on 2013-04-12)*",
      "dueDate": "Nov 30, 2015 1:00:00 AM",
      "state": "closed"
    },
    "assignee": {
      "_id": 166231,
      "_username": "tchemit",
      "_name": "Tony CHEMIT",
      "_state": "active",
      "_darkScheme": false,
      "_isAdmin": false,
      "_canCreateGroup": false,
      "_canCreateProject": false,
      "_canCreateTeam": false,
      "_avatarUrl": "https://secure.gravatar.com/avatar/2a915aa9a1df35c8b609ff2f750d5dac?s\u003d80\u0026d\u003didenticon"
    },
    "author": {
      "_id": 166231,
      "_username": "tchemit",
      "_name": "Tony CHEMIT",
      "_state": "active",
      "_darkScheme": false,
      "_isAdmin": false,
      "_canCreateGroup": false,
      "_canCreateProject": false,
      "_canCreateTeam": false,
      "_avatarUrl": "https://secure.gravatar.com/avatar/2a915aa9a1df35c8b609ff2f750d5dac?s\u003d80\u0026d\u003didenticon"
    },
    "state": "closed",
    "updatedAt": "Feb 17, 2017 4:15:24 PM",
    "createdAt": "Feb 17, 2017 4:15:22 PM"
  },
  {
    "id": 4428078,
    "iid": 183,
    "projectId": 2724222,
    "title": "Can\u0027t redeploy t3 in a tomcat",
    "description": "The internaldb is not well released when undeployed t3 (there is still a lock on internaldb).\n\n*(from redmine issue 3548 created on 2013-10-19, closed on 2013-10-19)*",
    "labels": [
      "Anomalie",
      "From Redmine",
      "Normal"
    ],
    "milestone": {
      "id": 268856,
      "iid": 14,
      "projectId": 2724222,
      "groupId": 0,
      "title": "1.6",
      "description": "\n\n*(from redmine: created on 2013-04-12)*",
      "dueDate": "Nov 30, 2015 1:00:00 AM",
      "state": "closed"
    },
    "assignee": {
      "_id": 166231,
      "_username": "tchemit",
      "_name": "Tony CHEMIT",
      "_state": "active",
      "_darkScheme": false,
      "_isAdmin": false,
      "_canCreateGroup": false,
      "_canCreateProject": false,
      "_canCreateTeam": false,
      "_avatarUrl": "https://secure.gravatar.com/avatar/2a915aa9a1df35c8b609ff2f750d5dac?s\u003d80\u0026d\u003didenticon"
    },
    "author": {
      "_id": 166231,
      "_username": "tchemit",
      "_name": "Tony CHEMIT",
      "_state": "active",
      "_darkScheme": false,
      "_isAdmin": false,
      "_canCreateGroup": false,
      "_canCreateProject": false,
      "_canCreateTeam": false,
      "_avatarUrl": "https://secure.gravatar.com/avatar/2a915aa9a1df35c8b609ff2f750d5dac?s\u003d80\u0026d\u003didenticon"
    },
    "state": "closed",
    "updatedAt": "Feb 17, 2017 4:15:21 PM",
    "createdAt": "Feb 17, 2017 4:15:19 PM"
  },
  {
    "id": 4428077,
    "iid": 182,
    "projectId": 2724222,
    "title": "Updates topia to 2.8.1.3",
    "description": "*(from redmine issue 3547 created on 2013-10-19, closed on 2013-10-19)*",
    "labels": [
      "From Redmine",
      "Normal",
      "Tâche"
    ],
    "milestone": {
      "id": 268856,
      "iid": 14,
      "projectId": 2724222,
      "groupId": 0,
      "title": "1.6",
      "description": "\n\n*(from redmine: created on 2013-04-12)*",
      "dueDate": "Nov 30, 2015 1:00:00 AM",
      "state": "closed"
    },
    "assignee": {
      "_id": 166231,
      "_username": "tchemit",
      "_name": "Tony CHEMIT",
      "_state": "active",
      "_darkScheme": false,
      "_isAdmin": false,
      "_canCreateGroup": false,
      "_canCreateProject": false,
      "_canCreateTeam": false,
      "_avatarUrl": "https://secure.gravatar.com/avatar/2a915aa9a1df35c8b609ff2f750d5dac?s\u003d80\u0026d\u003didenticon"
    },
    "author": {
      "_id": 166231,
      "_username": "tchemit",
      "_name": "Tony CHEMIT",
      "_state": "active",
      "_darkScheme": false,
      "_isAdmin": false,
      "_canCreateGroup": false,
      "_canCreateProject": false,
      "_canCreateTeam": false,
      "_avatarUrl": "https://secure.gravatar.com/avatar/2a915aa9a1df35c8b609ff2f750d5dac?s\u003d80\u0026d\u003didenticon"
    },
    "state": "closed",
    "updatedAt": "Feb 17, 2017 4:15:18 PM",
    "createdAt": "Feb 17, 2017 4:15:16 PM"
  },
  {
    "id": 4428076,
    "iid": 181,
    "projectId": 2724222,
    "title": "Updates mavenpom to 6.1",
    "description": "*(from redmine issue 3546 created on 2013-10-19, closed on 2013-10-19)*",
    "labels": [
      "From Redmine",
      "Normal",
      "Tâche"
    ],
    "milestone": {
      "id": 268856,
      "iid": 14,
      "projectId": 2724222,
      "groupId": 0,
      "title": "1.6",
      "description": "\n\n*(from redmine: created on 2013-04-12)*",
      "dueDate": "Nov 30, 2015 1:00:00 AM",
      "state": "closed"
    },
    "assignee": {
      "_id": 166231,
      "_username": "tchemit",
      "_name": "Tony CHEMIT",
      "_state": "active",
      "_darkScheme": false,
      "_isAdmin": false,
      "_canCreateGroup": false,
      "_canCreateProject": false,
      "_canCreateTeam": false,
      "_avatarUrl": "https://secure.gravatar.com/avatar/2a915aa9a1df35c8b609ff2f750d5dac?s\u003d80\u0026d\u003didenticon"
    },
    "author": {
      "_id": 166231,
      "_username": "tchemit",
      "_name": "Tony CHEMIT",
      "_state": "active",
      "_darkScheme": false,
      "_isAdmin": false,
      "_canCreateGroup": false,
      "_canCreateProject": false,
      "_canCreateTeam": false,
      "_avatarUrl": "https://secure.gravatar.com/avatar/2a915aa9a1df35c8b609ff2f750d5dac?s\u003d80\u0026d\u003didenticon"
    },
    "state": "closed",
    "updatedAt": "Feb 17, 2017 4:15:15 PM",
    "createdAt": "Feb 17, 2017 4:15:13 PM"
  },
  {
    "id": 4428073,
    "iid": 179,
    "projectId": 2724222,
    "title": "Renommage de tables et champs",
    "description": "Renommer :\n - table SampleWell en SampleSet\n - champ samplespecies.supersamplenumber en samplespecies.subsamplenumber\n\n*(from redmine issue 3230 created on 2013-09-13, closed on 2015-11-25)*",
    "labels": [
      "Evolution",
      "From Redmine",
      "Normal"
    ],
    "milestone": {
      "id": 268856,
      "iid": 14,
      "projectId": 2724222,
      "groupId": 0,
      "title": "1.6",
      "description": "\n\n*(from redmine: created on 2013-04-12)*",
      "dueDate": "Nov 30, 2015 1:00:00 AM",
      "state": "closed"
    },
    "assignee": {
      "_id": 166231,
      "_username": "tchemit",
      "_name": "Tony CHEMIT",
      "_state": "active",
      "_darkScheme": false,
      "_isAdmin": false,
      "_canCreateGroup": false,
      "_canCreateProject": false,
      "_canCreateTeam": false,
      "_avatarUrl": "https://secure.gravatar.com/avatar/2a915aa9a1df35c8b609ff2f750d5dac?s\u003d80\u0026d\u003didenticon"
    },
    "author": {
      "_id": 166231,
      "_username": "tchemit",
      "_name": "Tony CHEMIT",
      "_state": "active",
      "_darkScheme": false,
      "_isAdmin": false,
      "_canCreateGroup": false,
      "_canCreateProject": false,
      "_canCreateTeam": false,
      "_avatarUrl": "https://secure.gravatar.com/avatar/2a915aa9a1df35c8b609ff2f750d5dac?s\u003d80\u0026d\u003didenticon"
    },
    "state": "closed",
    "updatedAt": "Feb 17, 2017 4:15:11 PM",
    "createdAt": "Feb 17, 2017 4:15:09 PM"
  },
  {
    "id": 4428072,
    "iid": 178,
    "projectId": 2724222,
    "title": "Modification de l\u0027algo de test de qualité N3",
    "description": "Contrairement au N2, il suffit que l\u0027un des deux tests (ratio capturé/échantillonné OU seuil d\u0027effectif) soit validé pour que la strate échantillon soit validée. Alors qu\u0027actuellement il faut valider les 2.\n\nAu N2 par contre, on continue à valider l\u0027un ET l\u0027autre.\n\n*(from redmine issue 3229 created on 2013-09-13, closed on 2013-10-19)*",
    "labels": [
      "Evolution",
      "From Redmine",
      "Normal"
    ],
    "milestone": {
      "id": 268856,
      "iid": 14,
      "projectId": 2724222,
      "groupId": 0,
      "title": "1.6",
      "description": "\n\n*(from redmine: created on 2013-04-12)*",
      "dueDate": "Nov 30, 2015 1:00:00 AM",
      "state": "closed"
    },
    "assignee": {
      "_id": 166231,
      "_username": "tchemit",
      "_name": "Tony CHEMIT",
      "_state": "active",
      "_darkScheme": false,
      "_isAdmin": false,
      "_canCreateGroup": false,
      "_canCreateProject": false,
      "_canCreateTeam": false,
      "_avatarUrl": "https://secure.gravatar.com/avatar/2a915aa9a1df35c8b609ff2f750d5dac?s\u003d80\u0026d\u003didenticon"
    },
    "author": {
      "_id": 166231,
      "_username": "tchemit",
      "_name": "Tony CHEMIT",
      "_state": "active",
      "_darkScheme": false,
      "_isAdmin": false,
      "_canCreateGroup": false,
      "_canCreateProject": false,
      "_canCreateTeam": false,
      "_avatarUrl": "https://secure.gravatar.com/avatar/2a915aa9a1df35c8b609ff2f750d5dac?s\u003d80\u0026d\u003didenticon"
    },
    "state": "closed",
    "updatedAt": "Feb 17, 2017 4:15:08 PM",
    "createdAt": "Feb 17, 2017 4:15:04 PM"
  },
  {
    "id": 4428071,
    "iid": 177,
    "projectId": 2724222,
    "title": "Paramètres par défaut sur N3",
    "description": "Les valeurs par défaut sur les tests de qualité du N3 doivent être changées :\nrapport capturé/mesurés : 250.0 (au lieu de 40.0)\nnombres d\u0027échantillons requis : YFT 150 ; SKJ 150 ; BET 180 ; autres 25 (au lieu de 300; valeurs identiques pour BO et BI)\n\n*(from redmine issue 3228 created on 2013-09-13, closed on 2013-10-19, relates #7764)*",
    "labels": [
      "Evolution",
      "From Redmine",
      "Normal"
    ],
    "milestone": {
      "id": 268856,
      "iid": 14,
      "projectId": 2724222,
      "groupId": 0,
      "title": "1.6",
      "description": "\n\n*(from redmine: created on 2013-04-12)*",
      "dueDate": "Nov 30, 2015 1:00:00 AM",
      "state": "closed"
    },
    "assignee": {
      "_id": 166231,
      "_username": "tchemit",
      "_name": "Tony CHEMIT",
      "_state": "active",
      "_darkScheme": false,
      "_isAdmin": false,
      "_canCreateGroup": false,
      "_canCreateProject": false,
      "_canCreateTeam": false,
      "_avatarUrl": "https://secure.gravatar.com/avatar/2a915aa9a1df35c8b609ff2f750d5dac?s\u003d80\u0026d\u003didenticon"
    },
    "author": {
      "_id": 166231,
      "_username": "tchemit",
      "_name": "Tony CHEMIT",
      "_state": "active",
      "_darkScheme": false,
      "_isAdmin": false,
      "_canCreateGroup": false,
      "_canCreateProject": false,
      "_canCreateTeam": false,
      "_avatarUrl": "https://secure.gravatar.com/avatar/2a915aa9a1df35c8b609ff2f750d5dac?s\u003d80\u0026d\u003didenticon"
    },
    "state": "closed",
    "updatedAt": "Feb 17, 2017 4:15:03 PM",
    "createdAt": "Feb 17, 2017 4:15:00 PM"
  },
  {
    "id": 4428065,
    "iid": 173,
    "projectId": 2724222,
    "title": "Ajouter des index sur les champs Postgis",
    "description": "Soit une requête type (agréger des calées par zones EE).\nSans indexes, exécution \u003d des dizaines de minutes\nAvec indexes, exécution \u003d 3 secondes !\n\nIl suffit d\u0027ajouter ceci sur la base :\n\n\u003cpre\u003e\nCREATE INDEX idx_activity_gist ON activity USING GIST (the_geom);\n\nCREATE INDEX idx_zoneee_gist ON zoneee USING GIST (the_geom);\nCREATE INDEX idx_zonecwp_gist ON zonecwp USING GIST (the_geom);\nCREATE INDEX idx_zoneet_gist ON zoneet USING GIST (the_geom);\nCREATE INDEX idx_zonefao_gist ON zonefao USING GIST (the_geom);\n\u003c/pre\u003e\n\nLes index sur les tables de zones doivent donc être créés pour chaque table de zone, et doivent donc certainement se trouver dans les fichiers de zones .zip\n\n*(from redmine issue 2289 created on 2013-04-15, closed on 2015-11-30, duplicates #4343)*",
    "labels": [
      "Anomalie",
      "From Redmine",
      "Normal"
    ],
    "milestone": {
      "id": 268856,
      "iid": 14,
      "projectId": 2724222,
      "groupId": 0,
      "title": "1.6",
      "description": "\n\n*(from redmine: created on 2013-04-12)*",
      "dueDate": "Nov 30, 2015 1:00:00 AM",
      "state": "closed"
    },
    "assignee": {
      "_id": 166231,
      "_username": "tchemit",
      "_name": "Tony CHEMIT",
      "_state": "active",
      "_darkScheme": false,
      "_isAdmin": false,
      "_canCreateGroup": false,
      "_canCreateProject": false,
      "_canCreateTeam": false,
      "_avatarUrl": "https://secure.gravatar.com/avatar/2a915aa9a1df35c8b609ff2f750d5dac?s\u003d80\u0026d\u003didenticon"
    },
    "author": {
      "_id": 166231,
      "_username": "tchemit",
      "_name": "Tony CHEMIT",
      "_state": "active",
      "_darkScheme": false,
      "_isAdmin": false,
      "_canCreateGroup": false,
      "_canCreateProject": false,
      "_canCreateTeam": false,
      "_avatarUrl": "https://secure.gravatar.com/avatar/2a915aa9a1df35c8b609ff2f750d5dac?s\u003d80\u0026d\u003didenticon"
    },
    "state": "closed",
    "updatedAt": "Feb 17, 2017 4:14:52 PM",
    "createdAt": "Feb 17, 2017 4:14:48 PM"
  },
  {
    "id": 4428060,
    "iid": 171,
    "projectId": 2724222,
    "title": "Même quand n2 et n3 sont faits, la page de stats n\u0027affiche que des marées avec données \"partiellement calculés\"",
    "description": "Or une fois le n3 fait, les marées doivent être placées dans un onglet \"Toutes données calculées\".\n\nPeut-être est-ce une conséquence de [[http://forge.codelutin.com/issues/2286]]\n\n*(from redmine issue 2287 created on 2013-04-14, closed on 2015-11-30, relates #2286)*",
    "labels": [
      "Anomalie",
      "From Redmine",
      "Normal"
    ],
    "milestone": {
      "id": 268856,
      "iid": 14,
      "projectId": 2724222,
      "groupId": 0,
      "title": "1.6",
      "description": "\n\n*(from redmine: created on 2013-04-12)*",
      "dueDate": "Nov 30, 2015 1:00:00 AM",
      "state": "closed"
    },
    "assignee": {
      "_id": 166231,
      "_username": "tchemit",
      "_name": "Tony CHEMIT",
      "_state": "active",
      "_darkScheme": false,
      "_isAdmin": false,
      "_canCreateGroup": false,
      "_canCreateProject": false,
      "_canCreateTeam": false,
      "_avatarUrl": "https://secure.gravatar.com/avatar/2a915aa9a1df35c8b609ff2f750d5dac?s\u003d80\u0026d\u003didenticon"
    },
    "author": {
      "_id": 166231,
      "_username": "tchemit",
      "_name": "Tony CHEMIT",
      "_state": "active",
      "_darkScheme": false,
      "_isAdmin": false,
      "_canCreateGroup": false,
      "_canCreateProject": false,
      "_canCreateTeam": false,
      "_avatarUrl": "https://secure.gravatar.com/avatar/2a915aa9a1df35c8b609ff2f750d5dac?s\u003d80\u0026d\u003didenticon"
    },
    "state": "closed",
    "updatedAt": "Feb 17, 2017 4:14:33 PM",
    "createdAt": "Feb 17, 2017 4:14:30 PM"
  },
  {
    "id": 4428059,
    "iid": 170,
    "projectId": 2724222,
    "title": "Page d\u0027infos \"Marée\" : \"Niveau 2 calculé\" et \"Niveau 3 calculé\" non gérés",
    "description": "Les informations  \"Niveau 2 calculé\" et \"Niveau 3 calculé\" de la page d\u0027informations sur les marées (/trip/tripDetail) ne sont pas gérées correctement.\n\nL\u0027info reste à \"Non\" même si les calculs n2 et n2 ont été faits.\n\nPour le diagnostic j\u0027ai cherché des activités de marées dont activity.stratumleveln2 et activity.stratumleveln3 ont des valeurs (preuve que les n2 et n3 ont été faits), et j\u0027ai vérifié les valeurs deux valeurs en question sur la page d\u0027infos marée de quelques marées.\n\n*(from redmine issue 2286 created on 2013-04-14, closed on 2015-11-30, relates #2287)*",
    "labels": [
      "Anomalie",
      "From Redmine",
      "Normal"
    ],
    "milestone": {
      "id": 268856,
      "iid": 14,
      "projectId": 2724222,
      "groupId": 0,
      "title": "1.6",
      "description": "\n\n*(from redmine: created on 2013-04-12)*",
      "dueDate": "Nov 30, 2015 1:00:00 AM",
      "state": "closed"
    },
    "assignee": {
      "_id": 166231,
      "_username": "tchemit",
      "_name": "Tony CHEMIT",
      "_state": "active",
      "_darkScheme": false,
      "_isAdmin": false,
      "_canCreateGroup": false,
      "_canCreateProject": false,
      "_canCreateTeam": false,
      "_avatarUrl": "https://secure.gravatar.com/avatar/2a915aa9a1df35c8b609ff2f750d5dac?s\u003d80\u0026d\u003didenticon"
    },
    "author": {
      "_id": 166231,
      "_username": "tchemit",
      "_name": "Tony CHEMIT",
      "_state": "active",
      "_darkScheme": false,
      "_isAdmin": false,
      "_canCreateGroup": false,
      "_canCreateProject": false,
      "_canCreateTeam": false,
      "_avatarUrl": "https://secure.gravatar.com/avatar/2a915aa9a1df35c8b609ff2f750d5dac?s\u003d80\u0026d\u003didenticon"
    },
    "state": "closed",
    "updatedAt": "Feb 17, 2017 4:14:30 PM",
    "createdAt": "Feb 17, 2017 4:14:27 PM"
  },
  {
    "id": 4428094,
    "iid": 195,
    "projectId": 2724222,
    "title": "[PERSISTENCE] Renommer les champs libelle en label",
    "description": "Renommer tous les champs libelle en label\n\n*(from redmine issue 7756 created on 2015-11-24, closed on 2015-11-25)*",
    "labels": [
      "Bas",
      "Evolution",
      "From Redmine"
    ],
    "milestone": {
      "id": 268856,
      "iid": 14,
      "projectId": 2724222,
      "groupId": 0,
      "title": "1.6",
      "description": "\n\n*(from redmine: created on 2013-04-12)*",
      "dueDate": "Nov 30, 2015 1:00:00 AM",
      "state": "closed"
    },
    "assignee": {
      "_id": 166231,
      "_username": "tchemit",
      "_name": "Tony CHEMIT",
      "_state": "active",
      "_darkScheme": false,
      "_isAdmin": false,
      "_canCreateGroup": false,
      "_canCreateProject": false,
      "_canCreateTeam": false,
      "_avatarUrl": "https://secure.gravatar.com/avatar/2a915aa9a1df35c8b609ff2f750d5dac?s\u003d80\u0026d\u003didenticon"
    },
    "author": {
      "_id": 166231,
      "_username": "tchemit",
      "_name": "Tony CHEMIT",
      "_state": "active",
      "_darkScheme": false,
      "_isAdmin": false,
      "_canCreateGroup": false,
      "_canCreateProject": false,
      "_canCreateTeam": false,
      "_avatarUrl": "https://secure.gravatar.com/avatar/2a915aa9a1df35c8b609ff2f750d5dac?s\u003d80\u0026d\u003didenticon"
    },
    "state": "closed",
    "updatedAt": "Feb 17, 2017 4:16:00 PM",
    "createdAt": "Feb 17, 2017 4:15:58 PM"
  },
  {
    "id": 4428067,
    "iid": 174,
    "projectId": 2724222,
    "title": "Mettre à jour les seuils et ratios de qualité  des N2 et N3",
    "description": "Ratio capturés/mesurés : remplacer 40.0 par 250.0 sur N2 et N3\n\nPour le N3 changer la valeur actuelle 300 par :\nActuellement par défaut on a 300 partout\n - YFT 150\n - SKJ 150\n - BET 180\n - autres espèces 25\n\n*(from redmine issue 2298 created on 2013-04-16, closed on 2015-11-25, relates #7764)*",
    "labels": [
      "Bas",
      "Evolution",
      "From Redmine"
    ],
    "milestone": {
      "id": 268856,
      "iid": 14,
      "projectId": 2724222,
      "groupId": 0,
      "title": "1.6",
      "description": "\n\n*(from redmine: created on 2013-04-12)*",
      "dueDate": "Nov 30, 2015 1:00:00 AM",
      "state": "closed"
    },
    "assignee": {
      "_id": 166231,
      "_username": "tchemit",
      "_name": "Tony CHEMIT",
      "_state": "active",
      "_darkScheme": false,
      "_isAdmin": false,
      "_canCreateGroup": false,
      "_canCreateProject": false,
      "_canCreateTeam": false,
      "_avatarUrl": "https://secure.gravatar.com/avatar/2a915aa9a1df35c8b609ff2f750d5dac?s\u003d80\u0026d\u003didenticon"
    },
    "author": {
      "_id": 166231,
      "_username": "tchemit",
      "_name": "Tony CHEMIT",
      "_state": "active",
      "_darkScheme": false,
      "_isAdmin": false,
      "_canCreateGroup": false,
      "_canCreateProject": false,
      "_canCreateTeam": false,
      "_avatarUrl": "https://secure.gravatar.com/avatar/2a915aa9a1df35c8b609ff2f750d5dac?s\u003d80\u0026d\u003didenticon"
    },
    "state": "closed",
    "updatedAt": "Feb 17, 2017 4:14:56 PM",
    "createdAt": "Feb 17, 2017 4:14:53 PM"
  }
]