[
  {
    "id": 4427835,
    "iid": 31,
    "projectId": 2724222,
    "title": "Can not connect to a pg database",
    "description": "There is a nasty message  No suitable driver.\n\nA common workaround is done here : \n\nhttp://stackoverflow.com/questions/5556664/how-to-fix-no-suitable-driver-found-for-jdbcmysql-localhost-dbname-error-w\n\n*(from redmine issue 537 created on 2011-11-28, closed on 2011-11-28)*",
    "labels": [
      "Anomalie",
      "From Redmine",
      "Urgent"
    ],
    "milestone": {
      "id": 268846,
      "iid": 4,
      "projectId": 2724222,
      "groupId": 0,
      "title": "1.0.2",
      "description": "\n\n*(from redmine: created on 2011-11-28)*",
      "dueDate": "Nov 28, 2011 1:00:00 AM",
      "state": "closed"
    },
    "assignee": {
      "_id": 166231,
      "_username": "tchemit",
      "_name": "Tony CHEMIT",
      "_state": "active",
      "_darkScheme": false,
      "_isAdmin": false,
      "_canCreateGroup": false,
      "_canCreateProject": false,
      "_canCreateTeam": false,
      "_avatarUrl": "https://secure.gravatar.com/avatar/2a915aa9a1df35c8b609ff2f750d5dac?s\u003d80\u0026d\u003didenticon"
    },
    "author": {
      "_id": 166231,
      "_username": "tchemit",
      "_name": "Tony CHEMIT",
      "_state": "active",
      "_darkScheme": false,
      "_isAdmin": false,
      "_canCreateGroup": false,
      "_canCreateProject": false,
      "_canCreateTeam": false,
      "_avatarUrl": "https://secure.gravatar.com/avatar/2a915aa9a1df35c8b609ff2f750d5dac?s\u003d80\u0026d\u003didenticon"
    },
    "state": "closed",
    "updatedAt": "Feb 17, 2017 4:03:31 PM",
    "createdAt": "Feb 17, 2017 4:03:29 PM"
  },
  {
    "id": 4427847,
    "iid": 40,
    "projectId": 2724222,
    "title": "Updates to mavenpom 3.0.6",
    "description": "*(from redmine issue 546 created on 2011-11-28, closed on 2011-11-28)*",
    "labels": [
      "From Redmine",
      "Normal",
      "Tâche"
    ],
    "milestone": {
      "id": 268846,
      "iid": 4,
      "projectId": 2724222,
      "groupId": 0,
      "title": "1.0.2",
      "description": "\n\n*(from redmine: created on 2011-11-28)*",
      "dueDate": "Nov 28, 2011 1:00:00 AM",
      "state": "closed"
    },
    "assignee": {
      "_id": 166231,
      "_username": "tchemit",
      "_name": "Tony CHEMIT",
      "_state": "active",
      "_darkScheme": false,
      "_isAdmin": false,
      "_canCreateGroup": false,
      "_canCreateProject": false,
      "_canCreateTeam": false,
      "_avatarUrl": "https://secure.gravatar.com/avatar/2a915aa9a1df35c8b609ff2f750d5dac?s\u003d80\u0026d\u003didenticon"
    },
    "author": {
      "_id": 166231,
      "_username": "tchemit",
      "_name": "Tony CHEMIT",
      "_state": "active",
      "_darkScheme": false,
      "_isAdmin": false,
      "_canCreateGroup": false,
      "_canCreateProject": false,
      "_canCreateTeam": false,
      "_avatarUrl": "https://secure.gravatar.com/avatar/2a915aa9a1df35c8b609ff2f750d5dac?s\u003d80\u0026d\u003didenticon"
    },
    "state": "closed",
    "updatedAt": "Feb 17, 2017 4:04:04 PM",
    "createdAt": "Feb 17, 2017 4:04:02 PM"
  },
  {
    "id": 4427846,
    "iid": 39,
    "projectId": 2724222,
    "title": "Updates to sl4j 1.6.4",
    "description": "*(from redmine issue 545 created on 2011-11-28, closed on 2011-11-28)*",
    "labels": [
      "From Redmine",
      "Normal",
      "Tâche"
    ],
    "milestone": {
      "id": 268846,
      "iid": 4,
      "projectId": 2724222,
      "groupId": 0,
      "title": "1.0.2",
      "description": "\n\n*(from redmine: created on 2011-11-28)*",
      "dueDate": "Nov 28, 2011 1:00:00 AM",
      "state": "closed"
    },
    "assignee": {
      "_id": 166231,
      "_username": "tchemit",
      "_name": "Tony CHEMIT",
      "_state": "active",
      "_darkScheme": false,
      "_isAdmin": false,
      "_canCreateGroup": false,
      "_canCreateProject": false,
      "_canCreateTeam": false,
      "_avatarUrl": "https://secure.gravatar.com/avatar/2a915aa9a1df35c8b609ff2f750d5dac?s\u003d80\u0026d\u003didenticon"
    },
    "author": {
      "_id": 166231,
      "_username": "tchemit",
      "_name": "Tony CHEMIT",
      "_state": "active",
      "_darkScheme": false,
      "_isAdmin": false,
      "_canCreateGroup": false,
      "_canCreateProject": false,
      "_canCreateTeam": false,
      "_avatarUrl": "https://secure.gravatar.com/avatar/2a915aa9a1df35c8b609ff2f750d5dac?s\u003d80\u0026d\u003didenticon"
    },
    "state": "closed",
    "updatedAt": "Feb 17, 2017 4:04:01 PM",
    "createdAt": "Feb 17, 2017 4:03:58 PM"
  },
  {
    "id": 4427845,
    "iid": 38,
    "projectId": 2724222,
    "title": "Updates to postgresql 9.1-901.jdbc4",
    "description": "*(from redmine issue 544 created on 2011-11-28, closed on 2011-11-28)*",
    "labels": [
      "From Redmine",
      "Normal",
      "Tâche"
    ],
    "milestone": {
      "id": 268846,
      "iid": 4,
      "projectId": 2724222,
      "groupId": 0,
      "title": "1.0.2",
      "description": "\n\n*(from redmine: created on 2011-11-28)*",
      "dueDate": "Nov 28, 2011 1:00:00 AM",
      "state": "closed"
    },
    "assignee": {
      "_id": 166231,
      "_username": "tchemit",
      "_name": "Tony CHEMIT",
      "_state": "active",
      "_darkScheme": false,
      "_isAdmin": false,
      "_canCreateGroup": false,
      "_canCreateProject": false,
      "_canCreateTeam": false,
      "_avatarUrl": "https://secure.gravatar.com/avatar/2a915aa9a1df35c8b609ff2f750d5dac?s\u003d80\u0026d\u003didenticon"
    },
    "author": {
      "_id": 166231,
      "_username": "tchemit",
      "_name": "Tony CHEMIT",
      "_state": "active",
      "_darkScheme": false,
      "_isAdmin": false,
      "_canCreateGroup": false,
      "_canCreateProject": false,
      "_canCreateTeam": false,
      "_avatarUrl": "https://secure.gravatar.com/avatar/2a915aa9a1df35c8b609ff2f750d5dac?s\u003d80\u0026d\u003didenticon"
    },
    "state": "closed",
    "updatedAt": "Feb 17, 2017 4:03:57 PM",
    "createdAt": "Feb 17, 2017 4:03:54 PM"
  },
  {
    "id": 4427844,
    "iid": 37,
    "projectId": 2724222,
    "title": "Updates to h2 1.3.162",
    "description": "*(from redmine issue 543 created on 2011-11-28, closed on 2011-11-28)*",
    "labels": [
      "From Redmine",
      "Normal",
      "Tâche"
    ],
    "milestone": {
      "id": 268846,
      "iid": 4,
      "projectId": 2724222,
      "groupId": 0,
      "title": "1.0.2",
      "description": "\n\n*(from redmine: created on 2011-11-28)*",
      "dueDate": "Nov 28, 2011 1:00:00 AM",
      "state": "closed"
    },
    "assignee": {
      "_id": 166231,
      "_username": "tchemit",
      "_name": "Tony CHEMIT",
      "_state": "active",
      "_darkScheme": false,
      "_isAdmin": false,
      "_canCreateGroup": false,
      "_canCreateProject": false,
      "_canCreateTeam": false,
      "_avatarUrl": "https://secure.gravatar.com/avatar/2a915aa9a1df35c8b609ff2f750d5dac?s\u003d80\u0026d\u003didenticon"
    },
    "author": {
      "_id": 166231,
      "_username": "tchemit",
      "_name": "Tony CHEMIT",
      "_state": "active",
      "_darkScheme": false,
      "_isAdmin": false,
      "_canCreateGroup": false,
      "_canCreateProject": false,
      "_canCreateTeam": false,
      "_avatarUrl": "https://secure.gravatar.com/avatar/2a915aa9a1df35c8b609ff2f750d5dac?s\u003d80\u0026d\u003didenticon"
    },
    "state": "closed",
    "updatedAt": "Feb 17, 2017 4:03:54 PM",
    "createdAt": "Feb 17, 2017 4:03:51 PM"
  },
  {
    "id": 4427842,
    "iid": 36,
    "projectId": 2724222,
    "title": "updates to selenium 2.13.0",
    "description": "*(from redmine issue 542 created on 2011-11-28, closed on 2011-11-28)*",
    "labels": [
      "From Redmine",
      "Normal",
      "Tâche"
    ],
    "milestone": {
      "id": 268846,
      "iid": 4,
      "projectId": 2724222,
      "groupId": 0,
      "title": "1.0.2",
      "description": "\n\n*(from redmine: created on 2011-11-28)*",
      "dueDate": "Nov 28, 2011 1:00:00 AM",
      "state": "closed"
    },
    "assignee": {
      "_id": 166231,
      "_username": "tchemit",
      "_name": "Tony CHEMIT",
      "_state": "active",
      "_darkScheme": false,
      "_isAdmin": false,
      "_canCreateGroup": false,
      "_canCreateProject": false,
      "_canCreateTeam": false,
      "_avatarUrl": "https://secure.gravatar.com/avatar/2a915aa9a1df35c8b609ff2f750d5dac?s\u003d80\u0026d\u003didenticon"
    },
    "author": {
      "_id": 166231,
      "_username": "tchemit",
      "_name": "Tony CHEMIT",
      "_state": "active",
      "_darkScheme": false,
      "_isAdmin": false,
      "_canCreateGroup": false,
      "_canCreateProject": false,
      "_canCreateTeam": false,
      "_avatarUrl": "https://secure.gravatar.com/avatar/2a915aa9a1df35c8b609ff2f750d5dac?s\u003d80\u0026d\u003didenticon"
    },
    "state": "closed",
    "updatedAt": "Feb 17, 2017 4:03:50 PM",
    "createdAt": "Feb 17, 2017 4:03:48 PM"
  },
  {
    "id": 4427841,
    "iid": 35,
    "projectId": 2724222,
    "title": "Updates to jquery 3.2.0",
    "description": "*(from redmine issue 541 created on 2011-11-28, closed on 2011-11-28)*",
    "labels": [
      "From Redmine",
      "Normal",
      "Tâche"
    ],
    "milestone": {
      "id": 268846,
      "iid": 4,
      "projectId": 2724222,
      "groupId": 0,
      "title": "1.0.2",
      "description": "\n\n*(from redmine: created on 2011-11-28)*",
      "dueDate": "Nov 28, 2011 1:00:00 AM",
      "state": "closed"
    },
    "assignee": {
      "_id": 166231,
      "_username": "tchemit",
      "_name": "Tony CHEMIT",
      "_state": "active",
      "_darkScheme": false,
      "_isAdmin": false,
      "_canCreateGroup": false,
      "_canCreateProject": false,
      "_canCreateTeam": false,
      "_avatarUrl": "https://secure.gravatar.com/avatar/2a915aa9a1df35c8b609ff2f750d5dac?s\u003d80\u0026d\u003didenticon"
    },
    "author": {
      "_id": 166231,
      "_username": "tchemit",
      "_name": "Tony CHEMIT",
      "_state": "active",
      "_darkScheme": false,
      "_isAdmin": false,
      "_canCreateGroup": false,
      "_canCreateProject": false,
      "_canCreateTeam": false,
      "_avatarUrl": "https://secure.gravatar.com/avatar/2a915aa9a1df35c8b609ff2f750d5dac?s\u003d80\u0026d\u003didenticon"
    },
    "state": "closed",
    "updatedAt": "Feb 17, 2017 4:03:47 PM",
    "createdAt": "Feb 17, 2017 4:03:44 PM"
  },
  {
    "id": 4427840,
    "iid": 34,
    "projectId": 2724222,
    "title": "Updates to nuiton-utils 2.3.1",
    "description": "*(from redmine issue 540 created on 2011-11-28, closed on 2011-11-28)*",
    "labels": [
      "From Redmine",
      "Normal",
      "Tâche"
    ],
    "milestone": {
      "id": 268846,
      "iid": 4,
      "projectId": 2724222,
      "groupId": 0,
      "title": "1.0.2",
      "description": "\n\n*(from redmine: created on 2011-11-28)*",
      "dueDate": "Nov 28, 2011 1:00:00 AM",
      "state": "closed"
    },
    "assignee": {
      "_id": 166231,
      "_username": "tchemit",
      "_name": "Tony CHEMIT",
      "_state": "active",
      "_darkScheme": false,
      "_isAdmin": false,
      "_canCreateGroup": false,
      "_canCreateProject": false,
      "_canCreateTeam": false,
      "_avatarUrl": "https://secure.gravatar.com/avatar/2a915aa9a1df35c8b609ff2f750d5dac?s\u003d80\u0026d\u003didenticon"
    },
    "author": {
      "_id": 166231,
      "_username": "tchemit",
      "_name": "Tony CHEMIT",
      "_state": "active",
      "_darkScheme": false,
      "_isAdmin": false,
      "_canCreateGroup": false,
      "_canCreateProject": false,
      "_canCreateTeam": false,
      "_avatarUrl": "https://secure.gravatar.com/avatar/2a915aa9a1df35c8b609ff2f750d5dac?s\u003d80\u0026d\u003didenticon"
    },
    "state": "closed",
    "updatedAt": "Feb 17, 2017 4:03:43 PM",
    "createdAt": "Feb 17, 2017 4:03:40 PM"
  },
  {
    "id": 4427838,
    "iid": 33,
    "projectId": 2724222,
    "title": "Updates to nuiton-web 1.7",
    "description": "*(from redmine issue 539 created on 2011-11-28, closed on 2011-11-28)*",
    "labels": [
      "From Redmine",
      "Normal",
      "Tâche"
    ],
    "milestone": {
      "id": 268846,
      "iid": 4,
      "projectId": 2724222,
      "groupId": 0,
      "title": "1.0.2",
      "description": "\n\n*(from redmine: created on 2011-11-28)*",
      "dueDate": "Nov 28, 2011 1:00:00 AM",
      "state": "closed"
    },
    "assignee": {
      "_id": 166231,
      "_username": "tchemit",
      "_name": "Tony CHEMIT",
      "_state": "active",
      "_darkScheme": false,
      "_isAdmin": false,
      "_canCreateGroup": false,
      "_canCreateProject": false,
      "_canCreateTeam": false,
      "_avatarUrl": "https://secure.gravatar.com/avatar/2a915aa9a1df35c8b609ff2f750d5dac?s\u003d80\u0026d\u003didenticon"
    },
    "author": {
      "_id": 166231,
      "_username": "tchemit",
      "_name": "Tony CHEMIT",
      "_state": "active",
      "_darkScheme": false,
      "_isAdmin": false,
      "_canCreateGroup": false,
      "_canCreateProject": false,
      "_canCreateTeam": false,
      "_avatarUrl": "https://secure.gravatar.com/avatar/2a915aa9a1df35c8b609ff2f750d5dac?s\u003d80\u0026d\u003didenticon"
    },
    "state": "closed",
    "updatedAt": "Feb 17, 2017 4:03:39 PM",
    "createdAt": "Feb 17, 2017 4:03:36 PM"
  },
  {
    "id": 4427836,
    "iid": 32,
    "projectId": 2724222,
    "title": "Updates to ToPIA 2.6.4",
    "description": "*(from redmine issue 538 created on 2011-11-28, closed on 2011-11-28)*",
    "labels": [
      "From Redmine",
      "Normal",
      "Tâche"
    ],
    "milestone": {
      "id": 268846,
      "iid": 4,
      "projectId": 2724222,
      "groupId": 0,
      "title": "1.0.2",
      "description": "\n\n*(from redmine: created on 2011-11-28)*",
      "dueDate": "Nov 28, 2011 1:00:00 AM",
      "state": "closed"
    },
    "assignee": {
      "_id": 166231,
      "_username": "tchemit",
      "_name": "Tony CHEMIT",
      "_state": "active",
      "_darkScheme": false,
      "_isAdmin": false,
      "_canCreateGroup": false,
      "_canCreateProject": false,
      "_canCreateTeam": false,
      "_avatarUrl": "https://secure.gravatar.com/avatar/2a915aa9a1df35c8b609ff2f750d5dac?s\u003d80\u0026d\u003didenticon"
    },
    "author": {
      "_id": 166231,
      "_username": "tchemit",
      "_name": "Tony CHEMIT",
      "_state": "active",
      "_darkScheme": false,
      "_isAdmin": false,
      "_canCreateGroup": false,
      "_canCreateProject": false,
      "_canCreateTeam": false,
      "_avatarUrl": "https://secure.gravatar.com/avatar/2a915aa9a1df35c8b609ff2f750d5dac?s\u003d80\u0026d\u003didenticon"
    },
    "state": "closed",
    "updatedAt": "Feb 17, 2017 4:03:35 PM",
    "createdAt": "Feb 17, 2017 4:03:32 PM"
  }
]