[
  {
    "id": 4427937,
    "iid": 96,
    "projectId": 2724222,
    "title": "Fix migration",
    "description": "there is some missing request + commented codes\n\n*(from redmine issue 1147 created on 2012-04-19, closed on 2012-04-20)*",
    "labels": [
      "Anomalie",
      "From Redmine",
      "Normal"
    ],
    "milestone": {
      "id": 268851,
      "iid": 9,
      "projectId": 2724222,
      "groupId": 0,
      "title": "1.2.1",
      "description": "\n\n*(from redmine: created on 2012-04-20)*",
      "dueDate": "Apr 20, 2012 2:00:00 AM",
      "state": "closed"
    },
    "assignee": {
      "_id": 166231,
      "_username": "tchemit",
      "_name": "Tony CHEMIT",
      "_state": "active",
      "_darkScheme": false,
      "_isAdmin": false,
      "_canCreateGroup": false,
      "_canCreateProject": false,
      "_canCreateTeam": false,
      "_avatarUrl": "https://secure.gravatar.com/avatar/2a915aa9a1df35c8b609ff2f750d5dac?s\u003d80\u0026d\u003didenticon"
    },
    "author": {
      "_id": 166231,
      "_username": "tchemit",
      "_name": "Tony CHEMIT",
      "_state": "active",
      "_darkScheme": false,
      "_isAdmin": false,
      "_canCreateGroup": false,
      "_canCreateProject": false,
      "_canCreateTeam": false,
      "_avatarUrl": "https://secure.gravatar.com/avatar/2a915aa9a1df35c8b609ff2f750d5dac?s\u003d80\u0026d\u003didenticon"
    },
    "state": "closed",
    "updatedAt": "Feb 17, 2017 4:09:08 PM",
    "createdAt": "Feb 17, 2017 4:09:04 PM"
  }
]