[
  {
    "name": "Installer",
    "filename": "t3-1.3.2.zip",
    "url": "https://repo1.maven.org/maven2/fr/ird/t3/t3/1.3.2/t3-1.3.2.zip"
  },
  {
    "name": "Application",
    "filename": "t3-1.3.2.war",
    "url": "https://repo1.maven.org/maven2/fr/ird/t3/t3/1.3.2/t3-1.3.2.war"
  }
]