[
  {
    "name": "Installer",
    "filename": "t3-1.4.zip",
    "url": "https://repo1.maven.org/maven2/fr/ird/t3/t3/1.4/t3-1.4.zip"
  },
  {
    "name": "Application",
    "filename": "t3-1.4.war",
    "url": "https://repo1.maven.org/maven2/fr/ird/t3/t3/1.4/t3-1.4.war"
  }
]