{
  "id": 268853,
  "iid": 11,
  "projectId": 2724222,
  "groupId": 0,
  "title": "1.3.1",
  "description": "Mise au point avant le niveau 3\n\n*(from redmine: created on 2012-04-29)*",
  "dueDate": "Jun 15, 2012 2:00:00 AM",
  "state": "closed"
}