[
  {
    "id": 4428057,
    "iid": 168,
    "projectId": 2724222,
    "title": "Arrrg ! bug jsp au lancement du n2",
    "description": "Sur version 1.5\n---------------\n\nn0 et 1 faits, on configure le n2 (cf image PJ) et au lancement l\u0027erreur suivante se produit :\n\n\u003cpre\u003e\norg.apache.jasper.JasperException: java.lang.ClassNotFoundException: org.apache.jsp.WEB_002dINF.jsp.data.level2.level2ConfigurationStep2_jsp\n\torg.apache.jasper.servlet.JspServletWrapper.getServlet(JspServletWrapper.java:177)\n\torg.apache.jasper.servlet.JspServletWrapper.service(JspServletWrapper.java:369)\n\torg.apache.jasper.servlet.JspServlet.serviceJspFile(JspServlet.java:390)\n\torg.apache.jasper.servlet.JspServlet.service(JspServlet.java:334)\n\tjavax.servlet.http.HttpServlet.service(HttpServlet.java:722)\n\torg.apache.struts2.dispatcher.ServletDispatcherResult.doExecute(ServletDispatcherResult.java:164)\n\torg.apache.struts2.dispatcher.StrutsResultSupport.execute(StrutsResultSupport.java:186)\n\tcom.opensymphony.xwork2.DefaultActionInvocation.executeResult(DefaultActionInvocation.java:371)\n\tcom.opensymphony.xwork2.DefaultActionInvocation.invoke(DefaultActionInvocation.java:275)\n\tcom.opensymphony.xwork2.interceptor.MethodFilterInterceptor.intercept(MethodFilterInterceptor.java:100)\n\tcom.opensymphony.xwork2.DefaultActionInvocation.invoke(DefaultActionInvocation.java:246)\n\tcom.opensymphony.xwork2.interceptor.MethodFilterInterceptor.intercept(MethodFilterInterceptor.java:100)\n\tcom.opensymphony.xwork2.DefaultActionInvocation.invoke(DefaultActionInvocation.java:246)\n\tcom.opensymphony.xwork2.interceptor.ConversionErrorInterceptor.intercept(ConversionErrorInterceptor.java:138)\n\tcom.opensymphony.xwork2.DefaultActionInvocation.invoke(DefaultActionInvocation.java:246)\n\tcom.opensymphony.xwork2.interceptor.ParametersInterceptor.doIntercept(ParametersInterceptor.java:249)\n\tcom.opensymphony.xwork2.interceptor.MethodFilterInterceptor.intercept(MethodFilterInterceptor.java:98)\n\tcom.opensymphony.xwork2.DefaultActionInvocation.invoke(DefaultActionInvocation.java:246)\n\tcom.opensymphony.xwork2.interceptor.ParametersInterceptor.doIntercept(ParametersInterceptor.java:249)\n\tcom.opensymphony.xwork2.interceptor.MethodFilterInterceptor.intercept(MethodFilterInterceptor.java:98)\n\tcom.opensymphony.xwork2.DefaultActionInvocation.invoke(DefaultActionInvocation.java:246)\n\tcom.opensymphony.xwork2.interceptor.StaticParametersInterceptor.intercept(StaticParametersInterceptor.java:191)\n\tcom.opensymphony.xwork2.DefaultActionInvocation.invoke(DefaultActionInvocation.java:246)\n\torg.apache.struts2.interceptor.FileUploadInterceptor.intercept(FileUploadInterceptor.java:252)\n\tcom.opensymphony.xwork2.DefaultActionInvocation.invoke(DefaultActionInvocation.java:246)\n\tcom.opensymphony.xwork2.interceptor.ModelDrivenInterceptor.intercept(ModelDrivenInterceptor.java:100)\n\tcom.opensymphony.xwork2.DefaultActionInvocation.invoke(DefaultActionInvocation.java:246)\n\tcom.opensymphony.xwork2.interceptor.ChainingInterceptor.intercept(ChainingInterceptor.java:145)\n\tcom.opensymphony.xwork2.DefaultActionInvocation.invoke(DefaultActionInvocation.java:246)\n\tcom.opensymphony.xwork2.interceptor.PrepareInterceptor.doIntercept(PrepareInterceptor.java:171)\n\tcom.opensymphony.xwork2.interceptor.MethodFilterInterceptor.intercept(MethodFilterInterceptor.java:98)\n\tcom.opensymphony.xwork2.DefaultActionInvocation.invoke(DefaultActionInvocation.java:246)\n\torg.apache.struts2.interceptor.ServletConfigInterceptor.intercept(ServletConfigInterceptor.java:164)\n\tcom.opensymphony.xwork2.DefaultActionInvocation.invoke(DefaultActionInvocation.java:246)\n\tcom.opensymphony.xwork2.interceptor.ParametersInterceptor.doIntercept(ParametersInterceptor.java:249)\n\tcom.opensymphony.xwork2.interceptor.MethodFilterInterceptor.intercept(MethodFilterInterceptor.java:98)\n\tcom.opensymphony.xwork2.DefaultActionInvocation.invoke(DefaultActionInvocation.java:246)\n\torg.apache.struts2.interceptor.MultiselectInterceptor.intercept(MultiselectInterceptor.java:73)\n\tcom.opensymphony.xwork2.DefaultActionInvocation.invoke(DefaultActionInvocation.java:246)\n\torg.apache.struts2.interceptor.CheckboxInterceptor.intercept(CheckboxInterceptor.java:91)\n\tcom.opensymphony.xwork2.DefaultActionInvocation.invoke(DefaultActionInvocation.java:246)\n\tcom.opensymphony.xwork2.interceptor.I18nInterceptor.intercept(I18nInterceptor.java:176)\n\tcom.opensymphony.xwork2.DefaultActionInvocation.invoke(DefaultActionInvocation.java:246)\n\tcom.opensymphony.xwork2.interceptor.AliasInterceptor.intercept(AliasInterceptor.java:193)\n\tcom.opensymphony.xwork2.DefaultActionInvocation.invoke(DefaultActionInvocation.java:246)\n\tcom.opensymphony.xwork2.interceptor.ExceptionMappingInterceptor.intercept(ExceptionMappingInterceptor.java:187)\n\tcom.opensymphony.xwork2.DefaultActionInvocation.invoke(DefaultActionInvocation.java:246)\n\tfr.ird.t3.web.interceptors.AbstractCheckInterceptor.intercept(AbstractCheckInterceptor.java:74)\n\tcom.opensymphony.xwork2.DefaultActionInvocation.invoke(DefaultActionInvocation.java:246)\n\tfr.ird.t3.web.interceptors.AbstractCheckInterceptor.intercept(AbstractCheckInterceptor.java:74)\n\tcom.opensymphony.xwork2.DefaultActionInvocation.invoke(DefaultActionInvocation.java:246)\n\tfr.ird.t3.web.interceptors.AbstractCheckInterceptor.intercept(AbstractCheckInterceptor.java:74)\n\tcom.opensymphony.xwork2.DefaultActionInvocation.invoke(DefaultActionInvocation.java:246)\n\torg.apache.struts2.impl.StrutsActionProxy.execute(StrutsActionProxy.java:54)\n\torg.apache.struts2.dispatcher.Dispatcher.serviceAction(Dispatcher.java:546)\n\torg.apache.struts2.dispatcher.ng.ExecuteOperations.executeAction(ExecuteOperations.java:77)\n\torg.apache.struts2.dispatcher.ng.filter.StrutsExecuteFilter.doFilter(StrutsExecuteFilter.java:88)\n\tcom.opensymphony.sitemesh.webapp.SiteMeshFilter.obtainContent(SiteMeshFilter.java:129)\n\tcom.opensymphony.sitemesh.webapp.SiteMeshFilter.doFilter(SiteMeshFilter.java:77)\n\torg.apache.struts2.dispatcher.ng.filter.StrutsPrepareFilter.doFilter(StrutsPrepareFilter.java:82)\n\torg.nuiton.web.filter.TopiaTransactionFilter.doFilter(TopiaTransactionFilter.java:228)\n\torg.nuiton.web.filter.TopiaTransactionFilter.doFilter(TopiaTransactionFilter.java:228)\n\ncause mère\n\njava.lang.ClassNotFoundException: org.apache.jsp.WEB_002dINF.jsp.data.level2.level2ConfigurationStep2_jsp\n\tjava.net.URLClassLoader$1.run(URLClassLoader.java:366)\n\tjava.net.URLClassLoader$1.run(URLClassLoader.java:355)\n\tjava.security.AccessController.doPrivileged(Native Method)\n\tjava.net.URLClassLoader.findClass(URLClassLoader.java:354)\n\torg.apache.jasper.servlet.JasperLoader.loadClass(JasperLoader.java:132)\n\torg.apache.jasper.servlet.JasperLoader.loadClass(JasperLoader.java:63)\n\torg.apache.jasper.servlet.JspServletWrapper.getServlet(JspServletWrapper.java:172)\n\torg.apache.jasper.servlet.JspServletWrapper.service(JspServletWrapper.java:369)\n\torg.apache.jasper.servlet.JspServlet.serviceJspFile(JspServlet.java:390)\n\torg.apache.jasper.servlet.JspServlet.service(JspServlet.java:334)\n\tjavax.servlet.http.HttpServlet.service(HttpServlet.java:722)\n\torg.apache.struts2.dispatcher.ServletDispatcherResult.doExecute(ServletDispatcherResult.java:164)\n\torg.apache.struts2.dispatcher.StrutsResultSupport.execute(StrutsResultSupport.java:186)\n\tcom.opensymphony.xwork2.DefaultActionInvocation.executeResult(DefaultActionInvocation.java:371)\n\tcom.opensymphony.xwork2.DefaultActionInvocation.invoke(DefaultActionInvocation.java:275)\n\tcom.opensymphony.xwork2.interceptor.MethodFilterInterceptor.intercept(MethodFilterInterceptor.java:100)\n\tcom.opensymphony.xwork2.DefaultActionInvocation.invoke(DefaultActionInvocation.java:246)\n\tcom.opensymphony.xwork2.interceptor.MethodFilterInterceptor.intercept(MethodFilterInterceptor.java:100)\n\tcom.opensymphony.xwork2.DefaultActionInvocation.invoke(DefaultActionInvocation.java:246)\n\tcom.opensymphony.xwork2.interceptor.ConversionErrorInterceptor.intercept(ConversionErrorInterceptor.java:138)\n\tcom.opensymphony.xwork2.DefaultActionInvocation.invoke(DefaultActionInvocation.java:246)\n\tcom.opensymphony.xwork2.interceptor.ParametersInterceptor.doIntercept(ParametersInterceptor.java:249)\n\tcom.opensymphony.xwork2.interceptor.MethodFilterInterceptor.intercept(MethodFilterInterceptor.java:98)\n\tcom.opensymphony.xwork2.DefaultActionInvocation.invoke(DefaultActionInvocation.java:246)\n\tcom.opensymphony.xwork2.interceptor.ParametersInterceptor.doIntercept(ParametersInterceptor.java:249)\n\tcom.opensymphony.xwork2.interceptor.MethodFilterInterceptor.intercept(MethodFilterInterceptor.java:98)\n\tcom.opensymphony.xwork2.DefaultActionInvocation.invoke(DefaultActionInvocation.java:246)\n\tcom.opensymphony.xwork2.interceptor.StaticParametersInterceptor.intercept(StaticParametersInterceptor.java:191)\n\tcom.opensymphony.xwork2.DefaultActionInvocation.invoke(DefaultActionInvocation.java:246)\n\torg.apache.struts2.interceptor.FileUploadInterceptor.intercept(FileUploadInterceptor.java:252)\n\tcom.opensymphony.xwork2.DefaultActionInvocation.invoke(DefaultActionInvocation.java:246)\n\tcom.opensymphony.xwork2.interceptor.ModelDrivenInterceptor.intercept(ModelDrivenInterceptor.java:100)\n\tcom.opensymphony.xwork2.DefaultActionInvocation.invoke(DefaultActionInvocation.java:246)\n\tcom.opensymphony.xwork2.interceptor.ChainingInterceptor.intercept(ChainingInterceptor.java:145)\n\tcom.opensymphony.xwork2.DefaultActionInvocation.invoke(DefaultActionInvocation.java:246)\n\tcom.opensymphony.xwork2.interceptor.PrepareInterceptor.doIntercept(PrepareInterceptor.java:171)\n\tcom.opensymphony.xwork2.interceptor.MethodFilterInterceptor.intercept(MethodFilterInterceptor.java:98)\n\tcom.opensymphony.xwork2.DefaultActionInvocation.invoke(DefaultActionInvocation.java:246)\n\torg.apache.struts2.interceptor.ServletConfigInterceptor.intercept(ServletConfigInterceptor.java:164)\n\tcom.opensymphony.xwork2.DefaultActionInvocation.invoke(DefaultActionInvocation.java:246)\n\tcom.opensymphony.xwork2.interceptor.ParametersInterceptor.doIntercept(ParametersInterceptor.java:249)\n\tcom.opensymphony.xwork2.interceptor.MethodFilterInterceptor.intercept(MethodFilterInterceptor.java:98)\n\tcom.opensymphony.xwork2.DefaultActionInvocation.invoke(DefaultActionInvocation.java:246)\n\torg.apache.struts2.interceptor.MultiselectInterceptor.intercept(MultiselectInterceptor.java:73)\n\tcom.opensymphony.xwork2.DefaultActionInvocation.invoke(DefaultActionInvocation.java:246)\n\torg.apache.struts2.interceptor.CheckboxInterceptor.intercept(CheckboxInterceptor.java:91)\n\tcom.opensymphony.xwork2.DefaultActionInvocation.invoke(DefaultActionInvocation.java:246)\n\tcom.opensymphony.xwork2.interceptor.I18nInterceptor.intercept(I18nInterceptor.java:176)\n\tcom.opensymphony.xwork2.DefaultActionInvocation.invoke(DefaultActionInvocation.java:246)\n\tcom.opensymphony.xwork2.interceptor.AliasInterceptor.intercept(AliasInterceptor.java:193)\n\tcom.opensymphony.xwork2.DefaultActionInvocation.invoke(DefaultActionInvocation.java:246)\n\tcom.opensymphony.xwork2.interceptor.ExceptionMappingInterceptor.intercept(ExceptionMappingInterceptor.java:187)\n\tcom.opensymphony.xwork2.DefaultActionInvocation.invoke(DefaultActionInvocation.java:246)\n\tfr.ird.t3.web.interceptors.AbstractCheckInterceptor.intercept(AbstractCheckInterceptor.java:74)\n\tcom.opensymphony.xwork2.DefaultActionInvocation.invoke(DefaultActionInvocation.java:246)\n\tfr.ird.t3.web.interceptors.AbstractCheckInterceptor.intercept(AbstractCheckInterceptor.java:74)\n\tcom.opensymphony.xwork2.DefaultActionInvocation.invoke(DefaultActionInvocation.java:246)\n\tfr.ird.t3.web.interceptors.AbstractCheckInterceptor.intercept(AbstractCheckInterceptor.java:74)\n\tcom.opensymphony.xwork2.DefaultActionInvocation.invoke(DefaultActionInvocation.java:246)\n\torg.apache.struts2.impl.StrutsActionProxy.execute(StrutsActionProxy.java:54)\n\torg.apache.struts2.dispatcher.Dispatcher.serviceAction(Dispatcher.java:546)\n\torg.apache.struts2.dispatcher.ng.ExecuteOperations.executeAction(ExecuteOperations.java:77)\n\torg.apache.struts2.dispatcher.ng.filter.StrutsExecuteFilter.doFilter(StrutsExecuteFilter.java:88)\n\tcom.opensymphony.sitemesh.webapp.SiteMeshFilter.obtainContent(SiteMeshFilter.java:129)\n\tcom.opensymphony.sitemesh.webapp.SiteMeshFilter.doFilter(SiteMeshFilter.java:77)\n\torg.apache.struts2.dispatcher.ng.filter.StrutsPrepareFilter.doFilter(StrutsPrepareFilter.java:82)\n\torg.nuiton.web.filter.TopiaTransactionFilter.doFilter(TopiaTransactionFilter.java:228)\n\torg.nuiton.web.filter.TopiaTransactionFilter.doFilter(TopiaTransactionFilter.java:228)\n\u003c/pre\u003e\n\n*(from redmine issue 2284 created on 2013-04-12, closed on 2013-04-13)*\n\n### Files\n  * [Capture du 2013-04-12 23_41_39.png] (https://forge.codelutin.com/attachments/download/677/Capture%20du%202013-04-12%2023_41_39.png)",
    "labels": [
      "Anomalie",
      "From Redmine",
      "Immédiat"
    ],
    "milestone": {
      "id": 268857,
      "iid": 15,
      "projectId": 2724222,
      "groupId": 0,
      "title": "1.5.1",
      "description": "\n\n*(from redmine: created on 2013-04-13)*",
      "dueDate": "Apr 13, 2013 2:00:00 AM",
      "state": "closed"
    },
    "assignee": {
      "_id": 166231,
      "_username": "tchemit",
      "_name": "Tony CHEMIT",
      "_state": "active",
      "_darkScheme": false,
      "_isAdmin": false,
      "_canCreateGroup": false,
      "_canCreateProject": false,
      "_canCreateTeam": false,
      "_avatarUrl": "https://secure.gravatar.com/avatar/2a915aa9a1df35c8b609ff2f750d5dac?s\u003d80\u0026d\u003didenticon"
    },
    "author": {
      "_id": 166231,
      "_username": "tchemit",
      "_name": "Tony CHEMIT",
      "_state": "active",
      "_darkScheme": false,
      "_isAdmin": false,
      "_canCreateGroup": false,
      "_canCreateProject": false,
      "_canCreateTeam": false,
      "_avatarUrl": "https://secure.gravatar.com/avatar/2a915aa9a1df35c8b609ff2f750d5dac?s\u003d80\u0026d\u003didenticon"
    },
    "state": "closed",
    "updatedAt": "Mar 30, 2017 10:07:42 AM",
    "createdAt": "Feb 17, 2017 4:14:13 PM"
  }
]