[
  {
    "id": 4427901,
    "iid": 71,
    "projectId": 2724222,
    "title": "N2 : java.lang.IllegalStateException: Can not find activities for sample stratum at level 8",
    "description": "Premiers tests sur le N2.\n\nDonnées testées :\nJ\u0027ai une année de données (2007) qui passe le N1 correctement (en apparence). Tous les flags de réalisation de ses échantillons (dans Sample) sont à true (mais toujours pas pas le flag qui résume l\u0027ensemble du N1 (Trip.samplestandardised), cf. bug remonté dans une notification précédente). Pour autant le traitement N2 veut bien se lancer.\n\nRésumé de la sélection :\n - Capture OA du 01/2007 au 12/2007\n - Espèces : les 3 par défaut\n - flotte échantillons : FR\n - Pavillons : tous\n - Seuil : par défaut\n\nLe calcul se lance mais plante très rapidement avec le message :\n\n------------------------------------\njava.lang.IllegalStateException: Can not find activities for sample stratum at level 8\n\tfr.ird.t3.actions.data.level2.Level2SampleStratumLoaderAtlantic.findActivityIds(Level2SampleStratumLoaderAtlantic.java:131)\n\tfr.ird.t3.actions.data.AbstractSampleStratumLoader.loadDatas(AbstractSampleStratumLoader.java:159)\n\tfr.ird.t3.actions.data.AbstractSampleStratum.init(AbstractSampleStratum.java:94)\n\tfr.ird.t3.actions.data.level2.Level2SampleStratum.init(Level2SampleStratum.java:101)\n\tfr.ird.t3.actions.data.level2.Level2Action.newSampleStratum(Level2Action.java:287)\n\tfr.ird.t3.actions.data.level2.Level2Action.doExecuteStratum(Level2Action.java:242)\n\tfr.ird.t3.actions.data.level2.Level2Action.executeAction(Level2Action.java:202)\n\tfr.ird.t3.actions.T3Action.run(T3Action.java:100)\n\tfr.ird.t3.web.actions.AbstractRunAction.executeAction(AbstractRunAction.java:130)\n\tfr.ird.t3.web.actions.AbstractRunAction.execute(AbstractRunAction.java:118)\n\tsun.reflect.NativeMethodAccessorImpl.invoke0(Native Method)\n\tsun.reflect.NativeMethodAccessorImpl.invoke(NativeMethodAccessorImpl.java:57)\n\tsun.reflect.DelegatingMethodAccessorImpl.invoke(DelegatingMethodAccessorImpl.java:43)\n\tjava.lang.reflect.Method.invoke(Method.java:616)\n\tcom.opensymphony.xwork2.DefaultActionInvocation.invokeAction(DefaultActionInvocation.java:453)\n\tcom.opensymphony.xwork2.DefaultActionInvocation.invokeActionOnly(DefaultActionInvocation.java:292)\n\torg.apache.struts2.interceptor.BackgroundProcess$1.run(BackgroundProcess.java:57)\n\tjava.lang.Thread.run(Thread.java:679)\n------------------------------------\n\n1) S\u0027agit-il du level 8 du schéma de substitution de strate ?\n\nSi l\u0027algo parvient au livel 8, c\u0027est que la sélection et le choix des échantillons doit se faire mal (on ne devrait pas descendre aussi bas)\n\n2) Malgré tout, une fois arrivé au l8, pourquoi ce message ?\n\n*(from redmine issue 1063 created on 2012-03-30, closed on 2012-04-25)*",
    "labels": [
      "Anomalie",
      "From Redmine",
      "Haut"
    ],
    "milestone": {
      "id": 268847,
      "iid": 5,
      "projectId": 2724222,
      "groupId": 0,
      "title": "1.3",
      "description": "Calcul du niveau 2\n\n*(from redmine: created on 2012-02-06)*",
      "dueDate": "Apr 28, 2012 2:00:00 AM",
      "state": "closed"
    },
    "assignee": {
      "_id": 166231,
      "_username": "tchemit",
      "_name": "Tony CHEMIT",
      "_state": "active",
      "_darkScheme": false,
      "_isAdmin": false,
      "_canCreateGroup": false,
      "_canCreateProject": false,
      "_canCreateTeam": false,
      "_avatarUrl": "https://secure.gravatar.com/avatar/2a915aa9a1df35c8b609ff2f750d5dac?s\u003d80\u0026d\u003didenticon"
    },
    "author": {
      "_id": 166231,
      "_username": "tchemit",
      "_name": "Tony CHEMIT",
      "_state": "active",
      "_darkScheme": false,
      "_isAdmin": false,
      "_canCreateGroup": false,
      "_canCreateProject": false,
      "_canCreateTeam": false,
      "_avatarUrl": "https://secure.gravatar.com/avatar/2a915aa9a1df35c8b609ff2f750d5dac?s\u003d80\u0026d\u003didenticon"
    },
    "state": "closed",
    "updatedAt": "Feb 17, 2017 4:07:17 PM",
    "createdAt": "Feb 17, 2017 4:07:14 PM"
  },
  {
    "id": 4427974,
    "iid": 119,
    "projectId": 2724222,
    "title": "Manque un champ ExtrapolatedAllSetSpeciesFrequency#lfLengthClass",
    "description": "*(from redmine issue 1181 created on 2012-04-28, closed on 2012-04-28)*",
    "labels": [
      "Anomalie",
      "From Redmine",
      "Normal"
    ],
    "milestone": {
      "id": 268847,
      "iid": 5,
      "projectId": 2724222,
      "groupId": 0,
      "title": "1.3",
      "description": "Calcul du niveau 2\n\n*(from redmine: created on 2012-02-06)*",
      "dueDate": "Apr 28, 2012 2:00:00 AM",
      "state": "closed"
    },
    "assignee": {
      "_id": 166231,
      "_username": "tchemit",
      "_name": "Tony CHEMIT",
      "_state": "active",
      "_darkScheme": false,
      "_isAdmin": false,
      "_canCreateGroup": false,
      "_canCreateProject": false,
      "_canCreateTeam": false,
      "_avatarUrl": "https://secure.gravatar.com/avatar/2a915aa9a1df35c8b609ff2f750d5dac?s\u003d80\u0026d\u003didenticon"
    },
    "author": {
      "_id": 166231,
      "_username": "tchemit",
      "_name": "Tony CHEMIT",
      "_state": "active",
      "_darkScheme": false,
      "_isAdmin": false,
      "_canCreateGroup": false,
      "_canCreateProject": false,
      "_canCreateTeam": false,
      "_avatarUrl": "https://secure.gravatar.com/avatar/2a915aa9a1df35c8b609ff2f750d5dac?s\u003d80\u0026d\u003didenticon"
    },
    "state": "closed",
    "updatedAt": "Feb 17, 2017 4:10:39 PM",
    "createdAt": "Feb 17, 2017 4:10:37 PM"
  },
  {
    "id": 4427967,
    "iid": 115,
    "projectId": 2724222,
    "title": "Ne pas importer des marées en mode samplesOnly si elles n\u0027ont pas d\u0027échantillons",
    "description": "Le seul but de ces marées en mode samplesOnyl est d\u0027apporter des échantillons.\n\nDonc aucun intérêt à les conserver à l\u0027import si elles n\u0027ont pas d\u0027échantillon.\n\n*(from redmine issue 1173 created on 2012-04-25, closed on 2012-04-25)*",
    "labels": [
      "Evolution",
      "From Redmine",
      "Normal"
    ],
    "milestone": {
      "id": 268847,
      "iid": 5,
      "projectId": 2724222,
      "groupId": 0,
      "title": "1.3",
      "description": "Calcul du niveau 2\n\n*(from redmine: created on 2012-02-06)*",
      "dueDate": "Apr 28, 2012 2:00:00 AM",
      "state": "closed"
    },
    "assignee": {
      "_id": 166231,
      "_username": "tchemit",
      "_name": "Tony CHEMIT",
      "_state": "active",
      "_darkScheme": false,
      "_isAdmin": false,
      "_canCreateGroup": false,
      "_canCreateProject": false,
      "_canCreateTeam": false,
      "_avatarUrl": "https://secure.gravatar.com/avatar/2a915aa9a1df35c8b609ff2f750d5dac?s\u003d80\u0026d\u003didenticon"
    },
    "author": {
      "_id": 166231,
      "_username": "tchemit",
      "_name": "Tony CHEMIT",
      "_state": "active",
      "_darkScheme": false,
      "_isAdmin": false,
      "_canCreateGroup": false,
      "_canCreateProject": false,
      "_canCreateTeam": false,
      "_avatarUrl": "https://secure.gravatar.com/avatar/2a915aa9a1df35c8b609ff2f750d5dac?s\u003d80\u0026d\u003didenticon"
    },
    "state": "closed",
    "updatedAt": "Feb 17, 2017 4:10:29 PM",
    "createdAt": "Feb 17, 2017 4:10:26 PM"
  },
  {
    "id": 4427966,
    "iid": 114,
    "projectId": 2724222,
    "title": "Certaines marées ne sont pas marquées comme traitées au niveau 0.4",
    "description": "Il s\u0027agit du fait que la marée n\u0027a pas d\u0027activité.\n\nLe problème ne pose pas non plus de problème au niveau 1 car ces marées sans activité ne \nsont pas utilisées au niveau 1 car elles n\u0027ont pas d\u0027océan.\n\n*(from redmine issue 1172 created on 2012-04-25, closed on 2012-04-25)*",
    "labels": [
      "Anomalie",
      "From Redmine",
      "Normal"
    ],
    "milestone": {
      "id": 268847,
      "iid": 5,
      "projectId": 2724222,
      "groupId": 0,
      "title": "1.3",
      "description": "Calcul du niveau 2\n\n*(from redmine: created on 2012-02-06)*",
      "dueDate": "Apr 28, 2012 2:00:00 AM",
      "state": "closed"
    },
    "assignee": {
      "_id": 166231,
      "_username": "tchemit",
      "_name": "Tony CHEMIT",
      "_state": "active",
      "_darkScheme": false,
      "_isAdmin": false,
      "_canCreateGroup": false,
      "_canCreateProject": false,
      "_canCreateTeam": false,
      "_avatarUrl": "https://secure.gravatar.com/avatar/2a915aa9a1df35c8b609ff2f750d5dac?s\u003d80\u0026d\u003didenticon"
    },
    "author": {
      "_id": 166231,
      "_username": "tchemit",
      "_name": "Tony CHEMIT",
      "_state": "active",
      "_darkScheme": false,
      "_isAdmin": false,
      "_canCreateGroup": false,
      "_canCreateProject": false,
      "_canCreateTeam": false,
      "_avatarUrl": "https://secure.gravatar.com/avatar/2a915aa9a1df35c8b609ff2f750d5dac?s\u003d80\u0026d\u003didenticon"
    },
    "state": "closed",
    "updatedAt": "Feb 17, 2017 4:10:25 PM",
    "createdAt": "Feb 17, 2017 4:10:23 PM"
  },
  {
    "id": 4427965,
    "iid": 113,
    "projectId": 2724222,
    "title": "rendre configurable les seuils maximum rfTot, rfMinus10 et rfPlus10",
    "description": "Cela sera configurable au niveau de l\u0027application via les propriétés :\n\n\u003cpre\u003e\nrfTot.maximum\nrfMinus10.maximum\nrfPlus10.maximum\n\u003c/pre\u003e\n\nDe plus cela sera aussi configurable au niveau de la configuration gloabel du niveau 0 (par défaut \non utilise les valeurs de la configuration).\n\n\n*(from redmine issue 1170 created on 2012-04-25, closed on 2012-04-25)*",
    "labels": [
      "Evolution",
      "From Redmine",
      "Normal"
    ],
    "milestone": {
      "id": 268847,
      "iid": 5,
      "projectId": 2724222,
      "groupId": 0,
      "title": "1.3",
      "description": "Calcul du niveau 2\n\n*(from redmine: created on 2012-02-06)*",
      "dueDate": "Apr 28, 2012 2:00:00 AM",
      "state": "closed"
    },
    "assignee": {
      "_id": 166231,
      "_username": "tchemit",
      "_name": "Tony CHEMIT",
      "_state": "active",
      "_darkScheme": false,
      "_isAdmin": false,
      "_canCreateGroup": false,
      "_canCreateProject": false,
      "_canCreateTeam": false,
      "_avatarUrl": "https://secure.gravatar.com/avatar/2a915aa9a1df35c8b609ff2f750d5dac?s\u003d80\u0026d\u003didenticon"
    },
    "author": {
      "_id": 166231,
      "_username": "tchemit",
      "_name": "Tony CHEMIT",
      "_state": "active",
      "_darkScheme": false,
      "_isAdmin": false,
      "_canCreateGroup": false,
      "_canCreateProject": false,
      "_canCreateTeam": false,
      "_avatarUrl": "https://secure.gravatar.com/avatar/2a915aa9a1df35c8b609ff2f750d5dac?s\u003d80\u0026d\u003didenticon"
    },
    "state": "closed",
    "updatedAt": "Feb 17, 2017 4:10:22 PM",
    "createdAt": "Feb 17, 2017 4:10:20 PM"
  },
  {
    "id": 4427964,
    "iid": 112,
    "projectId": 2724222,
    "title": "N1.5 Action très longue",
    "description": "Beaucoup de données sont générées, peut-être qu\u0027un flush bien placé pourait améliorer les performances\n\n*(from redmine issue 1169 created on 2012-04-24, closed on 2012-04-25)*",
    "labels": [
      "Evolution",
      "From Redmine",
      "Normal"
    ],
    "milestone": {
      "id": 268847,
      "iid": 5,
      "projectId": 2724222,
      "groupId": 0,
      "title": "1.3",
      "description": "Calcul du niveau 2\n\n*(from redmine: created on 2012-02-06)*",
      "dueDate": "Apr 28, 2012 2:00:00 AM",
      "state": "closed"
    },
    "assignee": {
      "_id": 166231,
      "_username": "tchemit",
      "_name": "Tony CHEMIT",
      "_state": "active",
      "_darkScheme": false,
      "_isAdmin": false,
      "_canCreateGroup": false,
      "_canCreateProject": false,
      "_canCreateTeam": false,
      "_avatarUrl": "https://secure.gravatar.com/avatar/2a915aa9a1df35c8b609ff2f750d5dac?s\u003d80\u0026d\u003didenticon"
    },
    "author": {
      "_id": 166231,
      "_username": "tchemit",
      "_name": "Tony CHEMIT",
      "_state": "active",
      "_darkScheme": false,
      "_isAdmin": false,
      "_canCreateGroup": false,
      "_canCreateProject": false,
      "_canCreateTeam": false,
      "_avatarUrl": "https://secure.gravatar.com/avatar/2a915aa9a1df35c8b609ff2f750d5dac?s\u003d80\u0026d\u003didenticon"
    },
    "state": "closed",
    "updatedAt": "Feb 17, 2017 4:10:19 PM",
    "createdAt": "Feb 17, 2017 4:10:17 PM"
  },
  {
    "id": 4427962,
    "iid": 111,
    "projectId": 2724222,
    "title": "Pb potentiel sur N1.4 : Redistribution des effectifs des fréquences de taille de l’échantillon-cuve entre les différentes calées qui constituent la cuve",
    "description": "Il s\u0027agit de répartir les effectifs de chaque échantillon sur ses samplewell.\n\nEn sommant les effectifs de chaque samplewell d\u0027un sample, on devrait retrouver l\u0027effectif du sample. Le log indique le contraire. Voic un exemple :\n\n\u003cpre\u003e\nMarée 225 - PERE BRIANT - 21/10/2010 :\n - Echantillon 140\n   - Espèce SKJ - Listao\n     o Somme des individus de l\u0027échantillon                                      : 365             \n     o Somme des individus de la calée 19/10/2010 - (-5.8668056, 4.183472)       : 269             \n     o Somme des individus de la calée 10/10/2010 - (-4.050139, 3.8334723)       : 84              \n\n   - Espèce LTA - Thonine\n     o Somme des individus de l\u0027échantillon                                      : 4               \n     o Somme des individus de la calée 19/10/2010 - (-5.8668056, 4.183472)       : 1               \n     o Somme des individus de la calée 10/10/2010 - (-4.050139, 3.8334723)       : 0               \n\n   - Espèce FRI - Auxide\n     o Somme des individus de l\u0027échantillon                                      : 22              \n     o Somme des individus de la calée 19/10/2010 - (-5.8668056, 4.183472)       : 11              \n     o Somme des individus de la calée 10/10/2010 - (-4.050139, 3.8334723)       : 1               \n\n   - Espèce BET - Patudo\n     o Somme des individus de l\u0027échantillon                                      : 0               \n     o Somme des individus de la calée 19/10/2010 - (-5.8668056, 4.183472)       : 0               \n     o Somme des individus de la calée 10/10/2010 - (-4.050139, 3.8334723)       : 0               \n\n   - Espèce YFT - Albacore\n     o Somme des individus de l\u0027échantillon                                      : 102             \n     o Somme des individus de la calée 19/10/2010 - (-5.8668056, 4.183472)       : 72              \n     o Somme des individus de la calée 10/10/2010 - (-4.050139, 3.8334723)       : 21              \n\n - Echantillon 141\n   - Espèce SKJ - Listao\n     o Somme des individus de l\u0027échantillon                                      : 422             \n     o Somme des individus de la calée 15/10/2010 - (-5.9501386, 4.133472)       : 120             \n     o Somme des individus de la calée 10/10/2010 - (-4.050139, 3.8334723)       : 38              \n     o Somme des individus de la calée 08/10/2010 - (-4.2001386, 3.950139)       : 38              \n     o Somme des individus de la calée 03/10/2010 - (-4.7168055, 4.1668053)      : 189             \n\n   - Espèce BET - Patudo\n     o Somme des individus de l\u0027échantillon                                      : 6               \n     o Somme des individus de la calée 15/10/2010 - (-5.9501386, 4.133472)       : 0               \n     o Somme des individus de la calée 10/10/2010 - (-4.050139, 3.8334723)       : 0               \n     o Somme des individus de la calée 08/10/2010 - (-4.2001386, 3.950139)       : 0               \n     o Somme des individus de la calée 03/10/2010 - (-4.7168055, 4.1668053)      : 0               \n\n   - Espèce FRI - Auxide\n     o Somme des individus de l\u0027échantillon                                      : 19              \n     o Somme des individus de la calée 15/10/2010 - (-5.9501386, 4.133472)       : 1               \n     o Somme des individus de la calée 10/10/2010 - (-4.050139, 3.8334723)       : 0               \n     o Somme des individus de la calée 08/10/2010 - (-4.2001386, 3.950139)       : 0               \n     o Somme des individus de la calée 03/10/2010 - (-4.7168055, 4.1668053)      : 4               \n\n   - Espèce YFT - Albacore\n     o Somme des individus de l\u0027échantillon                                      : 46              \n     o Somme des individus de la calée 15/10/2010 - (-5.9501386, 4.133472)       : 9               \n     o Somme des individus de la calée 10/10/2010 - (-4.050139, 3.8334723)       : 1               \n     o Somme des individus de la calée 08/10/2010 - (-4.2001386, 3.950139)       : 1               \n     o Somme des individus de la calée 03/10/2010 - (-4.7168055, 4.1668053)      : 17   \n\u003c/pre\u003e\n\n*(from redmine issue 1168 created on 2012-04-24, closed on 2012-04-27)*",
    "labels": [
      "Anomalie",
      "From Redmine",
      "Normal"
    ],
    "milestone": {
      "id": 268847,
      "iid": 5,
      "projectId": 2724222,
      "groupId": 0,
      "title": "1.3",
      "description": "Calcul du niveau 2\n\n*(from redmine: created on 2012-02-06)*",
      "dueDate": "Apr 28, 2012 2:00:00 AM",
      "state": "closed"
    },
    "assignee": {
      "_id": 166231,
      "_username": "tchemit",
      "_name": "Tony CHEMIT",
      "_state": "active",
      "_darkScheme": false,
      "_isAdmin": false,
      "_canCreateGroup": false,
      "_canCreateProject": false,
      "_canCreateTeam": false,
      "_avatarUrl": "https://secure.gravatar.com/avatar/2a915aa9a1df35c8b609ff2f750d5dac?s\u003d80\u0026d\u003didenticon"
    },
    "author": {
      "_id": 166231,
      "_username": "tchemit",
      "_name": "Tony CHEMIT",
      "_state": "active",
      "_darkScheme": false,
      "_isAdmin": false,
      "_canCreateGroup": false,
      "_canCreateProject": false,
      "_canCreateTeam": false,
      "_avatarUrl": "https://secure.gravatar.com/avatar/2a915aa9a1df35c8b609ff2f750d5dac?s\u003d80\u0026d\u003didenticon"
    },
    "state": "closed",
    "updatedAt": "Feb 17, 2017 4:10:16 PM",
    "createdAt": "Feb 17, 2017 4:10:08 PM"
  },
  {
    "id": 4427961,
    "iid": 110,
    "projectId": 2724222,
    "title": "CalculN1.2 (standardisation LD/LF) : +/- 15% d\u0027échantillons non standardisés",
    "description": "Contexte : Après un calcul N1.2 sur les 2 océans.\n\nLa requête suivante affiche chaque champ sum(ss.measuredcount), sum(ss.totalcount) et sum(ssf.numberextrapolated) par échantillon/espèce (suppression du critère ss.ldlfflag), ainsi que leurs pendants après standardisation, à savoir :\n - sum(sss.measuredcount)\n - sum(sss.totalcount)\n - sum(sssf.number)\n\n\u003cpre\u003e\n-- --------------------------------------------\n-- Measured/counted avec les fréquences\n-- --------------------------------------------\nselect t.topiaid as trip, t.rf1computed, t.rf2computed, t.catchesweightcategorieconverted, t.setdurationandpositivecountcomputed, t.effortcomputed, v.code as vessel, c.libelle, t.landingdate::date, \ns.topiaid as sample, s.extrapolatesamplecountedandmeasured, \nsp.code3l,\n-- ------------------------\nsum(ss.measuredcount) as ssmesuredcount, \n-- ------------------------\n(select \nsum(sss2.measuredcount) from standardisesamplespecies sss2\nwhere sss2.sample\u003ds.topiaid and sss2.species\u003dsp.topiaid\n) as sssmeasured,\n-- ------------------------\nsum(ss.totalcount) as sstotalcount,\n-- ------------------------\n(select \nsum(sss3.totalcount) from standardisesamplespecies sss3\nwhere sss3.sample\u003ds.topiaid and sss3.species\u003dsp.topiaid\n) as ssstotal,\n-- ------------------------\n(select \nsum(ssf4.numberextrapolated) from samplespecies ss4 left outer join samplespeciesfrequency ssf4 on (ssf4.samplespecies\u003dss4.topiaid)\nwhere ss4.sample\u003ds.topiaid\ngroup by s.topiaid\n) as ssfcount,\n-- ------------------------\n(select \nsum(sssf5.number) from standardisesamplespecies sss5 left outer join standardisesamplespeciesfrequency sssf5 on (sssf5.standardisesamplespecies\u003dsss5.topiaid)\nwhere sss5.sample\u003ds.topiaid\ngroup by s.topiaid\n) as sssfcount\n-- ------------------------\nfrom trip t\ninner join vessel v on (v.topiaid\u003dt.vessel)\ninner join country c on (v.fleetcountry\u003dc.topiaid)\ninner join sample s on (s.trip\u003dt.topiaid)\ninner join samplespecies ss on (ss.sample\u003ds.topiaid)\ninner join species sp on (ss.species\u003dsp.topiaid)\nwhere t.extrapolatesamplecountedandmeasured\u003dtrue\n\ngroup by t.topiaid, v.code, c.libelle, t.landingdate::date, \ns.topiaid, s.extrapolatesamplecountedandmeasured, \nsp.topiaid, sp.code3l\norder by t.landingdate::date, s.topiaid, sp.code3l\n\u003c/pre\u003e\n\nChaque somme non nulle dans ss et ssf devrait être non nulle dans sss et sssf. Or ce n\u0027at pas le cas pour toutes les lignes de résultat.\n\nMême resulte avec filtre pour n\u0027afficher que les lignes incriminées :\n\n\u003cpre\u003e\n\n-- -------------------------------------------\n-- -------------------------------------------\n-- -------------------------------------------\n-- --------------------------------------------\n-- Measured/counted avec les fréquences\n-- --------------------------------------------\nselect t.topiaid as trip, t.rf1computed, t.rf2computed, t.catchesweightcategorieconverted, t.setdurationandpositivecountcomputed, t.effortcomputed, v.code as vessel, c.libelle, t.landingdate::date, \ns.topiaid as sample, s.extrapolatesamplecountedandmeasured, \nsp.code3l,\n-- ------------------------\nsum(ss.measuredcount) as ssmesuredcount, \n-- ------------------------\n(select \nsum(sss2.measuredcount) from standardisesamplespecies sss2\nwhere sss2.sample\u003ds.topiaid and sss2.species\u003dsp.topiaid\n) as sssmeasured,\n-- ------------------------\nsum(ss.totalcount) as sstotalcount,\n-- ------------------------\n(select \nsum(sss3.totalcount) from standardisesamplespecies sss3\nwhere sss3.sample\u003ds.topiaid and sss3.species\u003dsp.topiaid\n) as ssstotal,\n-- ------------------------\n(select \nsum(ssf4.numberextrapolated) from samplespecies ss4 left outer join samplespeciesfrequency ssf4 on (ssf4.samplespecies\u003dss4.topiaid)\nwhere ss4.sample\u003ds.topiaid\ngroup by s.topiaid\n) as ssfcount,\n-- ------------------------\n(select \nsum(sssf5.number) from standardisesamplespecies sss5 left outer join standardisesamplespeciesfrequency sssf5 on (sssf5.standardisesamplespecies\u003dsss5.topiaid)\nwhere sss5.sample\u003ds.topiaid\ngroup by s.topiaid\n) as sssfcount\n-- ------------------------\nfrom trip t\ninner join vessel v on (v.topiaid\u003dt.vessel)\ninner join country c on (v.fleetcountry\u003dc.topiaid)\ninner join sample s on (s.trip\u003dt.topiaid)\ninner join samplespecies ss on (ss.sample\u003ds.topiaid)\ninner join species sp on (ss.species\u003dsp.topiaid)\nwhere t.extrapolatesamplecountedandmeasured\u003dtrue\n\nand (select \nsum(sss2.measuredcount) from standardisesamplespecies sss2\nwhere sss2.sample\u003ds.topiaid and sss2.species\u003dsp.topiaid\n) is null\n\ngroup by t.topiaid, v.code, c.libelle, t.landingdate::date, \ns.topiaid, s.extrapolatesamplecountedandmeasured, \nsp.topiaid, sp.code3l\norder by t.landingdate::date, s.topiaid, sp.code3l\n\u003c/pre\u003e\n\n*(from redmine issue 1164 created on 2012-04-24, closed on 2012-04-27)*",
    "labels": [
      "Anomalie",
      "From Redmine",
      "Normal"
    ],
    "milestone": {
      "id": 268847,
      "iid": 5,
      "projectId": 2724222,
      "groupId": 0,
      "title": "1.3",
      "description": "Calcul du niveau 2\n\n*(from redmine: created on 2012-02-06)*",
      "dueDate": "Apr 28, 2012 2:00:00 AM",
      "state": "closed"
    },
    "assignee": {
      "_id": 166231,
      "_username": "tchemit",
      "_name": "Tony CHEMIT",
      "_state": "active",
      "_darkScheme": false,
      "_isAdmin": false,
      "_canCreateGroup": false,
      "_canCreateProject": false,
      "_canCreateTeam": false,
      "_avatarUrl": "https://secure.gravatar.com/avatar/2a915aa9a1df35c8b609ff2f750d5dac?s\u003d80\u0026d\u003didenticon"
    },
    "author": {
      "_id": 166231,
      "_username": "tchemit",
      "_name": "Tony CHEMIT",
      "_state": "active",
      "_darkScheme": false,
      "_isAdmin": false,
      "_canCreateGroup": false,
      "_canCreateProject": false,
      "_canCreateTeam": false,
      "_avatarUrl": "https://secure.gravatar.com/avatar/2a915aa9a1df35c8b609ff2f750d5dac?s\u003d80\u0026d\u003didenticon"
    },
    "state": "closed",
    "updatedAt": "Feb 17, 2017 4:10:07 PM",
    "createdAt": "Feb 17, 2017 4:10:04 PM"
  },
  {
    "id": 4427960,
    "iid": 109,
    "projectId": 2724222,
    "title": "Le niveau 0.4 (ComputeSetDurationAndPositiveSetCount) est très lent",
    "description": "Le calcul des temps de calée est très lent.\n\nUne solution simple est l\u0027utilisation d\u0027un cache sur SetDuration.\n\n*(from redmine issue 1161 created on 2012-04-24, closed on 2012-04-24)*",
    "labels": [
      "Anomalie",
      "From Redmine",
      "Normal"
    ],
    "milestone": {
      "id": 268847,
      "iid": 5,
      "projectId": 2724222,
      "groupId": 0,
      "title": "1.3",
      "description": "Calcul du niveau 2\n\n*(from redmine: created on 2012-02-06)*",
      "dueDate": "Apr 28, 2012 2:00:00 AM",
      "state": "closed"
    },
    "assignee": {
      "_id": 166231,
      "_username": "tchemit",
      "_name": "Tony CHEMIT",
      "_state": "active",
      "_darkScheme": false,
      "_isAdmin": false,
      "_canCreateGroup": false,
      "_canCreateProject": false,
      "_canCreateTeam": false,
      "_avatarUrl": "https://secure.gravatar.com/avatar/2a915aa9a1df35c8b609ff2f750d5dac?s\u003d80\u0026d\u003didenticon"
    },
    "author": {
      "_id": 166231,
      "_username": "tchemit",
      "_name": "Tony CHEMIT",
      "_state": "active",
      "_darkScheme": false,
      "_isAdmin": false,
      "_canCreateGroup": false,
      "_canCreateProject": false,
      "_canCreateTeam": false,
      "_avatarUrl": "https://secure.gravatar.com/avatar/2a915aa9a1df35c8b609ff2f750d5dac?s\u003d80\u0026d\u003didenticon"
    },
    "state": "closed",
    "updatedAt": "Feb 17, 2017 4:10:03 PM",
    "createdAt": "Feb 17, 2017 4:10:01 PM"
  },
  {
    "id": 4427959,
    "iid": 108,
    "projectId": 2724222,
    "title": "N1.1 (comptés/mesurés) : Problème de précision sur un integer",
    "description": "Le champ sampleSpeciesFrequency.numberextrapolated est integer, alors que le calcul en amont produit des réels.\n\nLa valeur est tronquée (exemple : 15.8 individu --\u003e 15 individus)\n\nLa dernière colonne de cette requête calcule ce champ en direct SQL, et montre qu\u0027il s\u0027agit d\u0027un réel.\n\u003cpre\u003e\nselect t.topiaid as trip, v.code as vessel, t.landingdate::date, s.topiaid as sample, s.extrapolatesamplecountedandmeasured, \nss.topiaid as samplespecies, ss.measuredcount, ss.totalcount, \nssf.topiaid as samplespeciesfrequency, ssf.lengthclass, ssf.number, ssf.numberextrapolated,\n( (ss.totalcount/ss.measuredcount)*number ) as nbextracalculemanuellement\nfrom trip t\ninner join vessel v on (v.topiaid\u003dt.vessel)\ninner join sample s on (s.trip\u003dt.topiaid)\ninner join samplespecies ss on (ss.sample\u003ds.topiaid)\ninner join samplespeciesfrequency ssf on (ssf.samplespecies\u003dss.topiaid)\nwhere ssf.numberextrapolated is not null\nand (ss.totalcount-ss.measuredcount\u003e0)\norder by t.landingdate::date, s.topiaid, ss.topiaid\n\u003c/pre\u003e\n\nIl en résulte une sous-estimation non négligeable des individus extrapolés lors de ce N1.1, comme le montre ceci (comparer les champs totalcount et numberextrap) :\n\u003cpre\u003e\n-- Si info présente, est-elle valable ?\nselect t.topiaid as trip, v.code as vessel, t.landingdate::date, s.topiaid as sample, s.extrapolatesamplecountedandmeasured, \nss.topiaid as samplespecies, ss.measuredcount, ss.totalcount, \nsum(ssf.number) as numberbase, sum(ssf.numberextrapolated) as numberextrap\nfrom trip t\ninner join vessel v on (v.topiaid\u003dt.vessel)\ninner join sample s on (s.trip\u003dt.topiaid)\ninner join samplespecies ss on (ss.sample\u003ds.topiaid)\ninner join samplespeciesfrequency ssf on (ssf.samplespecies\u003dss.topiaid)\nwhere ssf.numberextrapolated is not null\nand (ss.totalcount-ss.measuredcount\u003e100)\n\ngroup by t.topiaid, v.code, t.landingdate::date, s.topiaid, s.extrapolatesamplecountedandmeasured, ss.topiaid\norder by t.landingdate::date, s.topiaid, ss.topiaid\n\u003c/pre\u003e\n\n\nIl faudrait passer ce champ en réel ou décimal 2 digits (faire alors un arrondi à la valeur la plus proche, par défaut ou par excès).\n\n*(from redmine issue 1160 created on 2012-04-23, closed on 2012-04-25)*",
    "labels": [
      "Anomalie",
      "From Redmine",
      "Normal"
    ],
    "milestone": {
      "id": 268847,
      "iid": 5,
      "projectId": 2724222,
      "groupId": 0,
      "title": "1.3",
      "description": "Calcul du niveau 2\n\n*(from redmine: created on 2012-02-06)*",
      "dueDate": "Apr 28, 2012 2:00:00 AM",
      "state": "closed"
    },
    "assignee": {
      "_id": 166231,
      "_username": "tchemit",
      "_name": "Tony CHEMIT",
      "_state": "active",
      "_darkScheme": false,
      "_isAdmin": false,
      "_canCreateGroup": false,
      "_canCreateProject": false,
      "_canCreateTeam": false,
      "_avatarUrl": "https://secure.gravatar.com/avatar/2a915aa9a1df35c8b609ff2f750d5dac?s\u003d80\u0026d\u003didenticon"
    },
    "author": {
      "_id": 166231,
      "_username": "tchemit",
      "_name": "Tony CHEMIT",
      "_state": "active",
      "_darkScheme": false,
      "_isAdmin": false,
      "_canCreateGroup": false,
      "_canCreateProject": false,
      "_canCreateTeam": false,
      "_avatarUrl": "https://secure.gravatar.com/avatar/2a915aa9a1df35c8b609ff2f750d5dac?s\u003d80\u0026d\u003didenticon"
    },
    "state": "closed",
    "updatedAt": "Feb 17, 2017 4:10:00 PM",
    "createdAt": "Feb 17, 2017 4:09:58 PM"
  },
  {
    "id": 4427958,
    "iid": 107,
    "projectId": 2724222,
    "title": "Marées traitées N0 mais qui ne sont pas prises en compte dans le N1",
    "description": "Des marées traitées correctement N0 et qui satisfont les critères de configuration ne sont pas traitées N1.1 (et suivants).\n\n\nRequêtes de diagnostic\n\nTrips FR, tous flags N0.x ok, non traités N1.1 et flag trip.extrapolatecountedandmesured\u003dfalse\n\u003cpre\u003e\nselect distinct t.topiaid as trip, v.code as vessel, c.libelle, t.landingdate::date, \nt.rf1computed, t.rf2computed, t.CatchesWeightCategorieConverted, t.setdurationandpositivecountcomputed, t.effortcomputed, \nt.extrapolatesamplecountedandmeasured\nfrom trip t\ninner join vessel v on (v.topiaid\u003dt.vessel)\ninner join country c on (v.fleetcountry\u003dc.topiaid)\nwhere extract(year from t.landingdate::date)\u003e\u003d2008\nand t.extrapolatesamplecountedandmeasured\u003dfalse\nand c.libelle like \u0027France\u0027\norder by landingdate;\n\u003c/pre\u003e\n\nConstatation au niveau des sampleSpeciesFreqnuency\n\u003cpre\u003e\nselect t.topiaid as trip, v.code as vessel, c.libelle, t.landingdate::date, \ns.topiaid as sample, s.extrapolatesamplecountedandmeasured, \nss.topiaid as samplespecies, ss.measuredcount, ss.totalcount, \nssf.topiaid as samplespeciesfrequency, ssf.lengthclass, ssf.number, ssf.numberextrapolated\nfrom trip t\ninner join vessel v on (v.topiaid\u003dt.vessel)\ninner join country c on (v.fleetcountry\u003dc.topiaid)\ninner join sample s on (s.trip\u003dt.topiaid)\ninner join samplespecies ss on (ss.sample\u003ds.topiaid)\ninner join samplespeciesfrequency ssf on (ssf.samplespecies\u003dss.topiaid)\nwhere t.extrapolatesamplecountedandmeasured\u003dfalse\nand extract(year from t.landingdate::date)\u003e\u003d2008\nand c.libelle like \u0027France\u0027\norder by c.libelle, t.landingdate::date, s.topiaid, ss.topiaid;\n\u003c/pre\u003e\n\n*(from redmine issue 1159 created on 2012-04-23, closed on 2012-04-27)*",
    "labels": [
      "Anomalie",
      "From Redmine",
      "Normal"
    ],
    "milestone": {
      "id": 268847,
      "iid": 5,
      "projectId": 2724222,
      "groupId": 0,
      "title": "1.3",
      "description": "Calcul du niveau 2\n\n*(from redmine: created on 2012-02-06)*",
      "dueDate": "Apr 28, 2012 2:00:00 AM",
      "state": "closed"
    },
    "assignee": {
      "_id": 166231,
      "_username": "tchemit",
      "_name": "Tony CHEMIT",
      "_state": "active",
      "_darkScheme": false,
      "_isAdmin": false,
      "_canCreateGroup": false,
      "_canCreateProject": false,
      "_canCreateTeam": false,
      "_avatarUrl": "https://secure.gravatar.com/avatar/2a915aa9a1df35c8b609ff2f750d5dac?s\u003d80\u0026d\u003didenticon"
    },
    "author": {
      "_id": 166231,
      "_username": "tchemit",
      "_name": "Tony CHEMIT",
      "_state": "active",
      "_darkScheme": false,
      "_isAdmin": false,
      "_canCreateGroup": false,
      "_canCreateProject": false,
      "_canCreateTeam": false,
      "_avatarUrl": "https://secure.gravatar.com/avatar/2a915aa9a1df35c8b609ff2f750d5dac?s\u003d80\u0026d\u003didenticon"
    },
    "state": "closed",
    "updatedAt": "Feb 17, 2017 4:09:57 PM",
    "createdAt": "Feb 17, 2017 4:09:53 PM"
  },
  {
    "id": 4427953,
    "iid": 106,
    "projectId": 2724222,
    "title": "L\u0027écran de config N1 ne permet pas de sélectionner la flotte Espagnole",
    "description": "Notre nouvelle base de test contient des Marées \"Sample only\" espagnoles.\n\nCes marées ne peuvent/doivent pas être traitées N0.\nPour autant, il faut pouvoir les traiter N1 (et les utiliser en N2/N3).\n\nPourtant l\u0027écran de config N1 ne permet pas de sélectionner la flotte Espagnole. Seule la France apparait.\n\nIl faut probablement vérifier les marqueurs et filtres qui conditionnent l\u0027affichage config N1 et la sélection des échantillons des marées \"Sample only\".\n\n\n\n*(from redmine issue 1158 created on 2012-04-23, closed on 2012-04-23)*",
    "labels": [
      "Anomalie",
      "From Redmine",
      "Normal"
    ],
    "milestone": {
      "id": 268847,
      "iid": 5,
      "projectId": 2724222,
      "groupId": 0,
      "title": "1.3",
      "description": "Calcul du niveau 2\n\n*(from redmine: created on 2012-02-06)*",
      "dueDate": "Apr 28, 2012 2:00:00 AM",
      "state": "closed"
    },
    "assignee": {
      "_id": 166231,
      "_username": "tchemit",
      "_name": "Tony CHEMIT",
      "_state": "active",
      "_darkScheme": false,
      "_isAdmin": false,
      "_canCreateGroup": false,
      "_canCreateProject": false,
      "_canCreateTeam": false,
      "_avatarUrl": "https://secure.gravatar.com/avatar/2a915aa9a1df35c8b609ff2f750d5dac?s\u003d80\u0026d\u003didenticon"
    },
    "author": {
      "_id": 166231,
      "_username": "tchemit",
      "_name": "Tony CHEMIT",
      "_state": "active",
      "_darkScheme": false,
      "_isAdmin": false,
      "_canCreateGroup": false,
      "_canCreateProject": false,
      "_canCreateTeam": false,
      "_avatarUrl": "https://secure.gravatar.com/avatar/2a915aa9a1df35c8b609ff2f750d5dac?s\u003d80\u0026d\u003didenticon"
    },
    "state": "closed",
    "updatedAt": "Feb 17, 2017 4:09:52 PM",
    "createdAt": "Feb 17, 2017 4:09:47 PM"
  },
  {
    "id": 4427952,
    "iid": 105,
    "projectId": 2724222,
    "title": "N1.1 : Erreur dans le log",
    "description": "Le N1 se fait par océan.\n\nOr en log résumé N1.1 on lit :\n\n\u003cpre\u003e\nOpération du niveau 1 : Extrapolation des poissons comptés et mesurés\n\nL\u0027opération a démarré à 23 avr. 2012 13:11:04 et terminé à 23 avr. 2012 13:13:50.\n\nRésumé de la configuration\n--------------------------\nDate de début : 11-2007\nDate de fin   : 02-2012\n\nOcéan sélectionné : Atlantique\nOcéan sélectionné : Indien\n\nFlotte sélectionné : France\n\nQualité d\u0027échantillon sélectionné : Biologie \nQualité d\u0027échantillon sélectionné : Biologie - Taille\nQualité d\u0027échantillon sélectionné : Indéterminé\n\u003c/pre\u003e\n\n*(from redmine issue 1157 created on 2012-04-23, closed on 2012-04-23)*",
    "labels": [
      "Anomalie",
      "From Redmine",
      "Normal"
    ],
    "milestone": {
      "id": 268847,
      "iid": 5,
      "projectId": 2724222,
      "groupId": 0,
      "title": "1.3",
      "description": "Calcul du niveau 2\n\n*(from redmine: created on 2012-02-06)*",
      "dueDate": "Apr 28, 2012 2:00:00 AM",
      "state": "closed"
    },
    "assignee": {
      "_id": 166231,
      "_username": "tchemit",
      "_name": "Tony CHEMIT",
      "_state": "active",
      "_darkScheme": false,
      "_isAdmin": false,
      "_canCreateGroup": false,
      "_canCreateProject": false,
      "_canCreateTeam": false,
      "_avatarUrl": "https://secure.gravatar.com/avatar/2a915aa9a1df35c8b609ff2f750d5dac?s\u003d80\u0026d\u003didenticon"
    },
    "author": {
      "_id": 166231,
      "_username": "tchemit",
      "_name": "Tony CHEMIT",
      "_state": "active",
      "_darkScheme": false,
      "_isAdmin": false,
      "_canCreateGroup": false,
      "_canCreateProject": false,
      "_canCreateTeam": false,
      "_avatarUrl": "https://secure.gravatar.com/avatar/2a915aa9a1df35c8b609ff2f750d5dac?s\u003d80\u0026d\u003didenticon"
    },
    "state": "closed",
    "updatedAt": "Feb 17, 2017 4:09:47 PM",
    "createdAt": "Feb 17, 2017 4:09:44 PM"
  },
  {
    "id": 4427949,
    "iid": 104,
    "projectId": 2724222,
    "title": "Revoir le N0.3 : conversion des catégories de poids",
    "description": "- Corriger la formule (suite à erreur dans les spécifications) relative à proportion OI/BL/{YFT;BET;ALB}/10-30kg. Mettre (3+4*0.8+6*0.5+12+11*0.1) / Poids global\n - Revoir la répartition des catégories 9-Poids inconnu. Cette répartition doit se faire sur la base des proportions au sein de chaque triplet Océan/Type banc/Espèce\n\n*(from redmine issue 1156 created on 2012-04-23, closed on 2012-04-23, blocks #1154)*",
    "labels": [
      "Anomalie",
      "From Redmine",
      "Normal"
    ],
    "milestone": {
      "id": 268847,
      "iid": 5,
      "projectId": 2724222,
      "groupId": 0,
      "title": "1.3",
      "description": "Calcul du niveau 2\n\n*(from redmine: created on 2012-02-06)*",
      "dueDate": "Apr 28, 2012 2:00:00 AM",
      "state": "closed"
    },
    "assignee": {
      "_id": 166231,
      "_username": "tchemit",
      "_name": "Tony CHEMIT",
      "_state": "active",
      "_darkScheme": false,
      "_isAdmin": false,
      "_canCreateGroup": false,
      "_canCreateProject": false,
      "_canCreateTeam": false,
      "_avatarUrl": "https://secure.gravatar.com/avatar/2a915aa9a1df35c8b609ff2f750d5dac?s\u003d80\u0026d\u003didenticon"
    },
    "author": {
      "_id": 166231,
      "_username": "tchemit",
      "_name": "Tony CHEMIT",
      "_state": "active",
      "_darkScheme": false,
      "_isAdmin": false,
      "_canCreateGroup": false,
      "_canCreateProject": false,
      "_canCreateTeam": false,
      "_avatarUrl": "https://secure.gravatar.com/avatar/2a915aa9a1df35c8b609ff2f750d5dac?s\u003d80\u0026d\u003didenticon"
    },
    "state": "closed",
    "updatedAt": "Feb 17, 2017 4:09:43 PM",
    "createdAt": "Feb 17, 2017 4:09:39 PM"
  },
  {
    "id": 4427947,
    "iid": 103,
    "projectId": 2724222,
    "title": "Calcul des rf1 et rf2 lorque la marée n\u0027a pas de débaquements (elementaryLanding)",
    "description": "Les 2 premières lignes de la réponse de la requête suivante montrent une marée qui n\u0027a pas de elementaryLandings (qui sont la base pour le calcul des rf1 et rf2).\n\n\u003cpre\u003e\nselect\nv.code as vessel, t.landingdate::date, t.logbookavailability, t.completionstatus, t.rf1, s.code as species, sum(el.weight) as landing, sum(ec.catchweight) as catchweight, sum(ec.catchweightrf1) as catchweightrf1\nfrom trip t\ninner join vessel v on (t.vessel\u003dv.topiaid)\ninner join country c on (v.fleetcountry\u003dc.topiaid)\nleft outer join elementarylanding el on (el.trip\u003dt.topiaid)\nleft outer join weightcategorylanding wcld on (el.weightcategorylanding\u003dwcld.topiaid)\nleft outer join species s2 on (s2.topiaid\u003dwcld.species)\ninner join activity a on (a.trip\u003dt.topiaid)\ninner join elementarycatch ec on (ec.activity\u003da.topiaid)\ninner join weightcategorylogbook wcl on (ec.weightcategorylogbook\u003dwcl.topiaid)\ninner join species s on (wcl.species\u003ds.topiaid)\nwhere t.landingdate \u003e\u003d \u002701/01/2010\u0027 and t.landingdate\u003c\u003d \u002712/06/2012\u0027 \nand t.samplesonly\u003dfalse\nand c.libelle\u003d\u0027France\u0027\nand (t.rf1\u003c0.8 or t.rf1\u003e1.5)\ngroup by \nv.code, t.landingdate::date, t.logbookavailability, t.completionstatus, t.rf1, s.code\norder by t.rf1\n\u003c/pre\u003e\n\nLe résultat montre surtout qu\u0027un rf1\u003d0 est calculé et appliqué, ce qui fait perdre dans les poids rf1isés les captures de base (elementaryCatch.catchWeight) de cette marée.\n\nConclusion :\n------------\nDans le cas d\u0027une marée sans elementaryLanding il faut :\n - calcul rf1 :\n  * mettre rf1\u003d1\n  * en faisant elementaryCatch.catchWeight*rf1, reporter dans catchWeightRf1 le poids de catchWeight, pour conserver la capture\n - calcul Rf2\n  * ignorer complètement cette marée pour le calcul des Rf2, cad :\n   + l\u0027ignorer dans les sommes des elementaryLanding.weight\n   + l\u0027ignorer dans les sommes des elementaryCatch.catchWeightRf1\n  * Malgré tout, une fois les Rf2 calculés, appliquer le Rf2 adéquat aux elementaryCatch.catchWeightRf1 de cette marée pour obtenir ses elementaryCatch.catchWeightRf2 redressés\n\n*(from redmine issue 1155 created on 2012-04-23, closed on 2012-04-23)*",
    "labels": [
      "Anomalie",
      "From Redmine",
      "Normal"
    ],
    "milestone": {
      "id": 268847,
      "iid": 5,
      "projectId": 2724222,
      "groupId": 0,
      "title": "1.3",
      "description": "Calcul du niveau 2\n\n*(from redmine: created on 2012-02-06)*",
      "dueDate": "Apr 28, 2012 2:00:00 AM",
      "state": "closed"
    },
    "assignee": {
      "_id": 166231,
      "_username": "tchemit",
      "_name": "Tony CHEMIT",
      "_state": "active",
      "_darkScheme": false,
      "_isAdmin": false,
      "_canCreateGroup": false,
      "_canCreateProject": false,
      "_canCreateTeam": false,
      "_avatarUrl": "https://secure.gravatar.com/avatar/2a915aa9a1df35c8b609ff2f750d5dac?s\u003d80\u0026d\u003didenticon"
    },
    "author": {
      "_id": 166231,
      "_username": "tchemit",
      "_name": "Tony CHEMIT",
      "_state": "active",
      "_darkScheme": false,
      "_isAdmin": false,
      "_canCreateGroup": false,
      "_canCreateProject": false,
      "_canCreateTeam": false,
      "_avatarUrl": "https://secure.gravatar.com/avatar/2a915aa9a1df35c8b609ff2f750d5dac?s\u003d80\u0026d\u003didenticon"
    },
    "state": "closed",
    "updatedAt": "Feb 17, 2017 4:09:38 PM",
    "createdAt": "Feb 17, 2017 4:09:36 PM"
  },
  {
    "id": 4427945,
    "iid": 102,
    "projectId": 2724222,
    "title": "l\u0027algorithme de conversion de catégorie de poids n\u0027est pas bon",
    "description": "Une coquille : \n\npour Ocean *ATL* et type de banc *BL* et *BI*\n\nla distribution pour  (*plus10Category*)\n\nest \n\u003cpre\u003e\n// 3 + 4*(0.8) + 5 + 6 + 7 + 8 + 11 + 12 + 13\n\u003c/pre\u003e\n\net non pas \n\n\u003cpre\u003e\n// 3 + 4*(0.2) + 5 + 6 + 7 + 8 + 11 + 12 + 13\n\u003c/pre\u003e\n\n*(from redmine issue 1154 created on 2012-04-23, closed on 2012-04-23, blocks #1156)*",
    "labels": [
      "Anomalie",
      "From Redmine",
      "Normal"
    ],
    "milestone": {
      "id": 268847,
      "iid": 5,
      "projectId": 2724222,
      "groupId": 0,
      "title": "1.3",
      "description": "Calcul du niveau 2\n\n*(from redmine: created on 2012-02-06)*",
      "dueDate": "Apr 28, 2012 2:00:00 AM",
      "state": "closed"
    },
    "assignee": {
      "_id": 166231,
      "_username": "tchemit",
      "_name": "Tony CHEMIT",
      "_state": "active",
      "_darkScheme": false,
      "_isAdmin": false,
      "_canCreateGroup": false,
      "_canCreateProject": false,
      "_canCreateTeam": false,
      "_avatarUrl": "https://secure.gravatar.com/avatar/2a915aa9a1df35c8b609ff2f750d5dac?s\u003d80\u0026d\u003didenticon"
    },
    "author": {
      "_id": 166231,
      "_username": "tchemit",
      "_name": "Tony CHEMIT",
      "_state": "active",
      "_darkScheme": false,
      "_isAdmin": false,
      "_canCreateGroup": false,
      "_canCreateProject": false,
      "_canCreateTeam": false,
      "_avatarUrl": "https://secure.gravatar.com/avatar/2a915aa9a1df35c8b609ff2f750d5dac?s\u003d80\u0026d\u003didenticon"
    },
    "state": "closed",
    "updatedAt": "Feb 17, 2017 4:09:35 PM",
    "createdAt": "Feb 17, 2017 4:09:33 PM"
  },
  {
    "id": 4427943,
    "iid": 101,
    "projectId": 2724222,
    "title": "Problem with Level 1 -  5",
    "description": "\u003cpre\u003e\njava.lang.UnsupportedOperationException\n    com.google.common.collect.ImmutableMap.put(ImmutableMap.java:307)\n    fr.ird.t3.actions.data.level1.ExtrapolateSampleWeightToSetAction.fillSetSpeciesFrequency(ExtrapolateSampleWeightToSetAction.java:579)\n    fr.ird.t3.actions.data.level1.ExtrapolateSampleWeightToSetAction.doExecuteSampleWell(ExtrapolateSampleWeightToSetAction.java:243)\n    fr.ird.t3.actions.data.level1.ExtrapolateSampleWeightToSetAction.doExecuteTrip(ExtrapolateSampleWeightToSetAction.java:181)\n    fr.ird.t3.actions.data.level1.ExtrapolateSampleWeightToSetAction.executeAction(ExtrapolateSampleWeightToSetAction.java:145)\n    fr.ird.t3.actions.T3Action.run(T3Action.java:87)\n    fr.ird.t3.web.actions.AbstractRunAction.executeAction(AbstractRunAction.java:130)\n    fr.ird.t3.web.actions.data.level1.AbstractLevel1RunAction.executeAction(AbstractLevel1RunAction.java:93)\n    fr.ird.t3.web.actions.data.level1.AbstractLevel1RunAction.executeAction(AbstractLevel1RunAction.java:50)\n    fr.ird.t3.web.actions.AbstractRunAction.execute(AbstractRunAction.java:118)\n    sun.reflect.NativeMethodAccessorImpl.invoke0(Native Method)\n    sun.reflect.NativeMethodAccessorImpl.invoke(NativeMethodAccessorImpl.java:39)\n    sun.reflect.DelegatingMethodAccessorImpl.invoke(DelegatingMethodAccessorImpl.java:25)\n    java.lang.reflect.Method.invoke(Method.java:597)\n    com.opensymphony.xwork2.DefaultActionInvocation.invokeAction(DefaultActionInvocation.java:453)\n    com.opensymphony.xwork2.DefaultActionInvocation.invokeActionOnly(DefaultActionInvocation.java:292)\n    org.apache.struts2.interceptor.BackgroundProcess$1.run(BackgroundProcess.java:57)\n    java.lang.Thread.run(Thread.java:662)\n\u003c/pre\u003e\n\n*(from redmine issue 1153 created on 2012-04-20, closed on 2012-04-20)*",
    "labels": [
      "Anomalie",
      "From Redmine",
      "Normal"
    ],
    "milestone": {
      "id": 268847,
      "iid": 5,
      "projectId": 2724222,
      "groupId": 0,
      "title": "1.3",
      "description": "Calcul du niveau 2\n\n*(from redmine: created on 2012-02-06)*",
      "dueDate": "Apr 28, 2012 2:00:00 AM",
      "state": "closed"
    },
    "assignee": {
      "_id": 166231,
      "_username": "tchemit",
      "_name": "Tony CHEMIT",
      "_state": "active",
      "_darkScheme": false,
      "_isAdmin": false,
      "_canCreateGroup": false,
      "_canCreateProject": false,
      "_canCreateTeam": false,
      "_avatarUrl": "https://secure.gravatar.com/avatar/2a915aa9a1df35c8b609ff2f750d5dac?s\u003d80\u0026d\u003didenticon"
    },
    "author": {
      "_id": 166231,
      "_username": "tchemit",
      "_name": "Tony CHEMIT",
      "_state": "active",
      "_darkScheme": false,
      "_isAdmin": false,
      "_canCreateGroup": false,
      "_canCreateProject": false,
      "_canCreateTeam": false,
      "_avatarUrl": "https://secure.gravatar.com/avatar/2a915aa9a1df35c8b609ff2f750d5dac?s\u003d80\u0026d\u003didenticon"
    },
    "state": "closed",
    "updatedAt": "Feb 17, 2017 4:09:32 PM",
    "createdAt": "Feb 17, 2017 4:09:22 PM"
  },
  {
    "id": 4427941,
    "iid": 100,
    "projectId": 2724222,
    "title": "Pb sur runComputeWeightOfCategoriesForSet",
    "description": "\u003cpre\u003e\njava.lang.NullPointerException: Could not find decorator for type class fr.ird.t3.entities.data.SampleImpl and context null\n    com.google.common.base.Preconditions.checkNotNull(Preconditions.java:208)\n    fr.ird.t3.services.DecoratorService.getDecorator(DecoratorService.java:82)\n    fr.ird.t3.services.DecoratorService.decorate(DecoratorService.java:91)\n    fr.ird.t3.actions.T3Action.decorate(T3Action.java:232)\n    fr.ird.t3.actions.T3Action.decorate(T3Action.java:225)\n    fr.ird.t3.actions.data.level1.ComputeWeightOfCategoriesForSetAction.transmitWeight(ComputeWeightOfCategoriesForSetAction.java:127)\n    fr.ird.t3.actions.data.level1.ComputeWeightOfCategoriesForSetAction.doExecuteSample(ComputeWeightOfCategoriesForSetAction.java:112)\n    fr.ird.t3.actions.data.level1.ComputeWeightOfCategoriesForSetAction.executeAction(ComputeWeightOfCategoriesForSetAction.java:90)\n    fr.ird.t3.actions.T3Action.run(T3Action.java:87)\n    fr.ird.t3.web.actions.AbstractRunAction.executeAction(AbstractRunAction.java:130)\n    fr.ird.t3.web.actions.data.level1.AbstractLevel1RunAction.executeAction(AbstractLevel1RunAction.java:93)\n    fr.ird.t3.web.actions.data.level1.AbstractLevel1RunAction.executeAction(AbstractLevel1RunAction.java:50)\n    fr.ird.t3.web.actions.AbstractRunAction.execute(AbstractRunAction.java:118)\n    sun.reflect.NativeMethodAccessorImpl.invoke0(Native Method)\n    sun.reflect.NativeMethodAccessorImpl.invoke(NativeMethodAccessorImpl.java:39)\n    sun.reflect.DelegatingMethodAccessorImpl.invoke(DelegatingMethodAccessorImpl.java:25)\n    java.lang.reflect.Method.invoke(Method.java:597)\n    com.opensymphony.xwork2.DefaultActionInvocation.invokeAction(DefaultActionInvocation.java:453)\n    com.opensymphony.xwork2.DefaultActionInvocation.invokeActionOnly(DefaultActionInvocation.java:292)\n    org.apache.struts2.interceptor.BackgroundProcess$1.run(BackgroundProcess.java:57)\n    java.lang.Thread.run(Thread.java:662)\n\u003c/pre\u003e\n\n*(from redmine issue 1152 created on 2012-04-20, closed on 2012-04-20)*",
    "labels": [
      "Anomalie",
      "From Redmine",
      "Normal"
    ],
    "milestone": {
      "id": 268847,
      "iid": 5,
      "projectId": 2724222,
      "groupId": 0,
      "title": "1.3",
      "description": "Calcul du niveau 2\n\n*(from redmine: created on 2012-02-06)*",
      "dueDate": "Apr 28, 2012 2:00:00 AM",
      "state": "closed"
    },
    "assignee": {
      "_id": 166231,
      "_username": "tchemit",
      "_name": "Tony CHEMIT",
      "_state": "active",
      "_darkScheme": false,
      "_isAdmin": false,
      "_canCreateGroup": false,
      "_canCreateProject": false,
      "_canCreateTeam": false,
      "_avatarUrl": "https://secure.gravatar.com/avatar/2a915aa9a1df35c8b609ff2f750d5dac?s\u003d80\u0026d\u003didenticon"
    },
    "author": {
      "_id": 166231,
      "_username": "tchemit",
      "_name": "Tony CHEMIT",
      "_state": "active",
      "_darkScheme": false,
      "_isAdmin": false,
      "_canCreateGroup": false,
      "_canCreateProject": false,
      "_canCreateTeam": false,
      "_avatarUrl": "https://secure.gravatar.com/avatar/2a915aa9a1df35c8b609ff2f750d5dac?s\u003d80\u0026d\u003didenticon"
    },
    "state": "closed",
    "updatedAt": "Feb 17, 2017 4:09:21 PM",
    "createdAt": "Feb 17, 2017 4:09:18 PM"
  },
  {
    "id": 4427940,
    "iid": 99,
    "projectId": 2724222,
    "title": "Ajout de 2 colonnes pour codes standard dans table espèces",
    "description": "1 colonne faoId (String, longueur 4 caractères, unique, null possible)\n1 colonne wormsId (big int, unique, null possible)\n\n*(from redmine issue 1151 created on 2012-04-20, closed on 2012-04-21)*",
    "labels": [
      "Evolution",
      "From Redmine",
      "Normal"
    ],
    "milestone": {
      "id": 268847,
      "iid": 5,
      "projectId": 2724222,
      "groupId": 0,
      "title": "1.3",
      "description": "Calcul du niveau 2\n\n*(from redmine: created on 2012-02-06)*",
      "dueDate": "Apr 28, 2012 2:00:00 AM",
      "state": "closed"
    },
    "assignee": {
      "_id": 166231,
      "_username": "tchemit",
      "_name": "Tony CHEMIT",
      "_state": "active",
      "_darkScheme": false,
      "_isAdmin": false,
      "_canCreateGroup": false,
      "_canCreateProject": false,
      "_canCreateTeam": false,
      "_avatarUrl": "https://secure.gravatar.com/avatar/2a915aa9a1df35c8b609ff2f750d5dac?s\u003d80\u0026d\u003didenticon"
    },
    "author": {
      "_id": 166231,
      "_username": "tchemit",
      "_name": "Tony CHEMIT",
      "_state": "active",
      "_darkScheme": false,
      "_isAdmin": false,
      "_canCreateGroup": false,
      "_canCreateProject": false,
      "_canCreateTeam": false,
      "_avatarUrl": "https://secure.gravatar.com/avatar/2a915aa9a1df35c8b609ff2f750d5dac?s\u003d80\u0026d\u003didenticon"
    },
    "state": "closed",
    "updatedAt": "Feb 17, 2017 4:09:17 PM",
    "createdAt": "Feb 17, 2017 4:09:15 PM"
  },
  {
    "id": 4427939,
    "iid": 98,
    "projectId": 2724222,
    "title": "LEs amrées sans plan de cuve ne sont pas indiquée comme traitée pour le traitement 0 - 6",
    "description": "*(from redmine issue 1150 created on 2012-04-20, closed on 2012-04-20)*",
    "labels": [
      "Anomalie",
      "From Redmine",
      "Normal"
    ],
    "milestone": {
      "id": 268847,
      "iid": 5,
      "projectId": 2724222,
      "groupId": 0,
      "title": "1.3",
      "description": "Calcul du niveau 2\n\n*(from redmine: created on 2012-02-06)*",
      "dueDate": "Apr 28, 2012 2:00:00 AM",
      "state": "closed"
    },
    "assignee": {
      "_id": 166231,
      "_username": "tchemit",
      "_name": "Tony CHEMIT",
      "_state": "active",
      "_darkScheme": false,
      "_isAdmin": false,
      "_canCreateGroup": false,
      "_canCreateProject": false,
      "_canCreateTeam": false,
      "_avatarUrl": "https://secure.gravatar.com/avatar/2a915aa9a1df35c8b609ff2f750d5dac?s\u003d80\u0026d\u003didenticon"
    },
    "author": {
      "_id": 166231,
      "_username": "tchemit",
      "_name": "Tony CHEMIT",
      "_state": "active",
      "_darkScheme": false,
      "_isAdmin": false,
      "_canCreateGroup": false,
      "_canCreateProject": false,
      "_canCreateTeam": false,
      "_avatarUrl": "https://secure.gravatar.com/avatar/2a915aa9a1df35c8b609ff2f750d5dac?s\u003d80\u0026d\u003didenticon"
    },
    "state": "closed",
    "updatedAt": "Feb 17, 2017 4:09:14 PM",
    "createdAt": "Feb 17, 2017 4:09:12 PM"
  },
  {
    "id": 4427938,
    "iid": 97,
    "projectId": 2724222,
    "title": "La page des statistiques des marées ne fonctionne plus",
    "description": "Cela vient du fait que des marées sont sans océan (#1134)\n\n*(from redmine issue 1149 created on 2012-04-20, closed on 2012-04-20)*",
    "labels": [
      "Anomalie",
      "From Redmine",
      "Normal"
    ],
    "milestone": {
      "id": 268847,
      "iid": 5,
      "projectId": 2724222,
      "groupId": 0,
      "title": "1.3",
      "description": "Calcul du niveau 2\n\n*(from redmine: created on 2012-02-06)*",
      "dueDate": "Apr 28, 2012 2:00:00 AM",
      "state": "closed"
    },
    "assignee": {
      "_id": 166231,
      "_username": "tchemit",
      "_name": "Tony CHEMIT",
      "_state": "active",
      "_darkScheme": false,
      "_isAdmin": false,
      "_canCreateGroup": false,
      "_canCreateProject": false,
      "_canCreateTeam": false,
      "_avatarUrl": "https://secure.gravatar.com/avatar/2a915aa9a1df35c8b609ff2f750d5dac?s\u003d80\u0026d\u003didenticon"
    },
    "author": {
      "_id": 166231,
      "_username": "tchemit",
      "_name": "Tony CHEMIT",
      "_state": "active",
      "_darkScheme": false,
      "_isAdmin": false,
      "_canCreateGroup": false,
      "_canCreateProject": false,
      "_canCreateTeam": false,
      "_avatarUrl": "https://secure.gravatar.com/avatar/2a915aa9a1df35c8b609ff2f750d5dac?s\u003d80\u0026d\u003didenticon"
    },
    "state": "closed",
    "updatedAt": "Feb 17, 2017 4:09:11 PM",
    "createdAt": "Feb 17, 2017 4:09:09 PM"
  },
  {
    "id": 4427936,
    "iid": 95,
    "projectId": 2724222,
    "title": "Remove level2Computed and compute value on trip board",
    "description": "Do also the same for level3\n\n*(from redmine issue 1145 created on 2012-04-19, closed on 2012-04-19)*",
    "labels": [
      "Evolution",
      "From Redmine",
      "Normal"
    ],
    "milestone": {
      "id": 268847,
      "iid": 5,
      "projectId": 2724222,
      "groupId": 0,
      "title": "1.3",
      "description": "Calcul du niveau 2\n\n*(from redmine: created on 2012-02-06)*",
      "dueDate": "Apr 28, 2012 2:00:00 AM",
      "state": "closed"
    },
    "assignee": {
      "_id": 166231,
      "_username": "tchemit",
      "_name": "Tony CHEMIT",
      "_state": "active",
      "_darkScheme": false,
      "_isAdmin": false,
      "_canCreateGroup": false,
      "_canCreateProject": false,
      "_canCreateTeam": false,
      "_avatarUrl": "https://secure.gravatar.com/avatar/2a915aa9a1df35c8b609ff2f750d5dac?s\u003d80\u0026d\u003didenticon"
    },
    "author": {
      "_id": 166231,
      "_username": "tchemit",
      "_name": "Tony CHEMIT",
      "_state": "active",
      "_darkScheme": false,
      "_isAdmin": false,
      "_canCreateGroup": false,
      "_canCreateProject": false,
      "_canCreateTeam": false,
      "_avatarUrl": "https://secure.gravatar.com/avatar/2a915aa9a1df35c8b609ff2f750d5dac?s\u003d80\u0026d\u003didenticon"
    },
    "state": "closed",
    "updatedAt": "Feb 17, 2017 4:09:03 PM",
    "createdAt": "Feb 17, 2017 4:09:01 PM"
  },
  {
    "id": 4427902,
    "iid": 72,
    "projectId": 2724222,
    "title": "Problèmes de mise en page sur la la page \"Traitement N2 en cours...)",
    "description": "Voir la capture en PJ.\n\nProblèmes de mise en page HTML :\n - une balise \"\u003c\" se balade à côté de océan\n - les checkboxes Espèces, flottes et pavillons sont accollées\n\n*(from redmine issue 1064 created on 2012-03-30, closed on 2012-04-28)*\n\n### Files\n  * [n2_recap_layout.png] (https://forge.codelutin.com/attachments/download/332/n2_recap_layout.png)",
    "labels": [
      "Anomalie",
      "From Redmine",
      "Normal"
    ],
    "milestone": {
      "id": 268847,
      "iid": 5,
      "projectId": 2724222,
      "groupId": 0,
      "title": "1.3",
      "description": "Calcul du niveau 2\n\n*(from redmine: created on 2012-02-06)*",
      "dueDate": "Apr 28, 2012 2:00:00 AM",
      "state": "closed"
    },
    "assignee": {
      "_id": 166231,
      "_username": "tchemit",
      "_name": "Tony CHEMIT",
      "_state": "active",
      "_darkScheme": false,
      "_isAdmin": false,
      "_canCreateGroup": false,
      "_canCreateProject": false,
      "_canCreateTeam": false,
      "_avatarUrl": "https://secure.gravatar.com/avatar/2a915aa9a1df35c8b609ff2f750d5dac?s\u003d80\u0026d\u003didenticon"
    },
    "author": {
      "_id": 166231,
      "_username": "tchemit",
      "_name": "Tony CHEMIT",
      "_state": "active",
      "_darkScheme": false,
      "_isAdmin": false,
      "_canCreateGroup": false,
      "_canCreateProject": false,
      "_canCreateTeam": false,
      "_avatarUrl": "https://secure.gravatar.com/avatar/2a915aa9a1df35c8b609ff2f750d5dac?s\u003d80\u0026d\u003didenticon"
    },
    "state": "closed",
    "updatedAt": "Feb 17, 2017 4:07:21 PM",
    "createdAt": "Feb 17, 2017 4:07:18 PM"
  },
  {
    "id": 4427868,
    "iid": 51,
    "projectId": 2724222,
    "title": "Blocage au lancement des traitements N1",
    "description": "Contexte :\n - bases AVDTH chargées : jeu de test standard 2000-2010 OA+OI\n - opérations effectuées :\n   + tentative de génération des RF1 (N0) OA 2000-2010 : outOfMemoryException signalé dans une demande précédente\n   + traitement complet NO des marées OA 2006 : opération aboutie visiblement avec succès\n\n - ensuite : perte de session après 1h d\u0027attente puis réouverture : échec\n - redémarrage de tomcat : l\u0027appli redémarre\n - login + connexion à base t3+ : ok\n - sur la page d\u0027accueil : clic sur \"Lancer un traitement de niveau 1\" : attente interminable, firefox \"En attente de localhost...\"\n - redémarrage Tomcat+Postgresql : idem.\n\nPendant l\u0027attente, l\u0027activité de PG est la suivante (cf. PJ)\n\nIl semblerait qu\u0027après exécution des N0 sur 1 année/1 océan, la requête générée par la tentative d\u0027accès aux N1 soit trop lourde.\n\nJe tente de confirmer ceci avec d\u0027autres données.\n\n*(from redmine issue 804 created on 2012-02-06, closed on 2012-04-25)*\n\n### Files\n  * [07.png] (https://forge.codelutin.com/attachments/download/270/07.png)",
    "labels": [
      "Anomalie",
      "From Redmine",
      "Normal"
    ],
    "milestone": {
      "id": 268847,
      "iid": 5,
      "projectId": 2724222,
      "groupId": 0,
      "title": "1.3",
      "description": "Calcul du niveau 2\n\n*(from redmine: created on 2012-02-06)*",
      "dueDate": "Apr 28, 2012 2:00:00 AM",
      "state": "closed"
    },
    "assignee": {
      "_id": 166231,
      "_username": "tchemit",
      "_name": "Tony CHEMIT",
      "_state": "active",
      "_darkScheme": false,
      "_isAdmin": false,
      "_canCreateGroup": false,
      "_canCreateProject": false,
      "_canCreateTeam": false,
      "_avatarUrl": "https://secure.gravatar.com/avatar/2a915aa9a1df35c8b609ff2f750d5dac?s\u003d80\u0026d\u003didenticon"
    },
    "author": {
      "_id": 166231,
      "_username": "tchemit",
      "_name": "Tony CHEMIT",
      "_state": "active",
      "_darkScheme": false,
      "_isAdmin": false,
      "_canCreateGroup": false,
      "_canCreateProject": false,
      "_canCreateTeam": false,
      "_avatarUrl": "https://secure.gravatar.com/avatar/2a915aa9a1df35c8b609ff2f750d5dac?s\u003d80\u0026d\u003didenticon"
    },
    "state": "closed",
    "updatedAt": "Feb 17, 2017 4:05:25 PM",
    "createdAt": "Feb 17, 2017 4:05:15 PM"
  },
  {
    "id": 4427818,
    "iid": 19,
    "projectId": 2724222,
    "title": "Résumé des niveaux 2",
    "description": "Le niveau 3 n\u0027est toujours pas défini :(\n\n*(from redmine issue 166 created on 2011-09-07, closed on 2012-04-26)*",
    "labels": [
      "Evolution",
      "From Redmine",
      "Normal"
    ],
    "milestone": {
      "id": 268847,
      "iid": 5,
      "projectId": 2724222,
      "groupId": 0,
      "title": "1.3",
      "description": "Calcul du niveau 2\n\n*(from redmine: created on 2012-02-06)*",
      "dueDate": "Apr 28, 2012 2:00:00 AM",
      "state": "closed"
    },
    "assignee": {
      "_id": 166231,
      "_username": "tchemit",
      "_name": "Tony CHEMIT",
      "_state": "active",
      "_darkScheme": false,
      "_isAdmin": false,
      "_canCreateGroup": false,
      "_canCreateProject": false,
      "_canCreateTeam": false,
      "_avatarUrl": "https://secure.gravatar.com/avatar/2a915aa9a1df35c8b609ff2f750d5dac?s\u003d80\u0026d\u003didenticon"
    },
    "author": {
      "_id": 166231,
      "_username": "tchemit",
      "_name": "Tony CHEMIT",
      "_state": "active",
      "_darkScheme": false,
      "_isAdmin": false,
      "_canCreateGroup": false,
      "_canCreateProject": false,
      "_canCreateTeam": false,
      "_avatarUrl": "https://secure.gravatar.com/avatar/2a915aa9a1df35c8b609ff2f750d5dac?s\u003d80\u0026d\u003didenticon"
    },
    "state": "closed",
    "updatedAt": "Feb 17, 2017 4:02:53 PM",
    "createdAt": "Feb 17, 2017 4:02:50 PM"
  }
]