[
  {
    "name": "Installer",
    "filename": "t3-1.0.1.zip",
    "url": "https://repo1.maven.org/maven2/fr/ird/t3/t3/1.0.1/t3-1.0.1.zip"
  },
  {
    "name": "Application",
    "filename": "t3-1.0.1.war",
    "url": "https://repo1.maven.org/maven2/fr/ird/t3/t3/1.0.1/t3-1.0.1.war"
  }
]