[
  {
    "name": "Installer",
    "filename": "t3-2.0.zip",
    "url": "https://repo1.maven.org/maven2/fr/ird/t3/t3/2.0/t3-2.0.zip"
  },
  {
    "name": "Application",
    "filename": "t3-2.0.war",
    "url": "https://repo1.maven.org/maven2/fr/ird/t3/t3/2.0/t3-2.0.war"
  }
]