[
  {
    "id": 4428090,
    "iid": 192,
    "projectId": 2724222,
    "title": "[DEV] Problème sur l\u0027import AVDTH sur version de développement",
    "description": "*Constaté sur la version de développement (projet source exécuté depuis SVN/Maven)*\n\nLe projet compile, s\u0027exécute, mais bloque sur les premières actions (ici en l\u0027occurence, analyse de la source lors d\u0027un import AVDTH), sûrement dû à l\u0027évolution de certaines dépendances.\n\n\u003cpre\u003e\nfreemarker.core.InvalidReferenceException: Expression action.actionContext.actionName is undefined on line 24, column 3 in ftl/header.ftl.\n    freemarker.core.TemplateObject.assertNonNull(TemplateObject.java:125)\n    freemarker.core.Expression.getStringValue(Expression.java:118)\n    freemarker.core.Expression.getStringValue(Expression.java:93)\n    freemarker.core.DollarVariable.accept(DollarVariable.java:76)\n    freemarker.core.Environment.visit(Environment.java:221)\n    freemarker.core.MixedContent.accept(MixedContent.java:92)\n    freemarker.core.Environment.visit(Environment.java:221)\n    freemarker.core.Environment.include(Environment.java:1508)\n    freemarker.core.Include.accept(Include.java:169)\n    freemarker.core.Environment.visit(Environment.java:221)\n    freemarker.core.MixedContent.accept(MixedContent.java:92)\n    freemarker.core.Environment.visit(Environment.java:221)\n    freemarker.core.Environment.process(Environment.java:199)\n    freemarker.template.Template.process(Template.java:259)\n    fr.ird.t3.services.FreeMarkerService.renderTemplate(FreeMarkerService.java:61)\n    fr.ird.t3.web.actions.AbstractRunAction.buildActionResume(AbstractRunAction.java:191)\n    fr.ird.t3.web.actions.AbstractRunAction.executeAction(AbstractRunAction.java:141)\n    fr.ird.t3.web.actions.AbstractRunAction.execute(AbstractRunAction.java:118)\n    sun.reflect.NativeMethodAccessorImpl.invoke0(Native Method)\n    sun.reflect.NativeMethodAccessorImpl.invoke(NativeMethodAccessorImpl.java:57)\n    sun.reflect.DelegatingMethodAccessorImpl.invoke(DelegatingMethodAccessorImpl.java:43)\n    java.lang.reflect.Method.invoke(Method.java:606)\n    com.opensymphony.xwork2.DefaultActionInvocation.invokeAction(DefaultActionInvocation.java:450)\n    com.opensymphony.xwork2.DefaultActionInvocation.invokeActionOnly(DefaultActionInvocation.java:289)\n    org.apache.struts2.interceptor.BackgroundProcess$1.run(BackgroundProcess.java:57)\n    java.lang.Thread.run(Thread.java:744)\n\n\u003c/pre\u003e\n\n*(from redmine issue 7127 created on 2015-05-18)*",
    "labels": [
      "Anomalie",
      "From Redmine",
      "Haut"
    ],
    "milestone": {
      "id": 273683,
      "iid": 26,
      "projectId": 2724222,
      "groupId": 0,
      "title": "Bugs",
      "description": "",
      "state": "active"
    },
    "assignee": {
      "_id": 166231,
      "_username": "tchemit",
      "_name": "Tony CHEMIT",
      "_state": "active",
      "_darkScheme": false,
      "_isAdmin": false,
      "_canCreateGroup": false,
      "_canCreateProject": false,
      "_canCreateTeam": false,
      "_avatarUrl": "https://secure.gravatar.com/avatar/2a915aa9a1df35c8b609ff2f750d5dac?s\u003d80\u0026d\u003didenticon"
    },
    "author": {
      "_id": 166231,
      "_username": "tchemit",
      "_name": "Tony CHEMIT",
      "_state": "active",
      "_darkScheme": false,
      "_isAdmin": false,
      "_canCreateGroup": false,
      "_canCreateProject": false,
      "_canCreateTeam": false,
      "_avatarUrl": "https://secure.gravatar.com/avatar/2a915aa9a1df35c8b609ff2f750d5dac?s\u003d80\u0026d\u003didenticon"
    },
    "state": "opened",
    "updatedAt": "Apr 11, 2017 4:53:23 PM",
    "createdAt": "Feb 17, 2017 4:15:48 PM"
  },
  {
    "id": 4428174,
    "iid": 254,
    "projectId": 2724222,
    "title": "Une marée 2012 pose un problème",
    "description": "[A COMPLETER] trace du problème généré :\n\n\u003cpre\u003e\nEtat HTTP 500 - Found a trip 502 - VIA MISTRAL - 15/08/2012 [fr.ird.t3.entities.data.Trip#1459932644178#0.34789823511070006] - activity 09/08/2012 - (-13.466805, 2.850139) [fr.ird.t3.entities.data.Activity#1459932644178#0.7176931785330187] with a null CorrectedElementaryCatch#correctedCatchWeight on data: fr.ird.t3.entities.data.CorrectedElementaryCatchImpl@efd053c1\n\ntype Rapport d\u0027\u0027exception\n\nmessage Found a trip 502 - VIA MISTRAL - 15/08/2012 [fr.ird.t3.entities.data.Trip#1459932644178#0.34789823511070006] - activity 09/08/2012 - (-13.466805, 2.850139) [fr.ird.t3.entities.data.Activity#1459932644178#0.7176931785330187] with a null CorrectedElementaryCatch#correctedCatchWeight on data: fr.ird.t3.entities.data.CorrectedElementaryCatchImpl@efd053c1\n\ndescription Le serveur a rencontré une erreur interne qui l\u0027\u0027a empêché de satisfaire la requête.\n\nexception\n\njava.lang.NullPointerException: Found a trip 502 - VIA MISTRAL - 15/08/2012 [fr.ird.t3.entities.data.Trip#1459932644178#0.34789823511070006] - activity 09/08/2012 - (-13.466805, 2.850139) [fr.ird.t3.entities.data.Activity#1459932644178#0.7176931785330187] with a null CorrectedElementaryCatch#correctedCatchWeight on data: fr.ird.t3.entities.data.CorrectedElementaryCatchImpl@efd053c1\n\tcom.google.common.base.Preconditions.checkNotNull(Preconditions.java:208)\n\tfr.ird.t3.entities.T3EntityHelper.getTotal(T3EntityHelper.java:404)\n\tfr.ird.t3.actions.data.level3.L3CatchStratum.init(L3CatchStratum.java:96)\n\tfr.ird.t3.actions.data.level3.Level3Action.newCatchStratum(Level3Action.java:877)\n\tfr.ird.t3.actions.data.level3.Level3Action.doExecuteStratum(Level3Action.java:479)\n\tfr.ird.t3.actions.data.level3.Level3Action.executeAction(Level3Action.java:414)\n\tfr.ird.t3.actions.T3Action.run(T3Action.java:87)\n\tfr.ird.t3.web.actions.AbstractRunAction.executeAction(AbstractRunAction.java:132)\n\tfr.ird.t3.web.actions.AbstractRunAction.execute(AbstractRunAction.java:118)\n\tsun.reflect.GeneratedMethodAccessor305.invoke(Unknown Source)\n\tsun.reflect.DelegatingMethodAccessorImpl.invoke(DelegatingMethodAccessorImpl.java:43)\n\tjava.lang.reflect.Method.invoke(Method.java:497)\n\tcom.opensymphony.xwork2.DefaultActionInvocation.invokeAction(DefaultActionInvocation.java:450)\n\tcom.opensymphony.xwork2.DefaultActionInvocation.invokeActionOnly(DefaultActionInvocation.java:289)\n\torg.apache.struts2.interceptor.BackgroundProcess$1.run(BackgroundProcess.java:57)\n\tjava.lang.Thread.run(Thread.java:745)\n\nnote La trace complète de la cause mère de cette erreur est disponible dans les fichiers journaux de Apache Tomcat/8.0.5.\n\u003c/pre\u003e\n\nRequête utile pour le débogage :\n\n\u003cpre\u003e\nSELECT \n  v.code AS vesselcode, \n  v.libelle AS vessellabel, \n  t.landingdate, \n  --t.topiaid AS tripid, \n  --a.topiaid AS activityid, \n  t.departuredate, \n  t.samplesonly,\n  a.date AS activitydate, \n  a.\"time\" AS activitytime, \n  a.latitude, \n  a.longitude, \n  va.code AS vesselactivtycode, \n  va.libelle AS vesselactivitylabel,\n  --sum(ec.catchweight) AS rawcatchweight,\n  --(SELECT sum(cec2.correctedcatchweight) FROM public.correctedelementarycatch cec2 WHERE cec2.activity\u003da.topiaid) AS correctedcatchweight\n  s.faoid,\n  wct.libelle,\n  cec.catchweight,\n  cec.correctedcatchweight\n  \nFROM \n  public.trip t\n  INNER JOIN public.vessel v ON (t.vessel\u003dv.topiaid)\n  INNER JOIN public.activity a ON (a.trip\u003dt.topiaid)\n  INNER JOIN public.vesselactivity va ON (a.vesselactivity\u003dva.topiaid)\n  --LEFT OUTER JOIN public.elementarycatch ec ON (ec.activity\u003da.topiaid)\n\n  INNER JOIN public.correctedelementarycatch cec ON (cec.activity\u003da.topiaid)\n  INNER JOIN public.weightcategorytreatment wct ON (cec.weightcategorytreatment \u003d wct.topiaid)\n  INNER JOIN public.species s ON (cec.species\u003ds.topiaid)\n\nWHERE\n  -- Limit to sets\n  va.code IN (0,1,2)\n  AND a.date BETWEEN \u00272011-01-01\u0027 AND \u00272015-12-31\u0027\n  AND cec.correctedcatchweight IS NULL\n\nORDER BY \n t.landingdate ASC,\n a.date ASC\n\u003c/pre\u003e\n\n*(from redmine issue 8772 created on 2016-11-14)*",
    "labels": [
      "Anomalie",
      "From Redmine",
      "Normal"
    ],
    "milestone": {
      "id": 273683,
      "iid": 26,
      "projectId": 2724222,
      "groupId": 0,
      "title": "Bugs",
      "description": "",
      "state": "active"
    },
    "assignee": {
      "_id": 1111318,
      "_username": "pcauquil",
      "_name": "Pascal Cauquil",
      "_state": "active",
      "_darkScheme": false,
      "_isAdmin": false,
      "_canCreateGroup": false,
      "_canCreateProject": false,
      "_canCreateTeam": false,
      "_avatarUrl": "https://secure.gravatar.com/avatar/b4ae117bd93e10d96298fa4d885208ea?s\u003d80\u0026d\u003didenticon"
    },
    "author": {
      "_id": 166231,
      "_username": "tchemit",
      "_name": "Tony CHEMIT",
      "_state": "active",
      "_darkScheme": false,
      "_isAdmin": false,
      "_canCreateGroup": false,
      "_canCreateProject": false,
      "_canCreateTeam": false,
      "_avatarUrl": "https://secure.gravatar.com/avatar/2a915aa9a1df35c8b609ff2f750d5dac?s\u003d80\u0026d\u003didenticon"
    },
    "state": "opened",
    "updatedAt": "Apr 2, 2017 8:01:10 AM",
    "createdAt": "Feb 17, 2017 4:19:23 PM"
  },
  {
    "id": 4428141,
    "iid": 229,
    "projectId": 2724222,
    "title": "[N2] Sur quelques rares calées, non conservation des poids entre N0 et N2",
    "description": "Sur quelques rares calées, non conservation (gain ou perte) des poids entre N0 et N2\n\nExemple sur la base de test : fr.ird.t3.entities.data.Activity#1454431292559#0.3379547566466643 (AVEL VAD(572) # 2014-05-05 # 2014-04-12)\n\nRequête de diagnostic :\n\n\u003cpre\u003e\nSELECT\nRQ1.*,\n(RQ1.catchn0 - RQ1.catchn2) AS delta\n\nFROM\n\n(SELECT \nvessel.code AS vesselcode, \nvessel.libelle AS vessellabel, \ntrip.landingdate::date AS landingdate, \nactivity.latitude AS lat, \nactivity.longitude AS lon, \nactivity.date::date AS activitydate, \nactivity.number AS activitynumber,\nactivity.topiaid AS activityid,\nschooltype.libelle4 AS schooltype, \nsum(correctedelementarycatch.catchweight) AS catchn0, \nsum(correctedelementarycatch.correctedcatchweight) AS catchn2\n\nFROM \npublic.trip\nINNER JOIN public.vessel  ON (trip.vessel \u003d vessel.topiaid)\nINNER JOIN public.activity ON (activity.trip \u003d trip.topiaid)\nINNER JOIN public.correctedelementarycatch ON (correctedelementarycatch.activity \u003d activity.topiaid)\nINNER JOIN public.schooltype ON (activity.schooltype \u003d schooltype.topiaid)\n\nGROUP BY \nvessel.code, \nvessel.libelle, \ntrip.landingdate, \nactivity.latitude, \nactivity.longitude, \nactivity.date, \nactivity.topiaid, \nschooltype.libelle4\n) AS RQ1\n\n\nWHERE @(RQ1.catchn0 - RQ1.catchn2) \u003e 1\n\nORDER BY delta\n\u003c/pre\u003e\n\n*(from redmine issue 7958 created on 2016-02-03)*\n\n### Files\n  * [picture888-1.png] (https://forge.codelutin.com/attachments/download/3650/picture888-1.png)",
    "labels": [
      "Anomalie",
      "Bas",
      "From Redmine"
    ],
    "milestone": {
      "id": 273683,
      "iid": 26,
      "projectId": 2724222,
      "groupId": 0,
      "title": "Bugs",
      "description": "",
      "state": "active"
    },
    "assignee": {
      "_id": 1111318,
      "_username": "pcauquil",
      "_name": "Pascal Cauquil",
      "_state": "active",
      "_darkScheme": false,
      "_isAdmin": false,
      "_canCreateGroup": false,
      "_canCreateProject": false,
      "_canCreateTeam": false,
      "_avatarUrl": "https://secure.gravatar.com/avatar/b4ae117bd93e10d96298fa4d885208ea?s\u003d80\u0026d\u003didenticon"
    },
    "author": {
      "_id": 166231,
      "_username": "tchemit",
      "_name": "Tony CHEMIT",
      "_state": "active",
      "_darkScheme": false,
      "_isAdmin": false,
      "_canCreateGroup": false,
      "_canCreateProject": false,
      "_canCreateTeam": false,
      "_avatarUrl": "https://secure.gravatar.com/avatar/2a915aa9a1df35c8b609ff2f750d5dac?s\u003d80\u0026d\u003didenticon"
    },
    "state": "opened",
    "updatedAt": "Apr 12, 2017 4:06:38 PM",
    "createdAt": "Feb 17, 2017 4:18:26 PM"
  },
  {
    "id": 5333118,
    "iid": 272,
    "projectId": 2724222,
    "title": "Affinage des filtres d\u0027alimentation des widgets de l\u0027UI",
    "description": "Les widgets de l\u0027UI proposent seulement les plages/options disponibles dans la base.\nCependant, dans le cas d\u0027une base contenant, entre autres, des marées de type \"échantillons seulement\", ces marées sont prises en compte dans le réglage des widgets du N0.\n\nOr les marées \"échantillon seulement\" n\u0027ont par définition pas de captures et ne peuvent pas être traitées N0.\n\nIl faudrait restreindre les plages de validité des widgets du N0 (dates, flottes, pavillons, engins...) aux marées non \"échantillons seulement\".\n\nIl faut toutefois s\u0027assurer que ces marées \"échantillons seulement\" (trip.sampleOnly \u003d TRUE), qui ne sont donc pas traitées N0, restent utilisables au N1, et aux N2/N3 en tant que marées de la strate échantillons.",
    "labels": [
      "Evolution"
    ],
    "milestone": {
      "id": 273683,
      "iid": 26,
      "projectId": 2724222,
      "groupId": 0,
      "title": "Bugs",
      "description": "",
      "state": "active"
    },
    "assignee": {
      "_id": 166231,
      "_username": "tchemit",
      "_name": "Tony CHEMIT",
      "_state": "active",
      "_darkScheme": false,
      "_isAdmin": false,
      "_canCreateGroup": false,
      "_canCreateProject": false,
      "_canCreateTeam": false,
      "_avatarUrl": "https://secure.gravatar.com/avatar/2a915aa9a1df35c8b609ff2f750d5dac?s\u003d80\u0026d\u003didenticon"
    },
    "author": {
      "_id": 1111318,
      "_username": "pcauquil",
      "_name": "Pascal Cauquil",
      "_state": "active",
      "_darkScheme": false,
      "_isAdmin": false,
      "_canCreateGroup": false,
      "_canCreateProject": false,
      "_canCreateTeam": false,
      "_avatarUrl": "https://secure.gravatar.com/avatar/b4ae117bd93e10d96298fa4d885208ea?s\u003d80\u0026d\u003didenticon"
    },
    "state": "closed",
    "updatedAt": "Sep 12, 2017 12:40:53 PM",
    "createdAt": "May 9, 2017 4:21:09 PM"
  }
]