[
  {
    "id": 10860472,
    "iid": 327,
    "projectId": 2724222,
    "title": "Calées hors zones",
    "description": "Est-ce que tu te souviens de ton diagnostic de calées hors zones sur t3 ?\n\nTu m\u0027avais envoyé un dump pour que je regarde. Voici le résultat :\n![image](/uploads/82a2bf008dff0b23a605b60bc1d6a20a/image.png)\n\nPeux-tu me dire ce que fait t3+ avec ces calées ?\n\nIl faudrait, là aussi, faire suivre les valeurs, les recopier dans correctedelementarycatch.correctedcatchweight, et lever des warnings.",
    "labels": [],
    "milestone": {
      "id": 297218,
      "iid": 27,
      "projectId": 2724222,
      "groupId": 0,
      "title": "3.0",
      "description": "",
      "dueDate": "May 31, 2018 2:00:00 AM",
      "startDate": "Jan 1, 2018 1:00:00 AM",
      "state": "active"
    },
    "assignee": {
      "_id": 166231,
      "_username": "tchemit",
      "_name": "Tony CHEMIT",
      "_state": "active",
      "_darkScheme": false,
      "_isAdmin": false,
      "_canCreateGroup": false,
      "_canCreateProject": false,
      "_canCreateTeam": false,
      "_avatarUrl": "https://secure.gravatar.com/avatar/2a915aa9a1df35c8b609ff2f750d5dac?s\u003d80\u0026d\u003didenticon"
    },
    "author": {
      "_id": 1111318,
      "_username": "pcauquil",
      "_name": "Pascal Cauquil",
      "_state": "active",
      "_darkScheme": false,
      "_isAdmin": false,
      "_canCreateGroup": false,
      "_canCreateProject": false,
      "_canCreateTeam": false,
      "_avatarUrl": "https://secure.gravatar.com/avatar/b4ae117bd93e10d96298fa4d885208ea?s\u003d80\u0026d\u003didenticon"
    },
    "state": "opened",
    "updatedAt": "May 18, 2018 9:38:25 AM",
    "createdAt": "May 16, 2018 5:06:37 PM"
  },
  {
    "id": 10387694,
    "iid": 325,
    "projectId": 2724222,
    "title": "[N1] S\u0027assurer de l\u0027intégrité des comptages d\u0027échantillons",
    "description": "SetSpeciesCatWeight.count : Nombre d’individus de chaque espèce par catégorie de poids dans la calée.\n\nÇa devrait être pareil que Number dans setspeciesfrequency mais redistribué ar catégorie de poids, mais ça ne marche pas.\n\n```\nSELECT ssf.activity,ssf.species,ssf.number AS n_ssf,SUM(sscw.count) AS n_sscw\nFROM setspeciesfrequency ssf INNER JOIN setspeciescatweight sscw ON (ssf.species\u003dsscw.species AND ssf.activity\u003dsscw.activity)\n (ssf.species\u003dsp.topiaid)\nGROUP BY ssf.topiaid,ssf.species,ssf.number\nORDER BY ssf.topiaid,ssf.species,ssf.number LIMIT 11;\n```",
    "labels": [
      "Calcul - Niveau 1"
    ],
    "milestone": {
      "id": 297218,
      "iid": 27,
      "projectId": 2724222,
      "groupId": 0,
      "title": "3.0",
      "description": "",
      "dueDate": "May 31, 2018 2:00:00 AM",
      "startDate": "Jan 1, 2018 1:00:00 AM",
      "state": "active"
    },
    "assignee": {
      "_id": 1111318,
      "_username": "pcauquil",
      "_name": "Pascal Cauquil",
      "_state": "active",
      "_darkScheme": false,
      "_isAdmin": false,
      "_canCreateGroup": false,
      "_canCreateProject": false,
      "_canCreateTeam": false,
      "_avatarUrl": "https://secure.gravatar.com/avatar/b4ae117bd93e10d96298fa4d885208ea?s\u003d80\u0026d\u003didenticon"
    },
    "author": {
      "_id": 1111318,
      "_username": "pcauquil",
      "_name": "Pascal Cauquil",
      "_state": "active",
      "_darkScheme": false,
      "_isAdmin": false,
      "_canCreateGroup": false,
      "_canCreateProject": false,
      "_canCreateTeam": false,
      "_avatarUrl": "https://secure.gravatar.com/avatar/b4ae117bd93e10d96298fa4d885208ea?s\u003d80\u0026d\u003didenticon"
    },
    "state": "opened",
    "updatedAt": "Apr 18, 2018 4:12:56 PM",
    "createdAt": "Apr 18, 2018 4:12:56 PM"
  },
  {
    "id": 9741660,
    "iid": 298,
    "projectId": 2724222,
    "title": "Comportement du filtre océan au N1",
    "description": "**Filtre sur sélecteur d\u0027océans**\nJ\u0027ai une base qui ne contient que des données OI :\n![image](/uploads/3284862df8672c85d28b62c545ec9438/image.png)\n\nPourtant le nouveau filtre de la configuration N1 propose les 2 océans, dont l\u0027OA pour lequel il n\u0027y a pas de données :\n![image](/uploads/de1b63eaebec42b85d17041c47806c8f/image.png)\n\nL\u0027OA ne devrait-il pas être masqué ?\n\n(Vérifier le comportement aux N2 et N3 également)",
    "labels": [
      "Calcul - Niveau 1",
      "Evolution",
      "IRD-2017-03"
    ],
    "milestone": {
      "id": 297218,
      "iid": 27,
      "projectId": 2724222,
      "groupId": 0,
      "title": "3.0",
      "description": "",
      "dueDate": "May 31, 2018 2:00:00 AM",
      "startDate": "Jan 1, 2018 1:00:00 AM",
      "state": "active"
    },
    "assignee": {
      "_id": 166231,
      "_username": "tchemit",
      "_name": "Tony CHEMIT",
      "_state": "active",
      "_darkScheme": false,
      "_isAdmin": false,
      "_canCreateGroup": false,
      "_canCreateProject": false,
      "_canCreateTeam": false,
      "_avatarUrl": "https://secure.gravatar.com/avatar/2a915aa9a1df35c8b609ff2f750d5dac?s\u003d80\u0026d\u003didenticon"
    },
    "author": {
      "_id": 1111318,
      "_username": "pcauquil",
      "_name": "Pascal Cauquil",
      "_state": "active",
      "_darkScheme": false,
      "_isAdmin": false,
      "_canCreateGroup": false,
      "_canCreateProject": false,
      "_canCreateTeam": false,
      "_avatarUrl": "https://secure.gravatar.com/avatar/b4ae117bd93e10d96298fa4d885208ea?s\u003d80\u0026d\u003didenticon"
    },
    "state": "opened",
    "updatedAt": "Mar 20, 2018 10:04:28 AM",
    "createdAt": "Mar 15, 2018 3:12:55 PM"
  }
]