[
  {
    "id": 4428164,
    "iid": 244,
    "projectId": 2724222,
    "title": "[N0.3] Rendre la conversion des catégories de poids AVDTH-\u003eT3 générique",
    "description": "Objet : Conversion des catégories de poids logbook (WeightCategoryLogbook) vers les catégories de traitement (WeightCategoryTreatment)\n\nRappel : Pour chaque couple Ocean/type de banc on a un jeu de catégories de traitement (2 ou 3 selon les couples) vers lesquelles convertir toutes les catégories entrantes.\n\nPour chacune de ces catégories cibles, une formule (actuellement stockée dans du code Java) y reverse rien, tout ou partie des catégories entrantes (celles définies dans WeightCategoryLogbook)\n\nOn souhaite créer une structure en base pour stocker ces règles de conversion, et ainsi pouvoir librement définir les règles de conversion pour des WeightCategoryLogbook faisant leur apparition.\n\n*(from redmine issue 8293 created on 2016-04-29)*",
    "labels": [
      "Calcul - Niveau 0",
      "Evolution",
      "From Redmine",
      "Resolu",
      "Urgent"
    ],
    "milestone": {
      "id": 469911,
      "iid": 31,
      "projectId": 2724222,
      "groupId": 0,
      "title": "2.1",
      "description": "First part of contract 3.0",
      "dueDate": "Feb 25, 2018 1:00:00 AM",
      "startDate": "Feb 16, 2018 1:00:00 AM",
      "state": "closed"
    },
    "assignee": {
      "_id": 166231,
      "_username": "tchemit",
      "_name": "Tony CHEMIT",
      "_state": "active",
      "_darkScheme": false,
      "_isAdmin": false,
      "_canCreateGroup": false,
      "_canCreateProject": false,
      "_canCreateTeam": false,
      "_avatarUrl": "https://secure.gravatar.com/avatar/2a915aa9a1df35c8b609ff2f750d5dac?s\u003d80\u0026d\u003didenticon"
    },
    "author": {
      "_id": 166231,
      "_username": "tchemit",
      "_name": "Tony CHEMIT",
      "_state": "active",
      "_darkScheme": false,
      "_isAdmin": false,
      "_canCreateGroup": false,
      "_canCreateProject": false,
      "_canCreateTeam": false,
      "_avatarUrl": "https://secure.gravatar.com/avatar/2a915aa9a1df35c8b609ff2f750d5dac?s\u003d80\u0026d\u003didenticon"
    },
    "state": "closed",
    "updatedAt": "Mar 14, 2018 4:48:54 PM",
    "createdAt": "Feb 17, 2017 4:19:07 PM"
  },
  {
    "id": 4428159,
    "iid": 241,
    "projectId": 2724222,
    "title": "[N0.4] Calcul des durées de calées pour les activités avec setcount \u003e 1",
    "description": "Il arrive (rarement, surtout sur nos données \u003c2006), qu\u0027une ligne d\u0027activité représente plusieurs calées. Cela se manifeste par activity.setcount \u003e 1 (sur des lignes d\u0027activités de type calée+, calée- ou calée type inconnu - 0, 1, 2). Pour ces cas le calcul de la durée de calée activity.setduration n\u0027est pas tout-à-fait satisfaisant.\n\nActuellement l\u0027algorithme est le suivant :\n* calculer la capture totale associée à cette activité : sum(correctedelementarycatch.catchweight)\n* si capture \u003d 0 -\u003e on applique le temps de calée null setduration.nullsetvalue\n* si capture \u003e 0 on applique les paramètres setduration.parametera/b au poids pour avoir le temps\n* ce temps est stocké dans activity.setduration\n\nOn veut l\u0027améliorer ainsi :\n* calculer le nombre de calées négatives : negativesetcount \u003d activity.setcount - activity.positivesetcount\n* calculer le temps correspondant aux calées négatives : nullsetduration \u003d setduration.nullsetvalue * negativesetcount\n* calculer la capture totale associée à cette activité : catch \u003d sum(correctedelementarycatch.catchweight)\n* la diviser par le nombre de calées positives : subcatch \u003d catch / activity.positivesetcount\n* appliquer les paramètres setduration.parametera/b et la formule à subcatch (et non directement à catch comme c\u0027est le cas actuellement) pour obtenir le temps par calée positive subduration\n* calculer le temps correspondant aux calées positives : positivesetduration \u003d subduration * activity.positivesetcount\n* calculer le temps total : activity.setduration \u003d nullsetduration + positivesetduration \n\nAinsi, dans le cas de plusieurs calées regroupées, le temps de calée est mieux modélisé.\n\n*(from redmine issue 8115 created on 2016-03-11)*",
    "labels": [
      "Calcul - Niveau 0",
      "En cours",
      "Evolution",
      "From Redmine",
      "Haut",
      "IRD-2017-03",
      "Resolu",
      "Traitement de données"
    ],
    "milestone": {
      "id": 469911,
      "iid": 31,
      "projectId": 2724222,
      "groupId": 0,
      "title": "2.1",
      "description": "First part of contract 3.0",
      "dueDate": "Feb 25, 2018 1:00:00 AM",
      "startDate": "Feb 16, 2018 1:00:00 AM",
      "state": "closed"
    },
    "assignee": {
      "_id": 166231,
      "_username": "tchemit",
      "_name": "Tony CHEMIT",
      "_state": "active",
      "_darkScheme": false,
      "_isAdmin": false,
      "_canCreateGroup": false,
      "_canCreateProject": false,
      "_canCreateTeam": false,
      "_avatarUrl": "https://secure.gravatar.com/avatar/2a915aa9a1df35c8b609ff2f750d5dac?s\u003d80\u0026d\u003didenticon"
    },
    "author": {
      "_id": 166231,
      "_username": "tchemit",
      "_name": "Tony CHEMIT",
      "_state": "active",
      "_darkScheme": false,
      "_isAdmin": false,
      "_canCreateGroup": false,
      "_canCreateProject": false,
      "_canCreateTeam": false,
      "_avatarUrl": "https://secure.gravatar.com/avatar/2a915aa9a1df35c8b609ff2f750d5dac?s\u003d80\u0026d\u003didenticon"
    },
    "state": "closed",
    "updatedAt": "Mar 7, 2018 6:05:01 PM",
    "createdAt": "Feb 17, 2017 4:19:00 PM"
  },
  {
    "id": 4428158,
    "iid": 240,
    "projectId": 2724222,
    "title": "[N0] Calcul des temps de pêche",
    "description": "## Etat des lieux\n\nT3+ calcule les temps de pêche des activités avec :\n* un algorithme SunTimes pour les journées standard\n* le temps de pêche AVDTH pour les journées particulières (départ/retour au port)\n* ignore le temps de pêche des journées avec seulement de l\u0027avarie (C_OPERA\u003d7), de la route sans veille (C_OPERA\u003d4), de l\u0027attente (C_OPERA\u003d10), du port (C_OPERA\u003d15)\n\nIl cumule ensuite le résultat par marée et le stocke au niveau de la marée (trip.computedfishingtimen0).\n\nOr nous avons besoin de connaître spatialiser ces temps de pêche (calculés), ce qui n\u0027est pas possible à partir de données stockées au niveau Trip.\n\nOn avait initialement renoncé à stocker cette info dans l\u0027entité Activity, car par définition, le temps de pêche étant basé sur le temps de jour, on ne peut la stocker par activité sans opérer une répartition arbitraire.\nPourtant, une exigence des rapports que nous avons à éditer est de répartir le temps de pêche (et _in fine_ l\u0027effort) par zones géographiques (plus exactement, par carrés 1°*1°.\n\nUne table Route (Day) intermédiaire entre Trip et Activity et sur laquelle on stockerait l\u0027effort de la journée, peut résoudre la problématique à condition de modifier le mode de calcul de l\u0027effort spatialisé (par rapport à l\u0027ancien t3). On n\u0027aurait plus un effort par activité : il faudrait obtenir le barycentre des activités de la journée et y affecter cet effort. C\u0027est le choix que nous faisons.\n\nIl faut donc :\n\nAu niveau modèle :\n* Supprimer trip.computedfishingtimen0\n* Supprimer trip.computedtimeatsean0\n* Supprimer trip.computedsearchtimen0\n* Intercaler entre Trip et Activity une nouvelle entité Route. Ses champs :\n * date (date seule, pas de timestamp)\n * computedfishingtime (type interval ou décimal à 1 décimale)\n * trip.computedtimeatsean0 (type interval ou décimal à 1 décimale) -\u003e pertinence à vérifier\n * computedsearchtime (type interval ou décimal à 1 décimale)\n* Changer le type de activity.date de timestamp en heure simple (puisque la date va être déportée dans Route)\n\nAu niveau migration de modèle :\n* Pour chaque marée, pour chaque date ayant une ou des activités (SELECT DISTINCT activity.date::date), créer un enregistrement Route et y insérer la date considérée\n* Détacher les activity de trip et les attacher à leur route\n\nA niveau des traitements :\n* Suite à chaque calcul journalier de temps de pêche, le stocker dans route.computedfishingtime\n* Le résultat du calcul de la durée des calées reste stocké au niveau Activity\n* Suite à chaque calcul journalier de temps de recherche (temps de recherche \u003d temps de pêche - durée cumulée des calées), le stocker dans route.computedsearchtime\n\nL\u0027utilisateur qui voudra réaliser une carte de répartition de l\u0027effort (par carrés statistiques) devra donc pour chaque journée (route), demander à PostGIS de calculer le barycentre des activités de la journée, et y attribuer l\u0027effort stocké dans route.searchtime\n\n*(from redmine issue 8110 created on 2016-03-11)*\n\n### Files\n  * [temps-de-peche.pdf] (https://forge.codelutin.com/attachments/download/3958/temps-de-peche.pdf)",
    "labels": [
      "Calcul - Niveau 0",
      "Evolution",
      "From Redmine",
      "Haut",
      "IRD-2017-03",
      "Resolu"
    ],
    "milestone": {
      "id": 469911,
      "iid": 31,
      "projectId": 2724222,
      "groupId": 0,
      "title": "2.1",
      "description": "First part of contract 3.0",
      "dueDate": "Feb 25, 2018 1:00:00 AM",
      "startDate": "Feb 16, 2018 1:00:00 AM",
      "state": "closed"
    },
    "assignee": {
      "_id": 166231,
      "_username": "tchemit",
      "_name": "Tony CHEMIT",
      "_state": "active",
      "_darkScheme": false,
      "_isAdmin": false,
      "_canCreateGroup": false,
      "_canCreateProject": false,
      "_canCreateTeam": false,
      "_avatarUrl": "https://secure.gravatar.com/avatar/2a915aa9a1df35c8b609ff2f750d5dac?s\u003d80\u0026d\u003didenticon"
    },
    "author": {
      "_id": 166231,
      "_username": "tchemit",
      "_name": "Tony CHEMIT",
      "_state": "active",
      "_darkScheme": false,
      "_isAdmin": false,
      "_canCreateGroup": false,
      "_canCreateProject": false,
      "_canCreateTeam": false,
      "_avatarUrl": "https://secure.gravatar.com/avatar/2a915aa9a1df35c8b609ff2f750d5dac?s\u003d80\u0026d\u003didenticon"
    },
    "state": "closed",
    "updatedAt": "Mar 7, 2018 5:59:08 PM",
    "createdAt": "Feb 17, 2017 4:18:59 PM"
  },
  {
    "id": 5012890,
    "iid": 260,
    "projectId": 2724222,
    "title": "[N1][N2][N3] Permettre la sélection mutliple d\u0027océans",
    "description": "Actuellement sur les [N1][N2][N3], seul un océan peut être sélectionné. Il faut rejouter les traitements pour les apppliquer sur un autre océan.\nOn voudrait passer en sélection multiple sur ces 3 niveaux.",
    "labels": [
      "Calcul - Niveau 1",
      "Calcul - Niveau 2",
      "Calcul - Niveau 3",
      "Evolution",
      "IRD-2017-03",
      "Normal",
      "Resolu"
    ],
    "milestone": {
      "id": 469911,
      "iid": 31,
      "projectId": 2724222,
      "groupId": 0,
      "title": "2.1",
      "description": "First part of contract 3.0",
      "dueDate": "Feb 25, 2018 1:00:00 AM",
      "startDate": "Feb 16, 2018 1:00:00 AM",
      "state": "closed"
    },
    "assignee": {
      "_id": 166231,
      "_username": "tchemit",
      "_name": "Tony CHEMIT",
      "_state": "active",
      "_darkScheme": false,
      "_isAdmin": false,
      "_canCreateGroup": false,
      "_canCreateProject": false,
      "_canCreateTeam": false,
      "_avatarUrl": "https://secure.gravatar.com/avatar/2a915aa9a1df35c8b609ff2f750d5dac?s\u003d80\u0026d\u003didenticon"
    },
    "author": {
      "_id": 1111318,
      "_username": "pcauquil",
      "_name": "Pascal Cauquil",
      "_state": "active",
      "_darkScheme": false,
      "_isAdmin": false,
      "_canCreateGroup": false,
      "_canCreateProject": false,
      "_canCreateTeam": false,
      "_avatarUrl": "https://secure.gravatar.com/avatar/b4ae117bd93e10d96298fa4d885208ea?s\u003d80\u0026d\u003didenticon"
    },
    "state": "closed",
    "updatedAt": "Mar 20, 2018 3:50:14 PM",
    "createdAt": "Apr 11, 2017 1:16:12 PM"
  },
  {
    "id": 4981849,
    "iid": 259,
    "projectId": 2724222,
    "title": "Ordonnacement du traitement de marées au 1.4 (distribution des échantillons sur les calées de l\u0027échantillon)",
    "description": "Lorsqu\u0027on lit le log du traitement 1.4 (distribution des échantillons sur les calées de l\u0027échantillon) effectué en parallèle sur 2 machines différentes, à partir du strict même jeu de données, les marées semblent être traités dans un ordre différent.\n\nOn suppose que cela est dû simplement à l\u0027absence d\u0027un classement dans une requête : soit la requête qui liste les marées à traiter, soit la requête qui produit le log...\n\nOn aimerait que le classement dans ce log soit mieux maitrisé : par exemple par code bateau ascendant/date ascendante\n\n![image](/uploads/b3c7581f4de8ebc94ddc9e2f0af01116/image.png)",
    "labels": [
      "Evolution",
      "IRD-2017-03",
      "Normal",
      "Resolu",
      "Tracabilité"
    ],
    "milestone": {
      "id": 469911,
      "iid": 31,
      "projectId": 2724222,
      "groupId": 0,
      "title": "2.1",
      "description": "First part of contract 3.0",
      "dueDate": "Feb 25, 2018 1:00:00 AM",
      "startDate": "Feb 16, 2018 1:00:00 AM",
      "state": "closed"
    },
    "assignee": {
      "_id": 166231,
      "_username": "tchemit",
      "_name": "Tony CHEMIT",
      "_state": "active",
      "_darkScheme": false,
      "_isAdmin": false,
      "_canCreateGroup": false,
      "_canCreateProject": false,
      "_canCreateTeam": false,
      "_avatarUrl": "https://secure.gravatar.com/avatar/2a915aa9a1df35c8b609ff2f750d5dac?s\u003d80\u0026d\u003didenticon"
    },
    "author": {
      "_id": 1111318,
      "_username": "pcauquil",
      "_name": "Pascal Cauquil",
      "_state": "active",
      "_darkScheme": false,
      "_isAdmin": false,
      "_canCreateGroup": false,
      "_canCreateProject": false,
      "_canCreateTeam": false,
      "_avatarUrl": "https://secure.gravatar.com/avatar/b4ae117bd93e10d96298fa4d885208ea?s\u003d80\u0026d\u003didenticon"
    },
    "state": "closed",
    "updatedAt": "Mar 15, 2018 5:35:51 PM",
    "createdAt": "Apr 7, 2017 12:49:00 PM"
  },
  {
    "id": 4970865,
    "iid": 258,
    "projectId": 2724222,
    "title": "L\u0027importeur plante si les coordonnées d\u0027un port sont à NULL",
    "description": "Il faudrait permettre que les coordonnées des ports (table harbour) soient NULL.\nActuellement, dans ce cas, l\u0027importeur AVDTH plante, et le problème n\u0027apparaît pas dans le log sur l\u0027UI. Il faut aller la chercher dans les logs de tomcat.\nNous devons alors mettre les coordonnées à 0 (et pas NULL) si nous ne les connaissons pas.\nNote : ces coordonnées ne sont pas utilisées dans les traitements.",
    "labels": [
      "Divers",
      "Evolution",
      "IRD-2017-03",
      "Normal",
      "validé"
    ],
    "milestone": {
      "id": 469911,
      "iid": 31,
      "projectId": 2724222,
      "groupId": 0,
      "title": "2.1",
      "description": "First part of contract 3.0",
      "dueDate": "Feb 25, 2018 1:00:00 AM",
      "startDate": "Feb 16, 2018 1:00:00 AM",
      "state": "closed"
    },
    "assignee": {
      "_id": 166231,
      "_username": "tchemit",
      "_name": "Tony CHEMIT",
      "_state": "active",
      "_darkScheme": false,
      "_isAdmin": false,
      "_canCreateGroup": false,
      "_canCreateProject": false,
      "_canCreateTeam": false,
      "_avatarUrl": "https://secure.gravatar.com/avatar/2a915aa9a1df35c8b609ff2f750d5dac?s\u003d80\u0026d\u003didenticon"
    },
    "author": {
      "_id": 1111318,
      "_username": "pcauquil",
      "_name": "Pascal Cauquil",
      "_state": "active",
      "_darkScheme": false,
      "_isAdmin": false,
      "_canCreateGroup": false,
      "_canCreateProject": false,
      "_canCreateTeam": false,
      "_avatarUrl": "https://secure.gravatar.com/avatar/b4ae117bd93e10d96298fa4d885208ea?s\u003d80\u0026d\u003didenticon"
    },
    "state": "closed",
    "updatedAt": "Mar 15, 2018 6:21:33 PM",
    "createdAt": "Apr 6, 2017 1:03:54 PM"
  },
  {
    "id": 4428173,
    "iid": 253,
    "projectId": 2724222,
    "title": "Ajouter un lien entre ports et pays",
    "description": "Actuellement il n\u0027y a pas de lien entre les ports (table harbour) et les pays (table country).\n\nOn souhaite ajouter une contrainte FK entre les 2.\n\nPour assurer le remplissage de cette colonne lors de la migration, on pourra se baser sur le contenu de la colonne locode dont les 2 premiers caractères correspondent au code ISO2 du pays du port.\n\n*(from redmine issue 8771 created on 2016-11-10)*",
    "labels": [
      "Evolution",
      "From Redmine",
      "IRD-2017-03",
      "Modèle de données",
      "Normal",
      "Resolu"
    ],
    "milestone": {
      "id": 469911,
      "iid": 31,
      "projectId": 2724222,
      "groupId": 0,
      "title": "2.1",
      "description": "First part of contract 3.0",
      "dueDate": "Feb 25, 2018 1:00:00 AM",
      "startDate": "Feb 16, 2018 1:00:00 AM",
      "state": "closed"
    },
    "author": {
      "_id": 166231,
      "_username": "tchemit",
      "_name": "Tony CHEMIT",
      "_state": "active",
      "_darkScheme": false,
      "_isAdmin": false,
      "_canCreateGroup": false,
      "_canCreateProject": false,
      "_canCreateTeam": false,
      "_avatarUrl": "https://secure.gravatar.com/avatar/2a915aa9a1df35c8b609ff2f750d5dac?s\u003d80\u0026d\u003didenticon"
    },
    "state": "closed",
    "updatedAt": "Feb 20, 2018 2:09:14 PM",
    "createdAt": "Feb 17, 2017 4:19:22 PM"
  },
  {
    "id": 4428171,
    "iid": 251,
    "projectId": 2724222,
    "title": "Améliorations dans la gestion des profils utilisateurs",
    "description": "Sur l\u0027écran des préférences des utilisateurs :\n* on peut changer le mot de passe, mais il manque une 2de zone de saisie qui serait destinée à vérifier l\u0027égalité des 2 mots tapés par l\u0027utilisateur. Il faudrait ajouter ce système.\n* La case \u0027Administrateur\u0027 reste grisée, on ne peut pas l\u0027activer/désactiver. On voudrait la rendre accessible dès lors qu\u0027on agit depuis un login lui-même administrateur.\n\n*(from redmine issue 8762 created on 2016-11-09)*\n\n### Files\n  * [picture433-1.png] (https://forge.codelutin.com/attachments/download/4245/picture433-1.png)",
    "labels": [
      "Divers",
      "Evolution",
      "From Redmine",
      "IRD-2017-03",
      "Normal",
      "Resolu"
    ],
    "milestone": {
      "id": 469911,
      "iid": 31,
      "projectId": 2724222,
      "groupId": 0,
      "title": "2.1",
      "description": "First part of contract 3.0",
      "dueDate": "Feb 25, 2018 1:00:00 AM",
      "startDate": "Feb 16, 2018 1:00:00 AM",
      "state": "closed"
    },
    "author": {
      "_id": 166231,
      "_username": "tchemit",
      "_name": "Tony CHEMIT",
      "_state": "active",
      "_darkScheme": false,
      "_isAdmin": false,
      "_canCreateGroup": false,
      "_canCreateProject": false,
      "_canCreateTeam": false,
      "_avatarUrl": "https://secure.gravatar.com/avatar/2a915aa9a1df35c8b609ff2f750d5dac?s\u003d80\u0026d\u003didenticon"
    },
    "state": "closed",
    "updatedAt": "Feb 21, 2018 12:58:18 AM",
    "createdAt": "Feb 17, 2017 4:19:19 PM"
  },
  {
    "id": 4428170,
    "iid": 250,
    "projectId": 2724222,
    "title": "Les topiaid de LocalMarketPackagingType sont mal préfixés",
    "description": "Les topiaid de LocalMarketPackagingType sont mal préfixés.\n\nIls devraient être construits sur : fr.ird.t3.entities.reference.LocalMarketPackagingType#xxxxxxxxxx#0.yyyyyyyyy\"\nOr ils sont construits sur : fr.ird.t3.entities.reference.LocalMarketPackaging#xxxxxxxxxx#0.yyyyyyyyy\"\n\n*(from redmine issue 8746 created on 2016-11-07)*",
    "labels": [
      "Anomalie",
      "From Redmine",
      "IRD-2017-03",
      "Modèle de données",
      "Normal",
      "Resolu"
    ],
    "milestone": {
      "id": 469911,
      "iid": 31,
      "projectId": 2724222,
      "groupId": 0,
      "title": "2.1",
      "description": "First part of contract 3.0",
      "dueDate": "Feb 25, 2018 1:00:00 AM",
      "startDate": "Feb 16, 2018 1:00:00 AM",
      "state": "closed"
    },
    "assignee": {
      "_id": 166231,
      "_username": "tchemit",
      "_name": "Tony CHEMIT",
      "_state": "active",
      "_darkScheme": false,
      "_isAdmin": false,
      "_canCreateGroup": false,
      "_canCreateProject": false,
      "_canCreateTeam": false,
      "_avatarUrl": "https://secure.gravatar.com/avatar/2a915aa9a1df35c8b609ff2f750d5dac?s\u003d80\u0026d\u003didenticon"
    },
    "author": {
      "_id": 166231,
      "_username": "tchemit",
      "_name": "Tony CHEMIT",
      "_state": "active",
      "_darkScheme": false,
      "_isAdmin": false,
      "_canCreateGroup": false,
      "_canCreateProject": false,
      "_canCreateTeam": false,
      "_avatarUrl": "https://secure.gravatar.com/avatar/2a915aa9a1df35c8b609ff2f750d5dac?s\u003d80\u0026d\u003didenticon"
    },
    "state": "closed",
    "updatedAt": "Feb 20, 2018 2:09:13 PM",
    "createdAt": "Feb 17, 2017 4:19:17 PM"
  },
  {
    "id": 4428169,
    "iid": 249,
    "projectId": 2724222,
    "title": "Supprimer localmarketpackaging.status",
    "description": "Dans la table localmarketpackaging, la colonne status est en trop, puisque la validité des entrées est déjà déterminée par les dates de début et fin de validité.\nIl faut la retirer.\n\n*(from redmine issue 8745 created on 2016-11-07)*\n\n### Files\n  * [picture29-1.png] (https://forge.codelutin.com/attachments/download/4222/picture29-1.png)",
    "labels": [
      "Evolution",
      "From Redmine",
      "IRD-2017-03",
      "Modèle de données",
      "Normal",
      "Resolu"
    ],
    "milestone": {
      "id": 469911,
      "iid": 31,
      "projectId": 2724222,
      "groupId": 0,
      "title": "2.1",
      "description": "First part of contract 3.0",
      "dueDate": "Feb 25, 2018 1:00:00 AM",
      "startDate": "Feb 16, 2018 1:00:00 AM",
      "state": "closed"
    },
    "author": {
      "_id": 166231,
      "_username": "tchemit",
      "_name": "Tony CHEMIT",
      "_state": "active",
      "_darkScheme": false,
      "_isAdmin": false,
      "_canCreateGroup": false,
      "_canCreateProject": false,
      "_canCreateTeam": false,
      "_avatarUrl": "https://secure.gravatar.com/avatar/2a915aa9a1df35c8b609ff2f750d5dac?s\u003d80\u0026d\u003didenticon"
    },
    "state": "closed",
    "updatedAt": "Feb 20, 2018 2:09:12 PM",
    "createdAt": "Feb 17, 2017 4:19:16 PM"
  },
  {
    "id": 4428167,
    "iid": 247,
    "projectId": 2724222,
    "title": "[LOGS] Inversion de libellé dans le log d\u0027import AVDTH",
    "description": "Import AVDTH, cas d\u0027un marée usant d\u0027une espèce et catégorie de poids non présente dans le référentiel.\nLes libellés C_CAT_T et C_ESP sont inversés.\n\nDans la capture d\u0027écran jointe on devrait avoir C_ESP \u003d 858 et C_CAT_T \u003d 9\n\nNous n\u0027avons pas trouvé les clés de ces libellés dans le fichier de traduction i18n/t3-web_fr_FR.properties pour effectuer la modification \n\n*(from redmine issue 8366 created on 2016-06-28)*\n\n### Files\n  * [picture808-1.png] (https://forge.codelutin.com/attachments/download/3982/picture808-1.png)",
    "labels": [
      "Anomalie",
      "From Redmine",
      "IRD-2017-03",
      "Normal",
      "Resolu",
      "Tracabilité"
    ],
    "milestone": {
      "id": 469911,
      "iid": 31,
      "projectId": 2724222,
      "groupId": 0,
      "title": "2.1",
      "description": "First part of contract 3.0",
      "dueDate": "Feb 25, 2018 1:00:00 AM",
      "startDate": "Feb 16, 2018 1:00:00 AM",
      "state": "closed"
    },
    "assignee": {
      "_id": 166231,
      "_username": "tchemit",
      "_name": "Tony CHEMIT",
      "_state": "active",
      "_darkScheme": false,
      "_isAdmin": false,
      "_canCreateGroup": false,
      "_canCreateProject": false,
      "_canCreateTeam": false,
      "_avatarUrl": "https://secure.gravatar.com/avatar/2a915aa9a1df35c8b609ff2f750d5dac?s\u003d80\u0026d\u003didenticon"
    },
    "author": {
      "_id": 166231,
      "_username": "tchemit",
      "_name": "Tony CHEMIT",
      "_state": "active",
      "_darkScheme": false,
      "_isAdmin": false,
      "_canCreateGroup": false,
      "_canCreateProject": false,
      "_canCreateTeam": false,
      "_avatarUrl": "https://secure.gravatar.com/avatar/2a915aa9a1df35c8b609ff2f750d5dac?s\u003d80\u0026d\u003didenticon"
    },
    "state": "closed",
    "updatedAt": "Feb 21, 2018 12:58:18 AM",
    "createdAt": "Feb 17, 2017 4:19:13 PM"
  },
  {
    "id": 4428166,
    "iid": 246,
    "projectId": 2724222,
    "title": "[LOGS] Erreur d\u0027affichage sur le log du RF1",
    "description": "Dans les cas du type :\n\nLa marée 490 - GUEOTEC - 15/10/2015 [fr.ird.t3.entities.data.Trip#1466694548902#0.7714402446170812] n\u0027a pas de captures mais des ventes (0.0), le drapeau logBookAvailability devrait être positionné à 0 (pas de log book).\n\nLa somme des ventes est notée (0.0) alors qu\u0027un tonnage existe.\n\nLa valeur s\u0027obtient par sommation des ElementaryLanding.weight du Trip\n\n*(from redmine issue 8364 created on 2016-06-24)*",
    "labels": [
      "Anomalie",
      "From Redmine",
      "IRD-2017-03",
      "Normal",
      "Resolu",
      "Tracabilité"
    ],
    "milestone": {
      "id": 469911,
      "iid": 31,
      "projectId": 2724222,
      "groupId": 0,
      "title": "2.1",
      "description": "First part of contract 3.0",
      "dueDate": "Feb 25, 2018 1:00:00 AM",
      "startDate": "Feb 16, 2018 1:00:00 AM",
      "state": "closed"
    },
    "assignee": {
      "_id": 166231,
      "_username": "tchemit",
      "_name": "Tony CHEMIT",
      "_state": "active",
      "_darkScheme": false,
      "_isAdmin": false,
      "_canCreateGroup": false,
      "_canCreateProject": false,
      "_canCreateTeam": false,
      "_avatarUrl": "https://secure.gravatar.com/avatar/2a915aa9a1df35c8b609ff2f750d5dac?s\u003d80\u0026d\u003didenticon"
    },
    "author": {
      "_id": 166231,
      "_username": "tchemit",
      "_name": "Tony CHEMIT",
      "_state": "active",
      "_darkScheme": false,
      "_isAdmin": false,
      "_canCreateGroup": false,
      "_canCreateProject": false,
      "_canCreateTeam": false,
      "_avatarUrl": "https://secure.gravatar.com/avatar/2a915aa9a1df35c8b609ff2f750d5dac?s\u003d80\u0026d\u003didenticon"
    },
    "state": "closed",
    "updatedAt": "Feb 21, 2018 12:58:18 AM",
    "createdAt": "Feb 17, 2017 4:19:12 PM"
  },
  {
    "id": 4428163,
    "iid": 243,
    "projectId": 2724222,
    "title": "[UI][N2][N3] Changer la sélection de la flotte d\u0027une sélection unique vers une sélection multiple",
    "description": "Dans les niveaux 2 et 3, changer la sélection de la flotte d\u0027une sélection unique vers une sélection multiple\n\n*(from redmine issue 8292 created on 2016-04-28)*",
    "labels": [
      "Calcul - Niveau 2",
      "Calcul - Niveau 3",
      "Evolution",
      "From Redmine",
      "IRD-2017-03",
      "Normal",
      "Resolu",
      "Traitement de données"
    ],
    "milestone": {
      "id": 469911,
      "iid": 31,
      "projectId": 2724222,
      "groupId": 0,
      "title": "2.1",
      "description": "First part of contract 3.0",
      "dueDate": "Feb 25, 2018 1:00:00 AM",
      "startDate": "Feb 16, 2018 1:00:00 AM",
      "state": "closed"
    },
    "assignee": {
      "_id": 166231,
      "_username": "tchemit",
      "_name": "Tony CHEMIT",
      "_state": "active",
      "_darkScheme": false,
      "_isAdmin": false,
      "_canCreateGroup": false,
      "_canCreateProject": false,
      "_canCreateTeam": false,
      "_avatarUrl": "https://secure.gravatar.com/avatar/2a915aa9a1df35c8b609ff2f750d5dac?s\u003d80\u0026d\u003didenticon"
    },
    "author": {
      "_id": 166231,
      "_username": "tchemit",
      "_name": "Tony CHEMIT",
      "_state": "active",
      "_darkScheme": false,
      "_isAdmin": false,
      "_canCreateGroup": false,
      "_canCreateProject": false,
      "_canCreateTeam": false,
      "_avatarUrl": "https://secure.gravatar.com/avatar/2a915aa9a1df35c8b609ff2f750d5dac?s\u003d80\u0026d\u003didenticon"
    },
    "state": "closed",
    "updatedAt": "Feb 25, 2018 11:47:16 PM",
    "createdAt": "Feb 17, 2017 4:19:05 PM"
  },
  {
    "id": 4428153,
    "iid": 236,
    "projectId": 2724222,
    "title": "[PG] Lorsqu\u0027on arrête l\u0027application, les connexions à la base PostgreSQL ne sont pas libérées",
    "description": "Lorsqu\u0027on arrête l\u0027application, les connexions à la base PostgreSQL ne sont pas libérées.\nIl semble que le pool de connexion les conserve actives.\nLe seul moyen de les libérer est d\u0027arrêter Tomcat.\n\nOn souhaiterait investiguer sur ce comportement et l\u0027améliorer si possible.\n\n*(from redmine issue 8011 created on 2016-02-19, relates #7762)*",
    "labels": [
      "Anomalie",
      "Base de données",
      "From Redmine",
      "IRD-2017-03",
      "Normal",
      "Resolu"
    ],
    "milestone": {
      "id": 469911,
      "iid": 31,
      "projectId": 2724222,
      "groupId": 0,
      "title": "2.1",
      "description": "First part of contract 3.0",
      "dueDate": "Feb 25, 2018 1:00:00 AM",
      "startDate": "Feb 16, 2018 1:00:00 AM",
      "state": "closed"
    },
    "assignee": {
      "_id": 166231,
      "_username": "tchemit",
      "_name": "Tony CHEMIT",
      "_state": "active",
      "_darkScheme": false,
      "_isAdmin": false,
      "_canCreateGroup": false,
      "_canCreateProject": false,
      "_canCreateTeam": false,
      "_avatarUrl": "https://secure.gravatar.com/avatar/2a915aa9a1df35c8b609ff2f750d5dac?s\u003d80\u0026d\u003didenticon"
    },
    "author": {
      "_id": 166231,
      "_username": "tchemit",
      "_name": "Tony CHEMIT",
      "_state": "active",
      "_darkScheme": false,
      "_isAdmin": false,
      "_canCreateGroup": false,
      "_canCreateProject": false,
      "_canCreateTeam": false,
      "_avatarUrl": "https://secure.gravatar.com/avatar/2a915aa9a1df35c8b609ff2f750d5dac?s\u003d80\u0026d\u003didenticon"
    },
    "state": "closed",
    "updatedAt": "Feb 20, 2018 2:09:08 PM",
    "createdAt": "Feb 17, 2017 4:18:53 PM"
  },
  {
    "id": 4428040,
    "iid": 160,
    "projectId": 2724222,
    "title": "[N0.4][LOG] Calcul du nombre de calées et durée des calées - Petite erreur dans le log",
    "description": "Le log de ce traitement donne 4 valeurs synthétiques :\n\n- Nombre de navires          : ok\n- Nombre de marées           : ok\n- Nombre de calées           : ko\n- Nombre de calées positives : ok\n\nNombre de calées :\n* actuellement le log retourne l\u0027équivalent de la requête suivante (sur les trips concernés, pas le traitement bien sûr) :\n\u003cpre\u003e\nSELECT COUNT(*) FROM ACTIVITY\n\u003c/pre\u003e\n* il faut plutôt :\n\u003cpre\u003e\nSELECT SUM(a.setcount) FROM ACTIVITY\n\u003c/pre\u003e\n\nCar toutes les activités ne sont pas des calées, mais 1 ligne d\u0027activité peut contenir plusieurs calées (d\u0027où le count)\n\nVérifier que le log \"nombre de calées positives\" fonctionne sur le même principe avec une requête du type : SELECT SUM(a.positivesetcount) FROM  activity a\n\n\n*(from redmine issue 2231 created on 2013-04-02)*",
    "labels": [
      "Anomalie",
      "From Redmine",
      "IRD-2017-03",
      "Normal",
      "Resolu",
      "Tracabilité"
    ],
    "milestone": {
      "id": 469911,
      "iid": 31,
      "projectId": 2724222,
      "groupId": 0,
      "title": "2.1",
      "description": "First part of contract 3.0",
      "dueDate": "Feb 25, 2018 1:00:00 AM",
      "startDate": "Feb 16, 2018 1:00:00 AM",
      "state": "closed"
    },
    "assignee": {
      "_id": 166231,
      "_username": "tchemit",
      "_name": "Tony CHEMIT",
      "_state": "active",
      "_darkScheme": false,
      "_isAdmin": false,
      "_canCreateGroup": false,
      "_canCreateProject": false,
      "_canCreateTeam": false,
      "_avatarUrl": "https://secure.gravatar.com/avatar/2a915aa9a1df35c8b609ff2f750d5dac?s\u003d80\u0026d\u003didenticon"
    },
    "author": {
      "_id": 166231,
      "_username": "tchemit",
      "_name": "Tony CHEMIT",
      "_state": "active",
      "_darkScheme": false,
      "_isAdmin": false,
      "_canCreateGroup": false,
      "_canCreateProject": false,
      "_canCreateTeam": false,
      "_avatarUrl": "https://secure.gravatar.com/avatar/2a915aa9a1df35c8b609ff2f750d5dac?s\u003d80\u0026d\u003didenticon"
    },
    "state": "closed",
    "updatedAt": "Feb 21, 2018 12:58:18 AM",
    "createdAt": "Feb 17, 2017 4:13:38 PM"
  },
  {
    "id": 4428026,
    "iid": 154,
    "projectId": 2724222,
    "title": "[WIN] Windows/Mauvais affichage des caractères accentués dans le navigateur",
    "description": "Sous Windows (PG+Tomcat+navigateur), les caractères accentués des logs ne sont pas correctement affichés (problème de détection de l\u0027encodage).\n\nTeste effectué sous Firefox 19.0 sous Windows XP, confirmé aussi sous Firefox 42 pour Windows 7.\nJe ne sais pas si c\u0027est un problème côté serveur ou côté client, sanchant que j\u0027exécute t3+ en local.\n\nVisiblement ça ne concerne que le texte des logs. Les libellés de l\u0027interface sont corrects !\n\nIl faut arranger ça.\n\n*(from redmine issue 2099 created on 2013-03-07)*\n\n### Files\n  * [picture327-1.png] (https://forge.codelutin.com/attachments/download/3532/picture327-1.png)",
    "labels": [
      "Anomalie",
      "Divers",
      "From Redmine",
      "IRD-2017-03",
      "Normal",
      "Resolu"
    ],
    "milestone": {
      "id": 469911,
      "iid": 31,
      "projectId": 2724222,
      "groupId": 0,
      "title": "2.1",
      "description": "First part of contract 3.0",
      "dueDate": "Feb 25, 2018 1:00:00 AM",
      "startDate": "Feb 16, 2018 1:00:00 AM",
      "state": "closed"
    },
    "assignee": {
      "_id": 166231,
      "_username": "tchemit",
      "_name": "Tony CHEMIT",
      "_state": "active",
      "_darkScheme": false,
      "_isAdmin": false,
      "_canCreateGroup": false,
      "_canCreateProject": false,
      "_canCreateTeam": false,
      "_avatarUrl": "https://secure.gravatar.com/avatar/2a915aa9a1df35c8b609ff2f750d5dac?s\u003d80\u0026d\u003didenticon"
    },
    "author": {
      "_id": 166231,
      "_username": "tchemit",
      "_name": "Tony CHEMIT",
      "_state": "active",
      "_darkScheme": false,
      "_isAdmin": false,
      "_canCreateGroup": false,
      "_canCreateProject": false,
      "_canCreateTeam": false,
      "_avatarUrl": "https://secure.gravatar.com/avatar/2a915aa9a1df35c8b609ff2f750d5dac?s\u003d80\u0026d\u003didenticon"
    },
    "state": "closed",
    "updatedAt": "Feb 21, 2018 12:58:18 AM",
    "createdAt": "Feb 17, 2017 4:13:04 PM"
  },
  {
    "id": 4427921,
    "iid": 85,
    "projectId": 2724222,
    "title": "[N0] Marée Echantillons seulement et gestion de l\u0027UI du N0",
    "description": "La possibilité d\u0027importer des bases \"sampleOnly\" (bases échantillons espagnoles par exemple) produit un effet de bord :\n\nAlors que ces marées ne peuvent pas et ne doivent pas subir de traitements N0 (car elles n\u0027ont pas de captures), elles influent sur les possibilités de sélection qui sont offertes à l\u0027utilisateur :\n - des cases à cocher \"Espagne\" apparaissent sur la sélection Flotte et Pavillon, uniquement dues à ces marées\n - les bornes de dates se retrouvent élargies inutilement à cause de ces marées\n\nAlors que les marées qui produisent ceci ne sont pas traitées N0.\n\nIl faudrait donc améliorer les requêtes qui fabriquent ces filtres en éliminant les trips de type trip.samplesOnly\u003dtrue\n\nIl faut vérifier que ces marées \"échantillons seulement\" (trip.sampleOnly \u003d TRUE), qui ne sont donc pas traitées N0, restent utilisables au N1, et aux N2/N3 en tant que marées de la strate échantillons.\n\nEn lien avec #116.\n\n*(from redmine issue 1122 created on 2012-04-17)*",
    "labels": [
      "Calcul - Niveau 0",
      "Evolution",
      "From Redmine",
      "IRD-2017-03",
      "Normal",
      "Resolu"
    ],
    "milestone": {
      "id": 469911,
      "iid": 31,
      "projectId": 2724222,
      "groupId": 0,
      "title": "2.1",
      "description": "First part of contract 3.0",
      "dueDate": "Feb 25, 2018 1:00:00 AM",
      "startDate": "Feb 16, 2018 1:00:00 AM",
      "state": "closed"
    },
    "assignee": {
      "_id": 166231,
      "_username": "tchemit",
      "_name": "Tony CHEMIT",
      "_state": "active",
      "_darkScheme": false,
      "_isAdmin": false,
      "_canCreateGroup": false,
      "_canCreateProject": false,
      "_canCreateTeam": false,
      "_avatarUrl": "https://secure.gravatar.com/avatar/2a915aa9a1df35c8b609ff2f750d5dac?s\u003d80\u0026d\u003didenticon"
    },
    "author": {
      "_id": 166231,
      "_username": "tchemit",
      "_name": "Tony CHEMIT",
      "_state": "active",
      "_darkScheme": false,
      "_isAdmin": false,
      "_canCreateGroup": false,
      "_canCreateProject": false,
      "_canCreateTeam": false,
      "_avatarUrl": "https://secure.gravatar.com/avatar/2a915aa9a1df35c8b609ff2f750d5dac?s\u003d80\u0026d\u003didenticon"
    },
    "state": "closed",
    "updatedAt": "Feb 25, 2018 11:47:16 PM",
    "createdAt": "Feb 17, 2017 4:08:18 PM"
  },
  {
    "id": 4428148,
    "iid": 232,
    "projectId": 2724222,
    "title": "[UI] Souci de mise en page web",
    "description": "Sur la page \"Gérer les marées\", la mise en page déborde de l\u0027écran à droite. Voir la PJ.\nCela génère un ascenseur horizontal, pourtant inutile.\n\n\n\n*(from redmine issue 8002 created on 2016-02-17)*\n\n### Files\n  * [picture915-1.png] (https://forge.codelutin.com/attachments/download/3701/picture915-1.png)",
    "labels": [
      "Anomalie",
      "Bas",
      "Divers",
      "From Redmine",
      "IRD-2017-03",
      "Resolu"
    ],
    "milestone": {
      "id": 469911,
      "iid": 31,
      "projectId": 2724222,
      "groupId": 0,
      "title": "2.1",
      "description": "First part of contract 3.0",
      "dueDate": "Feb 25, 2018 1:00:00 AM",
      "startDate": "Feb 16, 2018 1:00:00 AM",
      "state": "closed"
    },
    "assignee": {
      "_id": 166231,
      "_username": "tchemit",
      "_name": "Tony CHEMIT",
      "_state": "active",
      "_darkScheme": false,
      "_isAdmin": false,
      "_canCreateGroup": false,
      "_canCreateProject": false,
      "_canCreateTeam": false,
      "_avatarUrl": "https://secure.gravatar.com/avatar/2a915aa9a1df35c8b609ff2f750d5dac?s\u003d80\u0026d\u003didenticon"
    },
    "author": {
      "_id": 166231,
      "_username": "tchemit",
      "_name": "Tony CHEMIT",
      "_state": "active",
      "_darkScheme": false,
      "_isAdmin": false,
      "_canCreateGroup": false,
      "_canCreateProject": false,
      "_canCreateTeam": false,
      "_avatarUrl": "https://secure.gravatar.com/avatar/2a915aa9a1df35c8b609ff2f750d5dac?s\u003d80\u0026d\u003didenticon"
    },
    "state": "closed",
    "updatedAt": "Feb 25, 2018 11:47:16 PM",
    "createdAt": "Feb 17, 2017 4:18:44 PM"
  },
  {
    "id": 4428095,
    "iid": 196,
    "projectId": 2724222,
    "title": "[PERSISTENCE] Renommage de tables et champs",
    "description": "Renommer l\u0027entité SampleWell en SampleSet\n\nRenommer tous les champs libelle en label\n\nRenommer champ samplespecies.supersamplenumber en samplespecies.subsamplenumber\n\n*(from redmine issue 7757 created on 2015-11-24)*",
    "labels": [
      "Bas",
      "Evolution",
      "From Redmine",
      "IRD-2017-03",
      "Modèle de données",
      "Resolu"
    ],
    "milestone": {
      "id": 469911,
      "iid": 31,
      "projectId": 2724222,
      "groupId": 0,
      "title": "2.1",
      "description": "First part of contract 3.0",
      "dueDate": "Feb 25, 2018 1:00:00 AM",
      "startDate": "Feb 16, 2018 1:00:00 AM",
      "state": "closed"
    },
    "assignee": {
      "_id": 166231,
      "_username": "tchemit",
      "_name": "Tony CHEMIT",
      "_state": "active",
      "_darkScheme": false,
      "_isAdmin": false,
      "_canCreateGroup": false,
      "_canCreateProject": false,
      "_canCreateTeam": false,
      "_avatarUrl": "https://secure.gravatar.com/avatar/2a915aa9a1df35c8b609ff2f750d5dac?s\u003d80\u0026d\u003didenticon"
    },
    "author": {
      "_id": 166231,
      "_username": "tchemit",
      "_name": "Tony CHEMIT",
      "_state": "active",
      "_darkScheme": false,
      "_isAdmin": false,
      "_canCreateGroup": false,
      "_canCreateProject": false,
      "_canCreateTeam": false,
      "_avatarUrl": "https://secure.gravatar.com/avatar/2a915aa9a1df35c8b609ff2f750d5dac?s\u003d80\u0026d\u003didenticon"
    },
    "state": "closed",
    "updatedAt": "Feb 20, 2018 2:09:04 PM",
    "createdAt": "Feb 17, 2017 4:16:01 PM"
  },
  {
    "id": 9405958,
    "iid": 285,
    "projectId": 2724222,
    "title": "Ajouter un nouveau package avec des bases h2 (vide et avec le référentiel)",
    "description": "",
    "labels": [
      "Base de données",
      "Evolution",
      "IRD-2017-03",
      "Resolu"
    ],
    "milestone": {
      "id": 469911,
      "iid": 31,
      "projectId": 2724222,
      "groupId": 0,
      "title": "2.1",
      "description": "First part of contract 3.0",
      "dueDate": "Feb 25, 2018 1:00:00 AM",
      "startDate": "Feb 16, 2018 1:00:00 AM",
      "state": "closed"
    },
    "assignee": {
      "_id": 166231,
      "_username": "tchemit",
      "_name": "Tony CHEMIT",
      "_state": "active",
      "_darkScheme": false,
      "_isAdmin": false,
      "_canCreateGroup": false,
      "_canCreateProject": false,
      "_canCreateTeam": false,
      "_avatarUrl": "https://secure.gravatar.com/avatar/2a915aa9a1df35c8b609ff2f750d5dac?s\u003d80\u0026d\u003didenticon"
    },
    "author": {
      "_id": 166231,
      "_username": "tchemit",
      "_name": "Tony CHEMIT",
      "_state": "active",
      "_darkScheme": false,
      "_isAdmin": false,
      "_canCreateGroup": false,
      "_canCreateProject": false,
      "_canCreateTeam": false,
      "_avatarUrl": "https://secure.gravatar.com/avatar/2a915aa9a1df35c8b609ff2f750d5dac?s\u003d80\u0026d\u003didenticon"
    },
    "state": "closed",
    "updatedAt": "Feb 25, 2018 11:47:16 PM",
    "createdAt": "Feb 23, 2018 3:27:55 AM"
  },
  {
    "id": 6919872,
    "iid": 277,
    "projectId": 2724222,
    "title": "Renommer l\u0027entité SampleWell en SampleSet",
    "description": "Renommer l\u0027entité SampleWell en SampleSet",
    "labels": [
      "IRD-2017-03",
      "Modèle de données",
      "validé"
    ],
    "milestone": {
      "id": 469911,
      "iid": 31,
      "projectId": 2724222,
      "groupId": 0,
      "title": "2.1",
      "description": "First part of contract 3.0",
      "dueDate": "Feb 25, 2018 1:00:00 AM",
      "startDate": "Feb 16, 2018 1:00:00 AM",
      "state": "closed"
    },
    "assignee": {
      "_id": 166231,
      "_username": "tchemit",
      "_name": "Tony CHEMIT",
      "_state": "active",
      "_darkScheme": false,
      "_isAdmin": false,
      "_canCreateGroup": false,
      "_canCreateProject": false,
      "_canCreateTeam": false,
      "_avatarUrl": "https://secure.gravatar.com/avatar/2a915aa9a1df35c8b609ff2f750d5dac?s\u003d80\u0026d\u003didenticon"
    },
    "author": {
      "_id": 1111318,
      "_username": "pcauquil",
      "_name": "Pascal Cauquil",
      "_state": "active",
      "_darkScheme": false,
      "_isAdmin": false,
      "_canCreateGroup": false,
      "_canCreateProject": false,
      "_canCreateTeam": false,
      "_avatarUrl": "https://secure.gravatar.com/avatar/b4ae117bd93e10d96298fa4d885208ea?s\u003d80\u0026d\u003didenticon"
    },
    "state": "closed",
    "updatedAt": "Mar 15, 2018 2:53:39 PM",
    "createdAt": "Sep 22, 2017 4:01:55 PM"
  },
  {
    "id": 5332700,
    "iid": 271,
    "projectId": 2724222,
    "title": "Amélioration du log du RF1 (N0.1)",
    "description": "Le log (niveau informations) du RF1 donne, pour chaque marée, ce type d\u0027infos :\n\n`\nMarée xxx- BATEAU X - 30/07/2016 [fr.ird.t3.entities.data.Trip#1494319686556#0.646862912705509], Poids total capturé 78.0 / Poids total vendu 77.240005\nPoids total capturé 78.0 / Poids total vendu 77.240005 / RF1 \u003d 0.9902565\nMarée xxx- BATEAU X - 30/07/2016, rf1 utilisé 0.9902565\n`\nParfois le RF1 est douteux (\u003c0.8 ou \u003e1.2) et nous devons investiguer pour en trouver la raison.\nParfois la raison est une quantité non négligeable de poisson vendue comme faux poisson (et non comme lot commercial).\nDe ce fait, afficher en plus, sur le log, le total de faux-poisson serait pratique.\nPar ailleurs on propose une reformulation du texte pour gagner un peu de place.\n\n`\nMarée xxx- BATEAU X - 30/07/2016 [fr.ird.t3.entities.data.Trip#1494319686556#0.646862912705509] : Poids capturé 78.0 / Poids vendu 77.240005 / Poids marché local résumé xx.xxx / Poids marché local détaillé xx.xxx / RF1 \u003d 0.9902565\n`\n\nAvec :\n* Poids marché local résumé \u003d Trip.falsefishweight\n* Poids marché local détaillé \u003d Somme de LocaLmarketBatch.weight\n\nCes 2 valeurs proviennent de sources différentes et peuvent diverger.",
    "labels": [
      "Evolution",
      "IRD-2017-03",
      "Tracabilité",
      "validé"
    ],
    "milestone": {
      "id": 469911,
      "iid": 31,
      "projectId": 2724222,
      "groupId": 0,
      "title": "2.1",
      "description": "First part of contract 3.0",
      "dueDate": "Feb 25, 2018 1:00:00 AM",
      "startDate": "Feb 16, 2018 1:00:00 AM",
      "state": "closed"
    },
    "assignee": {
      "_id": 166231,
      "_username": "tchemit",
      "_name": "Tony CHEMIT",
      "_state": "active",
      "_darkScheme": false,
      "_isAdmin": false,
      "_canCreateGroup": false,
      "_canCreateProject": false,
      "_canCreateTeam": false,
      "_avatarUrl": "https://secure.gravatar.com/avatar/2a915aa9a1df35c8b609ff2f750d5dac?s\u003d80\u0026d\u003didenticon"
    },
    "author": {
      "_id": 1111318,
      "_username": "pcauquil",
      "_name": "Pascal Cauquil",
      "_state": "active",
      "_darkScheme": false,
      "_isAdmin": false,
      "_canCreateGroup": false,
      "_canCreateProject": false,
      "_canCreateTeam": false,
      "_avatarUrl": "https://secure.gravatar.com/avatar/b4ae117bd93e10d96298fa4d885208ea?s\u003d80\u0026d\u003didenticon"
    },
    "state": "closed",
    "updatedAt": "Mar 15, 2018 5:33:45 PM",
    "createdAt": "May 9, 2017 3:36:53 PM"
  },
  {
    "id": 5332214,
    "iid": 270,
    "projectId": 2724222,
    "title": "Erreur de libellé dans le log N0.1 (calcul des RF1)",
    "description": "Dans le log de calcul du RF1 (N0.1), exemple :\n\n`Pour la marée complète de 427 - CORONA DEL MAR - 29/09/2015 à 427 - CORONA DEL MAR - 29/09/2015 le rf1 calculé 0.7745284 est trop petit (inférieur à 0.8)`\n\n* La date de débarquement est indiquée 2 fois. Pour la première date, il faudrait faire en sorte que ce soit bien le champ \"date de départ\"  (trip.departuredate) qui soit utilisé.\n* Gagnons de la place en ne répétant pas code et nom du bateau\n\n`Pour la marée complète de 427 - CORONA DEL MAR du xx/xx/xxxx au 29/09/2015 le rf1 calculé 0.7745284 est trop petit (inférieur à 0.8)`",
    "labels": [
      "Anomalie",
      "IRD-2017-03",
      "Tracabilité",
      "validé"
    ],
    "milestone": {
      "id": 469911,
      "iid": 31,
      "projectId": 2724222,
      "groupId": 0,
      "title": "2.1",
      "description": "First part of contract 3.0",
      "dueDate": "Feb 25, 2018 1:00:00 AM",
      "startDate": "Feb 16, 2018 1:00:00 AM",
      "state": "closed"
    },
    "assignee": {
      "_id": 166231,
      "_username": "tchemit",
      "_name": "Tony CHEMIT",
      "_state": "active",
      "_darkScheme": false,
      "_isAdmin": false,
      "_canCreateGroup": false,
      "_canCreateProject": false,
      "_canCreateTeam": false,
      "_avatarUrl": "https://secure.gravatar.com/avatar/2a915aa9a1df35c8b609ff2f750d5dac?s\u003d80\u0026d\u003didenticon"
    },
    "author": {
      "_id": 1111318,
      "_username": "pcauquil",
      "_name": "Pascal Cauquil",
      "_state": "active",
      "_darkScheme": false,
      "_isAdmin": false,
      "_canCreateGroup": false,
      "_canCreateProject": false,
      "_canCreateTeam": false,
      "_avatarUrl": "https://secure.gravatar.com/avatar/b4ae117bd93e10d96298fa4d885208ea?s\u003d80\u0026d\u003didenticon"
    },
    "state": "closed",
    "updatedAt": "Mar 15, 2018 5:34:48 PM",
    "createdAt": "May 9, 2017 3:01:47 PM"
  }
]