[
  {
    "name": "Installer",
    "filename": "t3-2.2.zip",
    "url": "https://ultreia.io/release/t3-2.2.zip"
  },
  {
    "name": "Application",
    "filename": "t3-2.2.war",
    "url": "https://ultreia.io/release/t3-2.2.war"
  }
]