[
  {
    "name": "Installer",
    "filename": "t3-2.4.zip",
    "url": "https://ultreia.io/release/t3-2.4.zip"
  },
  {
    "name": "Application",
    "filename": "t3-2.4.war",
    "url": "https://ultreia.io/release/t3-2.4.war"
  }
]