[
  {
    "name": "Installer",
    "filename": "t3-2.5.zip",
    "url": "https://ultreia.io/release/t3-2.5.zip"
  },
  {
    "name": "Application",
    "filename": "t3-2.5.war",
    "url": "https://ultreia.io/release/t3-2.5.war"
  }
]