[
  {
    "id": 10018805,
    "iid": 307,
    "projectId": 2724222,
    "title": "[N3] Option à supprimer sur le N3",
    "description": "Sur le N3 on a maintenant 2 groupes de choix :\n* l\u0027historique \"méthode d\u0027extrapolation\"\n* le nouveau \"Utilisation des catégories de poids dans la strate\"\n\n![image](/uploads/e49f4e1149cf7947d0786e6eb438e5b8/image.png)\n\nJe pense que la nouvelle option doit remplacer la première, mais du coup je voudrais voir avec toi de quelle façon la première intervient toujours dans l\u0027algorithme, de sorte à ce que je ne te fasse pas faire de bêtise.",
    "labels": [
      "Calcul - Niveau 3",
      "Evolution",
      "IRD-2017-03",
      "Urgent"
    ],
    "milestone": {
      "id": 500152,
      "iid": 36,
      "projectId": 2724222,
      "groupId": 0,
      "title": "2.6",
      "description": "",
      "dueDate": "Apr 5, 2018 2:00:00 AM",
      "startDate": "Apr 1, 2018 2:00:00 AM",
      "state": "closed"
    },
    "assignee": {
      "_id": 166231,
      "_username": "tchemit",
      "_name": "Tony CHEMIT",
      "_state": "active",
      "_darkScheme": false,
      "_isAdmin": false,
      "_canCreateGroup": false,
      "_canCreateProject": false,
      "_canCreateTeam": false,
      "_avatarUrl": "https://secure.gravatar.com/avatar/2a915aa9a1df35c8b609ff2f750d5dac?s\u003d80\u0026d\u003didenticon"
    },
    "author": {
      "_id": 1111318,
      "_username": "pcauquil",
      "_name": "Pascal Cauquil",
      "_state": "active",
      "_darkScheme": false,
      "_isAdmin": false,
      "_canCreateGroup": false,
      "_canCreateProject": false,
      "_canCreateTeam": false,
      "_avatarUrl": "https://secure.gravatar.com/avatar/b4ae117bd93e10d96298fa4d885208ea?s\u003d80\u0026d\u003didenticon"
    },
    "state": "closed",
    "updatedAt": "Apr 5, 2018 7:09:00 PM",
    "createdAt": "Mar 30, 2018 5:42:40 PM"
  },
  {
    "id": 10015638,
    "iid": 305,
    "projectId": 2724222,
    "title": "Pour une base OI 2018, l\u0027assistant import exige un code port a priori non pertinent",
    "description": "Pour une base OI 2018, l\u0027assistant import exige un Harbour avec code 0.\nLa marée incriminée est même spécifiée.\n\n![image](/uploads/e3b9dee34f447ebb40034e7e143f752b/image.png)\n\nOr cette marée ne fait pas référence à un port 0, ni la base dans son ensemble d\u0027ailleurs.\n![image](/uploads/73970b5cd16989b2e823f75acd357d73/image.png)\n\nJe joins cette base et mets pour l\u0027occasion le ticket en confidentiel.[France_OI_2018_01_02.zip](/uploads/de93a482408f64e8c71bd2bb16409dea/France_OI_2018_01_02.zip)",
    "labels": [
      "Divers",
      "Haut",
      "IRD-2017-03",
      "Tâche"
    ],
    "milestone": {
      "id": 500152,
      "iid": 36,
      "projectId": 2724222,
      "groupId": 0,
      "title": "2.6",
      "description": "",
      "dueDate": "Apr 5, 2018 2:00:00 AM",
      "startDate": "Apr 1, 2018 2:00:00 AM",
      "state": "closed"
    },
    "assignee": {
      "_id": 166231,
      "_username": "tchemit",
      "_name": "Tony CHEMIT",
      "_state": "active",
      "_darkScheme": false,
      "_isAdmin": false,
      "_canCreateGroup": false,
      "_canCreateProject": false,
      "_canCreateTeam": false,
      "_avatarUrl": "https://secure.gravatar.com/avatar/2a915aa9a1df35c8b609ff2f750d5dac?s\u003d80\u0026d\u003didenticon"
    },
    "author": {
      "_id": 1111318,
      "_username": "pcauquil",
      "_name": "Pascal Cauquil",
      "_state": "active",
      "_darkScheme": false,
      "_isAdmin": false,
      "_canCreateGroup": false,
      "_canCreateProject": false,
      "_canCreateTeam": false,
      "_avatarUrl": "https://secure.gravatar.com/avatar/b4ae117bd93e10d96298fa4d885208ea?s\u003d80\u0026d\u003didenticon"
    },
    "state": "closed",
    "updatedAt": "Apr 5, 2018 6:59:16 PM",
    "createdAt": "Mar 30, 2018 12:58:32 PM"
  },
  {
    "id": 10014568,
    "iid": 303,
    "projectId": 2724222,
    "title": "Problème avec l\u0027installeur 2.5",
    "description": "En lançant create-db.bat...\n\n![image](/uploads/859689a5568af6726a4b00327b537639/image.png)",
    "labels": [
      "Divers",
      "Haut",
      "IRD-2017-03",
      "Tâche"
    ],
    "milestone": {
      "id": 500152,
      "iid": 36,
      "projectId": 2724222,
      "groupId": 0,
      "title": "2.6",
      "description": "",
      "dueDate": "Apr 5, 2018 2:00:00 AM",
      "startDate": "Apr 1, 2018 2:00:00 AM",
      "state": "closed"
    },
    "assignee": {
      "_id": 166231,
      "_username": "tchemit",
      "_name": "Tony CHEMIT",
      "_state": "active",
      "_darkScheme": false,
      "_isAdmin": false,
      "_canCreateGroup": false,
      "_canCreateProject": false,
      "_canCreateTeam": false,
      "_avatarUrl": "https://secure.gravatar.com/avatar/2a915aa9a1df35c8b609ff2f750d5dac?s\u003d80\u0026d\u003didenticon"
    },
    "author": {
      "_id": 1111318,
      "_username": "pcauquil",
      "_name": "Pascal Cauquil",
      "_state": "active",
      "_darkScheme": false,
      "_isAdmin": false,
      "_canCreateGroup": false,
      "_canCreateProject": false,
      "_canCreateTeam": false,
      "_avatarUrl": "https://secure.gravatar.com/avatar/b4ae117bd93e10d96298fa4d885208ea?s\u003d80\u0026d\u003didenticon"
    },
    "state": "closed",
    "updatedAt": "Apr 5, 2018 6:59:15 PM",
    "createdAt": "Mar 30, 2018 11:14:04 AM"
  },
  {
    "id": 10018641,
    "iid": 306,
    "projectId": 2724222,
    "title": "Mise en page de certains écrans de configuration",
    "description": "Surtout sur les N2 et N3, les options avec boutons radios sont toutes accolées, si bien qu\u0027on a du mal lesquelles fonctionnent ensemble.\n\n![image](/uploads/bacc8abaebc9735ab266b73cee0c7cca/image.png)\n\nOn aimerait au moins rajouter un peu d\u0027espacement entre les groupes de boutons radio aux N2 et N3.\n\nOn pourrait rajouter aussi un peu d\u0027espace entre les différents groupes de cases à cocher (sur tous les niveaux du cou).",
    "labels": [
      "Bas",
      "Divers",
      "Evolution",
      "IRD-2017-03"
    ],
    "milestone": {
      "id": 500152,
      "iid": 36,
      "projectId": 2724222,
      "groupId": 0,
      "title": "2.6",
      "description": "",
      "dueDate": "Apr 5, 2018 2:00:00 AM",
      "startDate": "Apr 1, 2018 2:00:00 AM",
      "state": "closed"
    },
    "assignee": {
      "_id": 166231,
      "_username": "tchemit",
      "_name": "Tony CHEMIT",
      "_state": "active",
      "_darkScheme": false,
      "_isAdmin": false,
      "_canCreateGroup": false,
      "_canCreateProject": false,
      "_canCreateTeam": false,
      "_avatarUrl": "https://secure.gravatar.com/avatar/2a915aa9a1df35c8b609ff2f750d5dac?s\u003d80\u0026d\u003didenticon"
    },
    "author": {
      "_id": 1111318,
      "_username": "pcauquil",
      "_name": "Pascal Cauquil",
      "_state": "active",
      "_darkScheme": false,
      "_isAdmin": false,
      "_canCreateGroup": false,
      "_canCreateProject": false,
      "_canCreateTeam": false,
      "_avatarUrl": "https://secure.gravatar.com/avatar/b4ae117bd93e10d96298fa4d885208ea?s\u003d80\u0026d\u003didenticon"
    },
    "state": "closed",
    "updatedAt": "Apr 5, 2018 7:28:13 PM",
    "createdAt": "Mar 30, 2018 5:27:50 PM"
  },
  {
    "id": 10015578,
    "iid": 304,
    "projectId": 2724222,
    "title": "[IMPORT] Il manque un lien \"Importer une autre marée\"",
    "description": "Tout comme lorsque l\u0027import d\u0027une marée est permis, on aimerait aussi un lien \"Importer une autre marée\" lorsque l\u0027import n\u0027a pas été possible :\n![image](/uploads/02cd752df756c5477957d6e0d8c3e2a1/image.png)",
    "labels": [
      "Bas",
      "Divers",
      "IRD-2017-03",
      "Tâche"
    ],
    "milestone": {
      "id": 500152,
      "iid": 36,
      "projectId": 2724222,
      "groupId": 0,
      "title": "2.6",
      "description": "",
      "dueDate": "Apr 5, 2018 2:00:00 AM",
      "startDate": "Apr 1, 2018 2:00:00 AM",
      "state": "closed"
    },
    "assignee": {
      "_id": 166231,
      "_username": "tchemit",
      "_name": "Tony CHEMIT",
      "_state": "active",
      "_darkScheme": false,
      "_isAdmin": false,
      "_canCreateGroup": false,
      "_canCreateProject": false,
      "_canCreateTeam": false,
      "_avatarUrl": "https://secure.gravatar.com/avatar/2a915aa9a1df35c8b609ff2f750d5dac?s\u003d80\u0026d\u003didenticon"
    },
    "author": {
      "_id": 1111318,
      "_username": "pcauquil",
      "_name": "Pascal Cauquil",
      "_state": "active",
      "_darkScheme": false,
      "_isAdmin": false,
      "_canCreateGroup": false,
      "_canCreateProject": false,
      "_canCreateTeam": false,
      "_avatarUrl": "https://secure.gravatar.com/avatar/b4ae117bd93e10d96298fa4d885208ea?s\u003d80\u0026d\u003didenticon"
    },
    "state": "closed",
    "updatedAt": "Apr 5, 2018 7:09:00 PM",
    "createdAt": "Mar 30, 2018 12:51:27 PM"
  }
]