{
  "id": 504346,
  "iid": 37,
  "projectId": 2724222,
  "groupId": 0,
  "title": "2.7",
  "description": "",
  "dueDate": "Apr 13, 2018 2:00:00 AM",
  "startDate": "Apr 9, 2018 2:00:00 AM",
  "state": "closed"
}