{
  "id": 504975,
  "iid": 38,
  "projectId": 2724222,
  "groupId": 0,
  "title": "2.8",
  "description": "",
  "dueDate": "May 4, 2018 2:00:00 AM",
  "startDate": "Apr 10, 2018 2:00:00 AM",
  "state": "closed"
}