[
  {
    "id": 10301102,
    "iid": 320,
    "projectId": 2724222,
    "title": "[N3] Exception NullPointerException",
    "description": "Sur un traitement N3, traitement sans stratification par catégories de poids, nous rencontrons l\u0027erreur suivante :\r\n\r\n```\r\njava.lang.NullPointerException: Found a trip 492 - GUERIDEN - 28/09/2016 [fr.ird.t3.entities.data.Trip#1523526492240#0.1778868568644456] - activity 13/09/2016 - (-13.983473, 1.6501389) [fr.ird.t3.entities.data.Activity#1523526492242#0.5458866299538195] with a null CorrectedElementaryCatch#correctedCatchWeight on data: fr.ird.t3.entities.data.CorrectedElementaryCatchImpl@ba04a294\r\n\tjava.util.Objects.requireNonNull(Unknown Source)\r\n\tfr.ird.t3.entities.T3EntityHelper.getTotal(T3EntityHelper.java:181)\r\n\tfr.ird.t3.actions.data.level3.L3CatchStratum.init(L3CatchStratum.java:71)\r\n\tfr.ird.t3.actions.data.level3.Level3Action.newCatchStratum(Level3Action.java:394)\r\n\tfr.ird.t3.actions.data.level3.Level3Action.doExecuteStratum(Level3Action.java:179)\r\n\tfr.ird.t3.actions.data.level3.Level3Action.executeAction(Level3Action.java:115)\r\n\tfr.ird.t3.actions.T3Action.run(T3Action.java:79)\r\n\tfr.ird.t3.web.actions.AbstractRunAction.executeAction(AbstractRunAction.java:119)\r\n\tfr.ird.t3.web.actions.AbstractRunAction.execute(AbstractRunAction.java:109)\r\n\tsun.reflect.NativeMethodAccessorImpl.invoke0(Native Method)\r\n\tsun.reflect.NativeMethodAccessorImpl.invoke(Unknown Source)\r\n\tsun.reflect.DelegatingMethodAccessorImpl.invoke(Unknown Source)\r\n\tjava.lang.reflect.Method.invoke(Unknown Source)\r\n\tcom.opensymphony.xwork2.DefaultActionInvocation.invokeAction(DefaultActionInvocation.java:450)\r\n\tcom.opensymphony.xwork2.DefaultActionInvocation.invokeActionOnly(DefaultActionInvocation.java:289)\r\n\torg.apache.struts2.interceptor.BackgroundProcess$1.run(BackgroundProcess.java:57)\r\n\tjava.lang.Thread.run(Unknown Source)\r\n```\r\n\r\nLe N2 a été appliqué aux espèces par défaut, sans prise en compte des catégories de poids dans la stratification.\r\n\r\nLes paramètres N3 étaient :\r\n![image](/uploads/615639cec307ccc7eabb68c6cb4ed7e8/image.png)\r\n\r\n![image](/uploads/d3bf7ba091fa08816d6b920b7e98f539/image.png)\r\n\r\n![image](/uploads/a214d56aca75135068b90b15411ab369/image.png)\r\n\r\nLe dump de la base correspondante est ici : https://filesender.renater.fr/?s\u003ddownload\u0026token\u003d074b0053-e16e-ed9d-c51d-0c3f86c6aed5",
    "labels": [
      "Anomalie",
      "Calcul - Niveau 3",
      "Haut",
      "IRD-2017-03"
    ],
    "milestone": {
      "id": 504975,
      "iid": 38,
      "projectId": 2724222,
      "groupId": 0,
      "title": "2.8",
      "description": "",
      "dueDate": "May 4, 2018 2:00:00 AM",
      "startDate": "Apr 10, 2018 2:00:00 AM",
      "state": "closed"
    },
    "assignee": {
      "_id": 166231,
      "_username": "tchemit",
      "_name": "Tony CHEMIT",
      "_state": "active",
      "_darkScheme": false,
      "_isAdmin": false,
      "_canCreateGroup": false,
      "_canCreateProject": false,
      "_canCreateTeam": false,
      "_avatarUrl": "https://secure.gravatar.com/avatar/2a915aa9a1df35c8b609ff2f750d5dac?s\u003d80\u0026d\u003didenticon"
    },
    "author": {
      "_id": 1111318,
      "_username": "pcauquil",
      "_name": "Pascal Cauquil",
      "_state": "active",
      "_darkScheme": false,
      "_isAdmin": false,
      "_canCreateGroup": false,
      "_canCreateProject": false,
      "_canCreateTeam": false,
      "_avatarUrl": "https://secure.gravatar.com/avatar/b4ae117bd93e10d96298fa4d885208ea?s\u003d80\u0026d\u003didenticon"
    },
    "state": "closed",
    "updatedAt": "Apr 18, 2018 12:18:47 PM",
    "createdAt": "Apr 13, 2018 11:34:44 AM"
  },
  {
    "id": 10289932,
    "iid": 316,
    "projectId": 2724222,
    "title": "[N2] Question sur le log N2",
    "description": "Sur ce log N2 :\n\n![image](/uploads/f06efc45095bc2c9cea645b7d121354b/image.png)\n\n\"Nombre d\u0027activités traités\", est-ce celles avec+sans échantillons, ou seulement celles sans ? (comme on a celles avec juste au dessus)\nEventuellement le préciser, ou bien rajouter une troisième ligne pour avoir au final \"toutes\", \"avec éch\" et \"sans éch\"",
    "labels": [
      "Bas",
      "Calcul - Niveau 2",
      "Evolution",
      "IRD-2017-03"
    ],
    "milestone": {
      "id": 504975,
      "iid": 38,
      "projectId": 2724222,
      "groupId": 0,
      "title": "2.8",
      "description": "",
      "dueDate": "May 4, 2018 2:00:00 AM",
      "startDate": "Apr 10, 2018 2:00:00 AM",
      "state": "closed"
    },
    "assignee": {
      "_id": 166231,
      "_username": "tchemit",
      "_name": "Tony CHEMIT",
      "_state": "active",
      "_darkScheme": false,
      "_isAdmin": false,
      "_canCreateGroup": false,
      "_canCreateProject": false,
      "_canCreateTeam": false,
      "_avatarUrl": "https://secure.gravatar.com/avatar/2a915aa9a1df35c8b609ff2f750d5dac?s\u003d80\u0026d\u003didenticon"
    },
    "author": {
      "_id": 1111318,
      "_username": "pcauquil",
      "_name": "Pascal Cauquil",
      "_state": "active",
      "_darkScheme": false,
      "_isAdmin": false,
      "_canCreateGroup": false,
      "_canCreateProject": false,
      "_canCreateTeam": false,
      "_avatarUrl": "https://secure.gravatar.com/avatar/b4ae117bd93e10d96298fa4d885208ea?s\u003d80\u0026d\u003didenticon"
    },
    "state": "closed",
    "updatedAt": "May 4, 2018 4:55:33 PM",
    "createdAt": "Apr 12, 2018 5:48:09 PM"
  },
  {
    "id": 10279434,
    "iid": 315,
    "projectId": 2724222,
    "title": "[INSTALLEUR] Améliorer le lancement de l\u0027installeur (ne plus éditer un fichier avant le démarrage)",
    "description": "...il ne serait pas idiot de faire passer également le login et son password en paramètre de ligne de commande. Ainsi on n\u0027a plus à éditer le db.properties",
    "labels": [
      "Bas",
      "Evolution",
      "IRD-2017-03"
    ],
    "milestone": {
      "id": 504975,
      "iid": 38,
      "projectId": 2724222,
      "groupId": 0,
      "title": "2.8",
      "description": "",
      "dueDate": "May 4, 2018 2:00:00 AM",
      "startDate": "Apr 10, 2018 2:00:00 AM",
      "state": "closed"
    },
    "assignee": {
      "_id": 166231,
      "_username": "tchemit",
      "_name": "Tony CHEMIT",
      "_state": "active",
      "_darkScheme": false,
      "_isAdmin": false,
      "_canCreateGroup": false,
      "_canCreateProject": false,
      "_canCreateTeam": false,
      "_avatarUrl": "https://secure.gravatar.com/avatar/2a915aa9a1df35c8b609ff2f750d5dac?s\u003d80\u0026d\u003didenticon"
    },
    "author": {
      "_id": 1111318,
      "_username": "pcauquil",
      "_name": "Pascal Cauquil",
      "_state": "active",
      "_darkScheme": false,
      "_isAdmin": false,
      "_canCreateGroup": false,
      "_canCreateProject": false,
      "_canCreateTeam": false,
      "_avatarUrl": "https://secure.gravatar.com/avatar/b4ae117bd93e10d96298fa4d885208ea?s\u003d80\u0026d\u003didenticon"
    },
    "state": "closed",
    "updatedAt": "May 4, 2018 4:55:33 PM",
    "createdAt": "Apr 12, 2018 10:38:39 AM"
  },
  {
    "id": 10342031,
    "iid": 324,
    "projectId": 2724222,
    "title": "Améliorer les temps de traitement du N2",
    "description": "Plusieurs choses peuvent être tentées :\n * faire un commit après chaque strate traitée, car actuellement on ne commite qu\u0027à la fin et du coup, la transaction est peut-être saturée (par contre on flush de temps à autre ça doit quand même aidé)\n * utiliser des tables dénormalisées pour accélerer le requetage (trouver ce qui prend le plus de temps à requeter)\n * paralléliser le traitement : en théorie, on pourrait au moins faire les types de bancs\n\nA rediscuter ensemble.",
    "labels": [
      "Calcul - Niveau 2",
      "Calcul - Niveau 3",
      "Evolution",
      "IRD-2017-03"
    ],
    "milestone": {
      "id": 504975,
      "iid": 38,
      "projectId": 2724222,
      "groupId": 0,
      "title": "2.8",
      "description": "",
      "dueDate": "May 4, 2018 2:00:00 AM",
      "startDate": "Apr 10, 2018 2:00:00 AM",
      "state": "closed"
    },
    "assignee": {
      "_id": 166231,
      "_username": "tchemit",
      "_name": "Tony CHEMIT",
      "_state": "active",
      "_darkScheme": false,
      "_isAdmin": false,
      "_canCreateGroup": false,
      "_canCreateProject": false,
      "_canCreateTeam": false,
      "_avatarUrl": "https://secure.gravatar.com/avatar/2a915aa9a1df35c8b609ff2f750d5dac?s\u003d80\u0026d\u003didenticon"
    },
    "author": {
      "_id": 166231,
      "_username": "tchemit",
      "_name": "Tony CHEMIT",
      "_state": "active",
      "_darkScheme": false,
      "_isAdmin": false,
      "_canCreateGroup": false,
      "_canCreateProject": false,
      "_canCreateTeam": false,
      "_avatarUrl": "https://secure.gravatar.com/avatar/2a915aa9a1df35c8b609ff2f750d5dac?s\u003d80\u0026d\u003didenticon"
    },
    "state": "closed",
    "updatedAt": "Apr 18, 2018 12:44:55 PM",
    "createdAt": "Apr 16, 2018 12:22:31 PM"
  },
  {
    "id": 10339760,
    "iid": 323,
    "projectId": 2724222,
    "title": "Améliorer le log de répartition si une seule catégorie utilisée",
    "description": "Lorsque la catégorie de poids est utilisée dans la strate, on obtient ce genre de log, la seconde partie toute catégorie de poids confondue devient alors superflu.\n\n```\n-----------------------------------------------------------------------------------------\n| Espèce         | Poids - Ratio (tout espèce)       | Poids - Ratio (espèce à corriger)|\n|---------------------------------------------------------------------------------------|\n| Catégorie de poids -10 kg - [0 - 10]                                                  |\n|---------------------------------------------------------------------------------------|\n| YFT - Albacore | 3.3111086       - 12.819121%      | 3.3111086       - 12.819121%     |\n| SKJ - Listao   | 22.48231        - 87.04138%       | 22.48231        - 87.04138%      |\n| BET - Patudo   | 0.036031626     - 0.13949823%     | 0.036031626     - 0.13949825%    |\n| Total          | 25.82945        - 100.0%          | 25.829449       - 100.0%         |\n|---------------------------------------------------------------------------------------|\n| Toute categorie de poid confondue                                                     |\n|---------------------------------------------------------------------------------------|\n| YFT - Albacore | 3.3111086       - 12.819121%      | 3.3111086       - 12.819121%     |\n| SKJ - Listao   | 22.48231        - 87.04138%       | 22.48231        - 87.04138%      |\n| BET - Patudo   | 0.036031626     - 0.13949823%     | 0.036031626     - 0.13949825%    |\n| Total          | 25.82945        - 100.0%          | 25.829449       - 100.0%         |\n-----------------------------------------------------------------------------------------\n```\n\n\nVu la taille des logs, récupérer à chaque activité plusieurs lignes n\u0027est pas négligeable :).\n\n@pcauquil on devrait peut-être supprimer cela dès qu\u0027il n\u0027y a qu\u0027une catégorie de poids (même si on ne stratifie pas sur la catégorie de poids), qu\u0027en penses-tu ?",
    "labels": [
      "Calcul - Niveau 2",
      "Calcul - Niveau 3",
      "Evolution",
      "IRD-2017-03"
    ],
    "milestone": {
      "id": 504975,
      "iid": 38,
      "projectId": 2724222,
      "groupId": 0,
      "title": "2.8",
      "description": "",
      "dueDate": "May 4, 2018 2:00:00 AM",
      "startDate": "Apr 10, 2018 2:00:00 AM",
      "state": "closed"
    },
    "assignee": {
      "_id": 166231,
      "_username": "tchemit",
      "_name": "Tony CHEMIT",
      "_state": "active",
      "_darkScheme": false,
      "_isAdmin": false,
      "_canCreateGroup": false,
      "_canCreateProject": false,
      "_canCreateTeam": false,
      "_avatarUrl": "https://secure.gravatar.com/avatar/2a915aa9a1df35c8b609ff2f750d5dac?s\u003d80\u0026d\u003didenticon"
    },
    "author": {
      "_id": 166231,
      "_username": "tchemit",
      "_name": "Tony CHEMIT",
      "_state": "active",
      "_darkScheme": false,
      "_isAdmin": false,
      "_canCreateGroup": false,
      "_canCreateProject": false,
      "_canCreateTeam": false,
      "_avatarUrl": "https://secure.gravatar.com/avatar/2a915aa9a1df35c8b609ff2f750d5dac?s\u003d80\u0026d\u003didenticon"
    },
    "state": "closed",
    "updatedAt": "Apr 18, 2018 12:16:43 PM",
    "createdAt": "Apr 16, 2018 10:57:27 AM"
  },
  {
    "id": 10310789,
    "iid": 322,
    "projectId": 2724222,
    "title": "[N2] Des espèces accessoires ne sont pas recopiées de catchWeight vers correctedCatchWeight lors d\u0027un N2",
    "description": "Normalement, pour une calée traitée au N2, les espèces sélectionnées doivent être corrigées, et le poids des autres espèces doit être recopié en l\u0027état dans le champ de destination correctecCatchWeight.\n\nCa marche bien dans le cas d\u0027un traitement N2 sans considération des catégories :\n![image](/uploads/10f461bce00f62ad95085a08ad25abd3/image.png)\n\nAprès un traitement N2 considérant les catégories par contre, on remarque beaucoup (la quasi totalité, mais pas la totalité !) des captures accessoires ne sont pas reportées de catchWeight vers correctedCatchWeight :\n\n![image](/uploads/56f0cea9eee7cede2e77b77b783d26d8/image.png)\n\nLa particularité des espèces accessoires est de ne pas être équipées de catégories de poids. Ou plutôt, elles sont en catégorie \"Indéfini\". Et il se trouve qu\u0027on n\u0027a jamais aucun échantillon en catégorie indéfinie. Je ne sais pas si c\u0027est lié. Si ça l\u0027est, ce n\u0027est pas justifié puisque ce sont des espèces qui n\u0027ont pas été sélectionnées pour correction, donc elles devraient être recopiées en l\u0027état, sans lien avec la présence/absence d\u0027échantillons correspondant.\n\nOn note toutefois quelques exceptions !\n![image](/uploads/95aa5714b02c73b65e0e75c6b0e2c5a4/image.png)\n\nPour les diagnostics on peut utiliser ces dumps :\n* traitement avec catégories de poids : https://filesender.renater.fr/?s\u003ddownload\u0026token\u003da28537e3-d6c5-3256-533a-39f7bc4eb85a\n* traitement sans catégories de poids : https://filesender.renater.fr/?s\u003ddownload\u0026token\u003d074b0053-e16e-ed9d-c51d-0c3f86c6aed5\n\nCe sont les mêmes fichiers que ceux déjà postés pour résoudre #320 et #318.\n\nVoici la requête utile pour les diagnostics :\n```\nSELECT \n\tv.code,\n\tv.label1,\n\tvt.label1,\n\tt.landingdate,\n\tr.date,\n\ts.code3l,\n\twct.label1 AS category,\n\tsum(cec.catchweight) AS noncorrected,\n\tsum(cec.correctedcatchweight) AS corrected\n\nFROM \npublic.trip t\nINNER JOIN public.vessel v ON (t.vessel\u003dv.topiaid)\nINNER JOIN public.vesseltype vt ON (v.vesseltype\u003dvt.topiaid)\nINNER JOIN public.route r ON (r.trip\u003dt.topiaid)\nINNER JOIN public.activity a ON (a.route\u003dr.topiaid)\nINNER JOIN public.correctedelementarycatch cec ON (cec.activity\u003da.topiaid)\nINNER JOIN public.species s ON (cec.species\u003ds.topiaid)\nINNER JOIN public.weightcategorytreatment wct ON (cec.weightcategorytreatment\u003dwct.topiaid)\n\nWHERE \n\textract(year from r.date) BETWEEN 2016 AND 2017\n\tAND s.code3l NOT IN (\u0027SKJ\u0027, \u0027ALB\u0027, \u0027BET\u0027, \u0027YFT\u0027)\n\nGROUP BY\n\tv.code,\n\tv.label1,\n\tvt.label1,\n\tt.landingdate,\n\tr.date,\n\ts.code3l,\n\twct.label1\n\nORDER BY \nv.code,\nt.landingdate,\nr.date,\ns.code3l,\nwct.label1\n```\n\nOn a également vérifié avec la requête suivante l\u0027absence d\u0027échantillons pour les espèces RRU et SRX pour lesquelles le poids a malgré tout été recopié dans correctedCatchWeight :\n```\nSELECT \n\tv.code,\n\tv.label1,\n\tvt.label1,\n\tt.landingdate,\n\tr.date,\n\ts.code3l,\n\tcount(ssf.*) AS no_sampled\n\nFROM \npublic.trip t\nINNER JOIN public.vessel v ON (t.vessel\u003dv.topiaid)\nINNER JOIN public.vesseltype vt ON (v.vesseltype\u003dvt.topiaid)\nINNER JOIN public.route r ON (r.trip\u003dt.topiaid)\nINNER JOIN public.activity a ON (a.route\u003dr.topiaid)\nINNER JOIN public.setspeciesfrequency ssf ON (ssf.activity\u003da.topiaid)\nINNER JOIN public.species s ON (ssf.species\u003ds.topiaid)\n\nWHERE \n\textract(year from r.date) BETWEEN 2016 AND 2017\n\tAND s.code3l NOT IN (\u0027SKJ\u0027, \u0027ALB\u0027, \u0027BET\u0027, \u0027YFT\u0027, \u0027FRI\u0027, \u0027LTA\u0027)\n\nGROUP BY\n\tv.code,\n\tv.label1,\n\tvt.label1,\n\tt.landingdate,\n\tr.date,\n\ts.code3l\n\nORDER BY \nv.code,\nt.landingdate,\nr.date,\ns.code3l\n\n\n\n```",
    "labels": [
      "Anomalie",
      "Calcul - Niveau 2",
      "IRD-2017-03"
    ],
    "milestone": {
      "id": 504975,
      "iid": 38,
      "projectId": 2724222,
      "groupId": 0,
      "title": "2.8",
      "description": "",
      "dueDate": "May 4, 2018 2:00:00 AM",
      "startDate": "Apr 10, 2018 2:00:00 AM",
      "state": "closed"
    },
    "assignee": {
      "_id": 166231,
      "_username": "tchemit",
      "_name": "Tony CHEMIT",
      "_state": "active",
      "_darkScheme": false,
      "_isAdmin": false,
      "_canCreateGroup": false,
      "_canCreateProject": false,
      "_canCreateTeam": false,
      "_avatarUrl": "https://secure.gravatar.com/avatar/2a915aa9a1df35c8b609ff2f750d5dac?s\u003d80\u0026d\u003didenticon"
    },
    "author": {
      "_id": 1111318,
      "_username": "pcauquil",
      "_name": "Pascal Cauquil",
      "_state": "active",
      "_darkScheme": false,
      "_isAdmin": false,
      "_canCreateGroup": false,
      "_canCreateProject": false,
      "_canCreateTeam": false,
      "_avatarUrl": "https://secure.gravatar.com/avatar/b4ae117bd93e10d96298fa4d885208ea?s\u003d80\u0026d\u003didenticon"
    },
    "state": "closed",
    "updatedAt": "May 4, 2018 4:55:38 PM",
    "createdAt": "Apr 13, 2018 5:50:33 PM"
  },
  {
    "id": 10310077,
    "iid": 321,
    "projectId": 2724222,
    "title": "[N2] Les données des non senneurs ne sont pas reportés dans correctedCatchWeight",
    "description": "Les données des non senneurs (canneurs par exemple) ne sont pas traitées au N2.\nToutefois il faut qu\u0027elles suivent de correctedElementaryCatch.catchWeight vers correctedElementaryCatch.correctedCatchWeight, et ce n\u0027est pas le cas.\n\n![image](/uploads/0fc6684710b84d06b2fd510cdd626fee/image.png)",
    "labels": [
      "Anomalie",
      "Calcul - Niveau 2",
      "IRD-2017-03"
    ],
    "milestone": {
      "id": 504975,
      "iid": 38,
      "projectId": 2724222,
      "groupId": 0,
      "title": "2.8",
      "description": "",
      "dueDate": "May 4, 2018 2:00:00 AM",
      "startDate": "Apr 10, 2018 2:00:00 AM",
      "state": "closed"
    },
    "assignee": {
      "_id": 166231,
      "_username": "tchemit",
      "_name": "Tony CHEMIT",
      "_state": "active",
      "_darkScheme": false,
      "_isAdmin": false,
      "_canCreateGroup": false,
      "_canCreateProject": false,
      "_canCreateTeam": false,
      "_avatarUrl": "https://secure.gravatar.com/avatar/2a915aa9a1df35c8b609ff2f750d5dac?s\u003d80\u0026d\u003didenticon"
    },
    "author": {
      "_id": 1111318,
      "_username": "pcauquil",
      "_name": "Pascal Cauquil",
      "_state": "active",
      "_darkScheme": false,
      "_isAdmin": false,
      "_canCreateGroup": false,
      "_canCreateProject": false,
      "_canCreateTeam": false,
      "_avatarUrl": "https://secure.gravatar.com/avatar/b4ae117bd93e10d96298fa4d885208ea?s\u003d80\u0026d\u003didenticon"
    },
    "state": "closed",
    "updatedAt": "May 4, 2018 3:10:02 PM",
    "createdAt": "Apr 13, 2018 5:08:15 PM"
  },
  {
    "id": 10299881,
    "iid": 319,
    "projectId": 2724222,
    "title": "[CONNEXION] Traiter l\u0027exception lorsque la base PG accédée n\u0027existe pas",
    "description": "Lorsqu\u0027un profil de connexion pointe vers une base PG qui n\u0027existe pas (mauvais nom fourni par exemple), l\u0027exception suivante s\u0027affiche. On souhaiterait un écran plus explicite, moins inquiétant pour l\u0027utilisateur, du type \"La base de données à laquelle vous tenter d\u0027accéder n\u0027existe pas. Veuillez vérifier son URL.\"\n\n```\norg.hibernate.service.spi.ServiceException: Unable to create requested service [org.hibernate.engine.jdbc.env.spi.JdbcEnvironment]\n\torg.hibernate.service.internal.AbstractServiceRegistryImpl.createService(AbstractServiceRegistryImpl.java:271)\n\torg.hibernate.service.internal.AbstractServiceRegistryImpl.initializeService(AbstractServiceRegistryImpl.java:233)\n\torg.hibernate.service.internal.AbstractServiceRegistryImpl.getService(AbstractServiceRegistryImpl.java:210)\n\torg.hibernate.engine.jdbc.internal.JdbcServicesImpl.configure(JdbcServicesImpl.java:51)\n\torg.hibernate.boot.registry.internal.StandardServiceRegistryImpl.configureService(StandardServiceRegistryImpl.java:94)\n\torg.hibernate.service.internal.AbstractServiceRegistryImpl.initializeService(AbstractServiceRegistryImpl.java:242)\n\torg.hibernate.service.internal.AbstractServiceRegistryImpl.getService(AbstractServiceRegistryImpl.java:210)\n\torg.hibernate.boot.model.process.spi.MetadataBuildingProcess.handleTypes(MetadataBuildingProcess.java:352)\n\torg.hibernate.boot.model.process.spi.MetadataBuildingProcess.complete(MetadataBuildingProcess.java:111)\n\torg.hibernate.boot.model.process.spi.MetadataBuildingProcess.build(MetadataBuildingProcess.java:83)\n\torg.hibernate.boot.internal.MetadataBuilderImpl.build(MetadataBuilderImpl.java:418)\n\torg.hibernate.boot.internal.MetadataBuilderImpl.build(MetadataBuilderImpl.java:87)\n\torg.hibernate.cfg.Configuration.buildSessionFactory(Configuration.java:691)\n\torg.nuiton.topia.persistence.util.TopiaUtil.newSessionFactory(TopiaUtil.java:545)\n\torg.nuiton.topia.persistence.internal.HibernateProvider.newSessionFactory(HibernateProvider.java:382)\n\torg.nuiton.topia.migration.TopiaMigrationEngine.initTopiaService(TopiaMigrationEngine.java:187)\n\torg.nuiton.topia.persistence.internal.support.TopiaServiceSupportImpl.initServices(TopiaServiceSupportImpl.java:127)\n\torg.nuiton.topia.persistence.internal.AbstractTopiaApplicationContext.initServices(AbstractTopiaApplicationContext.java:161)\n\torg.nuiton.topia.persistence.internal.AbstractTopiaApplicationContext.init(AbstractTopiaApplicationContext.java:138)\n\torg.nuiton.topia.persistence.internal.AbstractTopiaApplicationContext.\u003cinit\u003e(AbstractTopiaApplicationContext.java:127)\n\tfr.ird.t3.entities.AbstractT3TopiaApplicationContext.\u003cinit\u003e(AbstractT3TopiaApplicationContext.java:49)\n\tfr.ird.t3.entities.T3TopiaApplicationContext.\u003cinit\u003e(T3TopiaApplicationContext.java:29)\n\tfr.ird.t3.entities.T3TopiaApplicationContextBuilder.build(T3TopiaApplicationContextBuilder.java:198)\n\tfr.ird.t3.web.T3Session.initDatabaseConfiguration(T3Session.java:328)\n\tfr.ird.t3.web.actions.SelectUserInputDatabaseAction.execute(SelectUserInputDatabaseAction.java:86)\n\tsun.reflect.NativeMethodAccessorImpl.invoke0(Native Method)\n\tsun.reflect.NativeMethodAccessorImpl.invoke(Unknown Source)\n\tsun.reflect.DelegatingMethodAccessorImpl.invoke(Unknown Source)\n\tjava.lang.reflect.Method.invoke(Unknown Source)\n\tcom.opensymphony.xwork2.DefaultActionInvocation.invokeAction(DefaultActionInvocation.java:450)\n\tcom.opensymphony.xwork2.DefaultActionInvocation.invokeActionOnly(DefaultActionInvocation.java:289)\n\tcom.opensymphony.xwork2.DefaultActionInvocation.invoke(DefaultActionInvocation.java:252)\n\tcom.opensymphony.xwork2.interceptor.DefaultWorkflowInterceptor.doIntercept(DefaultWorkflowInterceptor.java:176)\n\tcom.opensymphony.xwork2.interceptor.MethodFilterInterceptor.intercept(MethodFilterInterceptor.java:98)\n\tcom.opensymphony.xwork2.DefaultActionInvocation.invoke(DefaultActionInvocation.java:246)\n\tcom.opensymphony.xwork2.validator.ValidationInterceptor.doIntercept(ValidationInterceptor.java:265)\n\torg.apache.struts2.interceptor.validation.AnnotationValidationInterceptor.doIntercept(AnnotationValidationInterceptor.java:68)\n\tcom.opensymphony.xwork2.interceptor.MethodFilterInterceptor.intercept(MethodFilterInterceptor.java:98)\n\tcom.opensymphony.xwork2.DefaultActionInvocation.invoke(DefaultActionInvocation.java:246)\n\tcom.opensymphony.xwork2.interceptor.ConversionErrorInterceptor.intercept(ConversionErrorInterceptor.java:138)\n\tcom.opensymphony.xwork2.DefaultActionInvocation.invoke(DefaultActionInvocation.java:246)\n\tcom.opensymphony.xwork2.interceptor.ParametersInterceptor.doIntercept(ParametersInterceptor.java:249)\n\tcom.opensymphony.xwork2.interceptor.MethodFilterInterceptor.intercept(MethodFilterInterceptor.java:98)\n\tcom.opensymphony.xwork2.DefaultActionInvocation.invoke(DefaultActionInvocation.java:246)\n\tcom.opensymphony.xwork2.interceptor.ParametersInterceptor.doIntercept(ParametersInterceptor.java:249)\n\tcom.opensymphony.xwork2.interceptor.MethodFilterInterceptor.intercept(MethodFilterInterceptor.java:98)\n\tcom.opensymphony.xwork2.DefaultActionInvocation.invoke(DefaultActionInvocation.java:246)\n\tcom.opensymphony.xwork2.interceptor.StaticParametersInterceptor.intercept(StaticParametersInterceptor.java:191)\n\tcom.opensymphony.xwork2.DefaultActionInvocation.invoke(DefaultActionInvocation.java:246)\n\torg.apache.struts2.interceptor.FileUploadInterceptor.intercept(FileUploadInterceptor.java:252)\n\tcom.opensymphony.xwork2.DefaultActionInvocation.invoke(DefaultActionInvocation.java:246)\n\tcom.opensymphony.xwork2.interceptor.ModelDrivenInterceptor.intercept(ModelDrivenInterceptor.java:100)\n\tcom.opensymphony.xwork2.DefaultActionInvocation.invoke(DefaultActionInvocation.java:246)\n\tcom.opensymphony.xwork2.interceptor.ChainingInterceptor.intercept(ChainingInterceptor.java:145)\n\tcom.opensymphony.xwork2.DefaultActionInvocation.invoke(DefaultActionInvocation.java:246)\n\tcom.opensymphony.xwork2.interceptor.PrepareInterceptor.doIntercept(PrepareInterceptor.java:171)\n\tcom.opensymphony.xwork2.interceptor.MethodFilterInterceptor.intercept(MethodFilterInterceptor.java:98)\n\tcom.opensymphony.xwork2.DefaultActionInvocation.invoke(DefaultActionInvocation.java:246)\n\torg.apache.struts2.interceptor.ServletConfigInterceptor.intercept(ServletConfigInterceptor.java:164)\n\tcom.opensymphony.xwork2.DefaultActionInvocation.invoke(DefaultActionInvocation.java:246)\n\tcom.opensymphony.xwork2.interceptor.ParametersInterceptor.doIntercept(ParametersInterceptor.java:249)\n\tcom.opensymphony.xwork2.interceptor.MethodFilterInterceptor.intercept(MethodFilterInterceptor.java:98)\n\tcom.opensymphony.xwork2.DefaultActionInvocation.invoke(DefaultActionInvocation.java:246)\n\torg.apache.struts2.interceptor.MultiselectInterceptor.intercept(MultiselectInterceptor.java:73)\n\tcom.opensymphony.xwork2.DefaultActionInvocation.invoke(DefaultActionInvocation.java:246)\n\torg.apache.struts2.interceptor.CheckboxInterceptor.intercept(CheckboxInterceptor.java:91)\n\tcom.opensymphony.xwork2.DefaultActionInvocation.invoke(DefaultActionInvocation.java:246)\n\tcom.opensymphony.xwork2.interceptor.I18nInterceptor.intercept(I18nInterceptor.java:176)\n\tcom.opensymphony.xwork2.DefaultActionInvocation.invoke(DefaultActionInvocation.java:246)\n\tcom.opensymphony.xwork2.interceptor.AliasInterceptor.intercept(AliasInterceptor.java:193)\n\tcom.opensymphony.xwork2.DefaultActionInvocation.invoke(DefaultActionInvocation.java:246)\n\tcom.opensymphony.xwork2.interceptor.ExceptionMappingInterceptor.intercept(ExceptionMappingInterceptor.java:187)\n\tcom.opensymphony.xwork2.DefaultActionInvocation.invoke(DefaultActionInvocation.java:246)\n\tfr.ird.t3.web.interceptors.AbstractCheckInterceptor.intercept(AbstractCheckInterceptor.java:71)\n\tcom.opensymphony.xwork2.DefaultActionInvocation.invoke(DefaultActionInvocation.java:246)\n\tcom.opensymphony.xwork2.interceptor.I18nInterceptor.intercept(I18nInterceptor.java:176)\n\tcom.opensymphony.xwork2.DefaultActionInvocation.invoke(DefaultActionInvocation.java:246)\n\torg.apache.struts2.impl.StrutsActionProxy.execute(StrutsActionProxy.java:54)\n\torg.apache.struts2.dispatcher.Dispatcher.serviceAction(Dispatcher.java:546)\n\torg.apache.struts2.dispatcher.ng.ExecuteOperations.executeAction(ExecuteOperations.java:77)\n\torg.apache.struts2.dispatcher.ng.filter.StrutsExecuteFilter.doFilter(StrutsExecuteFilter.java:88)\n\tcom.opensymphony.sitemesh.webapp.SiteMeshFilter.obtainContent(SiteMeshFilter.java:129)\n\tcom.opensymphony.sitemesh.webapp.SiteMeshFilter.doFilter(SiteMeshFilter.java:77)\n\torg.apache.struts2.dispatcher.ng.filter.StrutsPrepareFilter.doFilter(StrutsPrepareFilter.java:82)\n\tfr.ird.t3.web.listeners.TopiaTransactionFilter.doFilter(TopiaTransactionFilter.java:79)\n\ncause mère\n\norg.hibernate.HibernateException: com.zaxxer.hikari.pool.HikariPool$PoolInitializationException: Failed to initialize pool: FATAL: la base de données « t3_27_02 » n\u0027existe pas (pgjdbc: autodetected server-encoding to be ISO-8859-1, if the message is not readable, please check database logs and/or host, port, dbname, user, password, pg_hba.conf)\n\torg.hibernate.hikaricp.internal.HikariCPConnectionProvider.configure(HikariCPConnectionProvider.java:63)\n\torg.hibernate.boot.registry.internal.StandardServiceRegistryImpl.configureService(StandardServiceRegistryImpl.java:94)\n\torg.hibernate.service.internal.AbstractServiceRegistryImpl.initializeService(AbstractServiceRegistryImpl.java:242)\n\torg.hibernate.service.internal.AbstractServiceRegistryImpl.getService(AbstractServiceRegistryImpl.java:210)\n\torg.hibernate.engine.jdbc.env.internal.JdbcEnvironmentInitiator.buildJdbcConnectionAccess(JdbcEnvironmentInitiator.java:145)\n\torg.hibernate.engine.jdbc.env.internal.JdbcEnvironmentInitiator.initiateService(JdbcEnvironmentInitiator.java:66)\n\torg.hibernate.engine.jdbc.env.internal.JdbcEnvironmentInitiator.initiateService(JdbcEnvironmentInitiator.java:35)\n\torg.hibernate.boot.registry.internal.StandardServiceRegistryImpl.initiateService(StandardServiceRegistryImpl.java:88)\n\torg.hibernate.service.internal.AbstractServiceRegistryImpl.createService(AbstractServiceRegistryImpl.java:259)\n\torg.hibernate.service.internal.AbstractServiceRegistryImpl.initializeService(AbstractServiceRegistryImpl.java:233)\n\torg.hibernate.service.internal.AbstractServiceRegistryImpl.getService(AbstractServiceRegistryImpl.java:210)\n\torg.hibernate.engine.jdbc.internal.JdbcServicesImpl.configure(JdbcServicesImpl.java:51)\n\torg.hibernate.boot.registry.internal.StandardServiceRegistryImpl.configureService(StandardServiceRegistryImpl.java:94)\n\torg.hibernate.service.internal.AbstractServiceRegistryImpl.initializeService(AbstractServiceRegistryImpl.java:242)\n\torg.hibernate.service.internal.AbstractServiceRegistryImpl.getService(AbstractServiceRegistryImpl.java:210)\n\torg.hibernate.boot.model.process.spi.MetadataBuildingProcess.handleTypes(MetadataBuildingProcess.java:352)\n\torg.hibernate.boot.model.process.spi.MetadataBuildingProcess.complete(MetadataBuildingProcess.java:111)\n\torg.hibernate.boot.model.process.spi.MetadataBuildingProcess.build(MetadataBuildingProcess.java:83)\n\torg.hibernate.boot.internal.MetadataBuilderImpl.build(MetadataBuilderImpl.java:418)\n\torg.hibernate.boot.internal.MetadataBuilderImpl.build(MetadataBuilderImpl.java:87)\n\torg.hibernate.cfg.Configuration.buildSessionFactory(Configuration.java:691)\n\torg.nuiton.topia.persistence.util.TopiaUtil.newSessionFactory(TopiaUtil.java:545)\n\torg.nuiton.topia.persistence.internal.HibernateProvider.newSessionFactory(HibernateProvider.java:382)\n\torg.nuiton.topia.migration.TopiaMigrationEngine.initTopiaService(TopiaMigrationEngine.java:187)\n\torg.nuiton.topia.persistence.internal.support.TopiaServiceSupportImpl.initServices(TopiaServiceSupportImpl.java:127)\n\torg.nuiton.topia.persistence.internal.AbstractTopiaApplicationContext.initServices(AbstractTopiaApplicationContext.java:161)\n\torg.nuiton.topia.persistence.internal.AbstractTopiaApplicationContext.init(AbstractTopiaApplicationContext.java:138)\n\torg.nuiton.topia.persistence.internal.AbstractTopiaApplicationContext.\u003cinit\u003e(AbstractTopiaApplicationContext.java:127)\n\tfr.ird.t3.entities.AbstractT3TopiaApplicationContext.\u003cinit\u003e(AbstractT3TopiaApplicationContext.java:49)\n\tfr.ird.t3.entities.T3TopiaApplicationContext.\u003cinit\u003e(T3TopiaApplicationContext.java:29)\n\tfr.ird.t3.entities.T3TopiaApplicationContextBuilder.build(T3TopiaApplicationContextBuilder.java:198)\n\tfr.ird.t3.web.T3Session.initDatabaseConfiguration(T3Session.java:328)\n\tfr.ird.t3.web.actions.SelectUserInputDatabaseAction.execute(SelectUserInputDatabaseAction.java:86)\n\tsun.reflect.NativeMethodAccessorImpl.invoke0(Native Method)\n\tsun.reflect.NativeMethodAccessorImpl.invoke(Unknown Source)\n\tsun.reflect.DelegatingMethodAccessorImpl.invoke(Unknown Source)\n\tjava.lang.reflect.Method.invoke(Unknown Source)\n\tcom.opensymphony.xwork2.DefaultActionInvocation.invokeAction(DefaultActionInvocation.java:450)\n\tcom.opensymphony.xwork2.DefaultActionInvocation.invokeActionOnly(DefaultActionInvocation.java:289)\n\tcom.opensymphony.xwork2.DefaultActionInvocation.invoke(DefaultActionInvocation.java:252)\n\tcom.opensymphony.xwork2.interceptor.DefaultWorkflowInterceptor.doIntercept(DefaultWorkflowInterceptor.java:176)\n\tcom.opensymphony.xwork2.interceptor.MethodFilterInterceptor.intercept(MethodFilterInterceptor.java:98)\n\tcom.opensymphony.xwork2.DefaultActionInvocation.invoke(DefaultActionInvocation.java:246)\n\tcom.opensymphony.xwork2.validator.ValidationInterceptor.doIntercept(ValidationInterceptor.java:265)\n\torg.apache.struts2.interceptor.validation.AnnotationValidationInterceptor.doIntercept(AnnotationValidationInterceptor.java:68)\n\tcom.opensymphony.xwork2.interceptor.MethodFilterInterceptor.intercept(MethodFilterInterceptor.java:98)\n\tcom.opensymphony.xwork2.DefaultActionInvocation.invoke(DefaultActionInvocation.java:246)\n\tcom.opensymphony.xwork2.interceptor.ConversionErrorInterceptor.intercept(ConversionErrorInterceptor.java:138)\n\tcom.opensymphony.xwork2.DefaultActionInvocation.invoke(DefaultActionInvocation.java:246)\n\tcom.opensymphony.xwork2.interceptor.ParametersInterceptor.doIntercept(ParametersInterceptor.java:249)\n\tcom.opensymphony.xwork2.interceptor.MethodFilterInterceptor.intercept(MethodFilterInterceptor.java:98)\n\tcom.opensymphony.xwork2.DefaultActionInvocation.invoke(DefaultActionInvocation.java:246)\n\tcom.opensymphony.xwork2.interceptor.ParametersInterceptor.doIntercept(ParametersInterceptor.java:249)\n\tcom.opensymphony.xwork2.interceptor.MethodFilterInterceptor.intercept(MethodFilterInterceptor.java:98)\n\tcom.opensymphony.xwork2.DefaultActionInvocation.invoke(DefaultActionInvocation.java:246)\n\tcom.opensymphony.xwork2.interceptor.StaticParametersInterceptor.intercept(StaticParametersInterceptor.java:191)\n\tcom.opensymphony.xwork2.DefaultActionInvocation.invoke(DefaultActionInvocation.java:246)\n\torg.apache.struts2.interceptor.FileUploadInterceptor.intercept(FileUploadInterceptor.java:252)\n\tcom.opensymphony.xwork2.DefaultActionInvocation.invoke(DefaultActionInvocation.java:246)\n\tcom.opensymphony.xwork2.interceptor.ModelDrivenInterceptor.intercept(ModelDrivenInterceptor.java:100)\n\tcom.opensymphony.xwork2.DefaultActionInvocation.invoke(DefaultActionInvocation.java:246)\n\tcom.opensymphony.xwork2.interceptor.ChainingInterceptor.intercept(ChainingInterceptor.java:145)\n\tcom.opensymphony.xwork2.DefaultActionInvocation.invoke(DefaultActionInvocation.java:246)\n\tcom.opensymphony.xwork2.interceptor.PrepareInterceptor.doIntercept(PrepareInterceptor.java:171)\n\tcom.opensymphony.xwork2.interceptor.MethodFilterInterceptor.intercept(MethodFilterInterceptor.java:98)\n\tcom.opensymphony.xwork2.DefaultActionInvocation.invoke(DefaultActionInvocation.java:246)\n\torg.apache.struts2.interceptor.ServletConfigInterceptor.intercept(ServletConfigInterceptor.java:164)\n\tcom.opensymphony.xwork2.DefaultActionInvocation.invoke(DefaultActionInvocation.java:246)\n\tcom.opensymphony.xwork2.interceptor.ParametersInterceptor.doIntercept(ParametersInterceptor.java:249)\n\tcom.opensymphony.xwork2.interceptor.MethodFilterInterceptor.intercept(MethodFilterInterceptor.java:98)\n\tcom.opensymphony.xwork2.DefaultActionInvocation.invoke(DefaultActionInvocation.java:246)\n\torg.apache.struts2.interceptor.MultiselectInterceptor.intercept(MultiselectInterceptor.java:73)\n\tcom.opensymphony.xwork2.DefaultActionInvocation.invoke(DefaultActionInvocation.java:246)\n\torg.apache.struts2.interceptor.CheckboxInterceptor.intercept(CheckboxInterceptor.java:91)\n\tcom.opensymphony.xwork2.DefaultActionInvocation.invoke(DefaultActionInvocation.java:246)\n\tcom.opensymphony.xwork2.interceptor.I18nInterceptor.intercept(I18nInterceptor.java:176)\n\tcom.opensymphony.xwork2.DefaultActionInvocation.invoke(DefaultActionInvocation.java:246)\n\tcom.opensymphony.xwork2.interceptor.AliasInterceptor.intercept(AliasInterceptor.java:193)\n\tcom.opensymphony.xwork2.DefaultActionInvocation.invoke(DefaultActionInvocation.java:246)\n\tcom.opensymphony.xwork2.interceptor.ExceptionMappingInterceptor.intercept(ExceptionMappingInterceptor.java:187)\n\tcom.opensymphony.xwork2.DefaultActionInvocation.invoke(DefaultActionInvocation.java:246)\n\tfr.ird.t3.web.interceptors.AbstractCheckInterceptor.intercept(AbstractCheckInterceptor.java:71)\n\tcom.opensymphony.xwork2.DefaultActionInvocation.invoke(DefaultActionInvocation.java:246)\n\tcom.opensymphony.xwork2.interceptor.I18nInterceptor.intercept(I18nInterceptor.java:176)\n\tcom.opensymphony.xwork2.DefaultActionInvocation.invoke(DefaultActionInvocation.java:246)\n\torg.apache.struts2.impl.StrutsActionProxy.execute(StrutsActionProxy.java:54)\n\torg.apache.struts2.dispatcher.Dispatcher.serviceAction(Dispatcher.java:546)\n\torg.apache.struts2.dispatcher.ng.ExecuteOperations.executeAction(ExecuteOperations.java:77)\n\torg.apache.struts2.dispatcher.ng.filter.StrutsExecuteFilter.doFilter(StrutsExecuteFilter.java:88)\n\tcom.opensymphony.sitemesh.webapp.SiteMeshFilter.obtainContent(SiteMeshFilter.java:129)\n\tcom.opensymphony.sitemesh.webapp.SiteMeshFilter.doFilter(SiteMeshFilter.java:77)\n\torg.apache.struts2.dispatcher.ng.filter.StrutsPrepareFilter.doFilter(StrutsPrepareFilter.java:82)\n\tfr.ird.t3.web.listeners.TopiaTransactionFilter.doFilter(TopiaTransactionFilter.java:79)\n\ncause mère\n\ncom.zaxxer.hikari.pool.HikariPool$PoolInitializationException: Failed to initialize pool: FATAL: la base de données « t3_27_02 » n\u0027existe pas (pgjdbc: autodetected server-encoding to be ISO-8859-1, if the message is not readable, please check database logs and/or host, port, dbname, user, password, pg_hba.conf)\n\tcom.zaxxer.hikari.pool.HikariPool.throwPoolInitializationException(HikariPool.java:569)\n\tcom.zaxxer.hikari.pool.HikariPool.checkFailFast(HikariPool.java:555)\n\tcom.zaxxer.hikari.pool.HikariPool.\u003cinit\u003e(HikariPool.java:115)\n\tcom.zaxxer.hikari.HikariDataSource.\u003cinit\u003e(HikariDataSource.java:81)\n\torg.hibernate.hikaricp.internal.HikariCPConnectionProvider.configure(HikariCPConnectionProvider.java:59)\n\torg.hibernate.boot.registry.internal.StandardServiceRegistryImpl.configureService(StandardServiceRegistryImpl.java:94)\n\torg.hibernate.service.internal.AbstractServiceRegistryImpl.initializeService(AbstractServiceRegistryImpl.java:242)\n\torg.hibernate.service.internal.AbstractServiceRegistryImpl.getService(AbstractServiceRegistryImpl.java:210)\n\torg.hibernate.engine.jdbc.env.internal.JdbcEnvironmentInitiator.buildJdbcConnectionAccess(JdbcEnvironmentInitiator.java:145)\n\torg.hibernate.engine.jdbc.env.internal.JdbcEnvironmentInitiator.initiateService(JdbcEnvironmentInitiator.java:66)\n\torg.hibernate.engine.jdbc.env.internal.JdbcEnvironmentInitiator.initiateService(JdbcEnvironmentInitiator.java:35)\n\torg.hibernate.boot.registry.internal.StandardServiceRegistryImpl.initiateService(StandardServiceRegistryImpl.java:88)\n\torg.hibernate.service.internal.AbstractServiceRegistryImpl.createService(AbstractServiceRegistryImpl.java:259)\n\torg.hibernate.service.internal.AbstractServiceRegistryImpl.initializeService(AbstractServiceRegistryImpl.java:233)\n\torg.hibernate.service.internal.AbstractServiceRegistryImpl.getService(AbstractServiceRegistryImpl.java:210)\n\torg.hibernate.engine.jdbc.internal.JdbcServicesImpl.configure(JdbcServicesImpl.java:51)\n\torg.hibernate.boot.registry.internal.StandardServiceRegistryImpl.configureService(StandardServiceRegistryImpl.java:94)\n\torg.hibernate.service.internal.AbstractServiceRegistryImpl.initializeService(AbstractServiceRegistryImpl.java:242)\n\torg.hibernate.service.internal.AbstractServiceRegistryImpl.getService(AbstractServiceRegistryImpl.java:210)\n\torg.hibernate.boot.model.process.spi.MetadataBuildingProcess.handleTypes(MetadataBuildingProcess.java:352)\n\torg.hibernate.boot.model.process.spi.MetadataBuildingProcess.complete(MetadataBuildingProcess.java:111)\n\torg.hibernate.boot.model.process.spi.MetadataBuildingProcess.build(MetadataBuildingProcess.java:83)\n\torg.hibernate.boot.internal.MetadataBuilderImpl.build(MetadataBuilderImpl.java:418)\n\torg.hibernate.boot.internal.MetadataBuilderImpl.build(MetadataBuilderImpl.java:87)\n\torg.hibernate.cfg.Configuration.buildSessionFactory(Configuration.java:691)\n\torg.nuiton.topia.persistence.util.TopiaUtil.newSessionFactory(TopiaUtil.java:545)\n\torg.nuiton.topia.persistence.internal.HibernateProvider.newSessionFactory(HibernateProvider.java:382)\n\torg.nuiton.topia.migration.TopiaMigrationEngine.initTopiaService(TopiaMigrationEngine.java:187)\n\torg.nuiton.topia.persistence.internal.support.TopiaServiceSupportImpl.initServices(TopiaServiceSupportImpl.java:127)\n\torg.nuiton.topia.persistence.internal.AbstractTopiaApplicationContext.initServices(AbstractTopiaApplicationContext.java:161)\n\torg.nuiton.topia.persistence.internal.AbstractTopiaApplicationContext.init(AbstractTopiaApplicationContext.java:138)\n\torg.nuiton.topia.persistence.internal.AbstractTopiaApplicationContext.\u003cinit\u003e(AbstractTopiaApplicationContext.java:127)\n\tfr.ird.t3.entities.AbstractT3TopiaApplicationContext.\u003cinit\u003e(AbstractT3TopiaApplicationContext.java:49)\n\tfr.ird.t3.entities.T3TopiaApplicationContext.\u003cinit\u003e(T3TopiaApplicationContext.java:29)\n\tfr.ird.t3.entities.T3TopiaApplicationContextBuilder.build(T3TopiaApplicationContextBuilder.java:198)\n\tfr.ird.t3.web.T3Session.initDatabaseConfiguration(T3Session.java:328)\n\tfr.ird.t3.web.actions.SelectUserInputDatabaseAction.execute(SelectUserInputDatabaseAction.java:86)\n\tsun.reflect.NativeMethodAccessorImpl.invoke0(Native Method)\n\tsun.reflect.NativeMethodAccessorImpl.invoke(Unknown Source)\n\tsun.reflect.DelegatingMethodAccessorImpl.invoke(Unknown Source)\n\tjava.lang.reflect.Method.invoke(Unknown Source)\n\tcom.opensymphony.xwork2.DefaultActionInvocation.invokeAction(DefaultActionInvocation.java:450)\n\tcom.opensymphony.xwork2.DefaultActionInvocation.invokeActionOnly(DefaultActionInvocation.java:289)\n\tcom.opensymphony.xwork2.DefaultActionInvocation.invoke(DefaultActionInvocation.java:252)\n\tcom.opensymphony.xwork2.interceptor.DefaultWorkflowInterceptor.doIntercept(DefaultWorkflowInterceptor.java:176)\n\tcom.opensymphony.xwork2.interceptor.MethodFilterInterceptor.intercept(MethodFilterInterceptor.java:98)\n\tcom.opensymphony.xwork2.DefaultActionInvocation.invoke(DefaultActionInvocation.java:246)\n\tcom.opensymphony.xwork2.validator.ValidationInterceptor.doIntercept(ValidationInterceptor.java:265)\n\torg.apache.struts2.interceptor.validation.AnnotationValidationInterceptor.doIntercept(AnnotationValidationInterceptor.java:68)\n\tcom.opensymphony.xwork2.interceptor.MethodFilterInterceptor.intercept(MethodFilterInterceptor.java:98)\n\tcom.opensymphony.xwork2.DefaultActionInvocation.invoke(DefaultActionInvocation.java:246)\n\tcom.opensymphony.xwork2.interceptor.ConversionErrorInterceptor.intercept(ConversionErrorInterceptor.java:138)\n\tcom.opensymphony.xwork2.DefaultActionInvocation.invoke(DefaultActionInvocation.java:246)\n\tcom.opensymphony.xwork2.interceptor.ParametersInterceptor.doIntercept(ParametersInterceptor.java:249)\n\tcom.opensymphony.xwork2.interceptor.MethodFilterInterceptor.intercept(MethodFilterInterceptor.java:98)\n\tcom.opensymphony.xwork2.DefaultActionInvocation.invoke(DefaultActionInvocation.java:246)\n\tcom.opensymphony.xwork2.interceptor.ParametersInterceptor.doIntercept(ParametersInterceptor.java:249)\n\tcom.opensymphony.xwork2.interceptor.MethodFilterInterceptor.intercept(MethodFilterInterceptor.java:98)\n\tcom.opensymphony.xwork2.DefaultActionInvocation.invoke(DefaultActionInvocation.java:246)\n\tcom.opensymphony.xwork2.interceptor.StaticParametersInterceptor.intercept(StaticParametersInterceptor.java:191)\n\tcom.opensymphony.xwork2.DefaultActionInvocation.invoke(DefaultActionInvocation.java:246)\n\torg.apache.struts2.interceptor.FileUploadInterceptor.intercept(FileUploadInterceptor.java:252)\n\tcom.opensymphony.xwork2.DefaultActionInvocation.invoke(DefaultActionInvocation.java:246)\n\tcom.opensymphony.xwork2.interceptor.ModelDrivenInterceptor.intercept(ModelDrivenInterceptor.java:100)\n\tcom.opensymphony.xwork2.DefaultActionInvocation.invoke(DefaultActionInvocation.java:246)\n\tcom.opensymphony.xwork2.interceptor.ChainingInterceptor.intercept(ChainingInterceptor.java:145)\n\tcom.opensymphony.xwork2.DefaultActionInvocation.invoke(DefaultActionInvocation.java:246)\n\tcom.opensymphony.xwork2.interceptor.PrepareInterceptor.doIntercept(PrepareInterceptor.java:171)\n\tcom.opensymphony.xwork2.interceptor.MethodFilterInterceptor.intercept(MethodFilterInterceptor.java:98)\n\tcom.opensymphony.xwork2.DefaultActionInvocation.invoke(DefaultActionInvocation.java:246)\n\torg.apache.struts2.interceptor.ServletConfigInterceptor.intercept(ServletConfigInterceptor.java:164)\n\tcom.opensymphony.xwork2.DefaultActionInvocation.invoke(DefaultActionInvocation.java:246)\n\tcom.opensymphony.xwork2.interceptor.ParametersInterceptor.doIntercept(ParametersInterceptor.java:249)\n\tcom.opensymphony.xwork2.interceptor.MethodFilterInterceptor.intercept(MethodFilterInterceptor.java:98)\n\tcom.opensymphony.xwork2.DefaultActionInvocation.invoke(DefaultActionInvocation.java:246)\n\torg.apache.struts2.interceptor.MultiselectInterceptor.intercept(MultiselectInterceptor.java:73)\n\tcom.opensymphony.xwork2.DefaultActionInvocation.invoke(DefaultActionInvocation.java:246)\n\torg.apache.struts2.interceptor.CheckboxInterceptor.intercept(CheckboxInterceptor.java:91)\n\tcom.opensymphony.xwork2.DefaultActionInvocation.invoke(DefaultActionInvocation.java:246)\n\tcom.opensymphony.xwork2.interceptor.I18nInterceptor.intercept(I18nInterceptor.java:176)\n\tcom.opensymphony.xwork2.DefaultActionInvocation.invoke(DefaultActionInvocation.java:246)\n\tcom.opensymphony.xwork2.interceptor.AliasInterceptor.intercept(AliasInterceptor.java:193)\n\tcom.opensymphony.xwork2.DefaultActionInvocation.invoke(DefaultActionInvocation.java:246)\n\tcom.opensymphony.xwork2.interceptor.ExceptionMappingInterceptor.intercept(ExceptionMappingInterceptor.java:187)\n\tcom.opensymphony.xwork2.DefaultActionInvocation.invoke(DefaultActionInvocation.java:246)\n\tfr.ird.t3.web.interceptors.AbstractCheckInterceptor.intercept(AbstractCheckInterceptor.java:71)\n\tcom.opensymphony.xwork2.DefaultActionInvocation.invoke(DefaultActionInvocation.java:246)\n\tcom.opensymphony.xwork2.interceptor.I18nInterceptor.intercept(I18nInterceptor.java:176)\n\tcom.opensymphony.xwork2.DefaultActionInvocation.invoke(DefaultActionInvocation.java:246)\n\torg.apache.struts2.impl.StrutsActionProxy.execute(StrutsActionProxy.java:54)\n\torg.apache.struts2.dispatcher.Dispatcher.serviceAction(Dispatcher.java:546)\n\torg.apache.struts2.dispatcher.ng.ExecuteOperations.executeAction(ExecuteOperations.java:77)\n\torg.apache.struts2.dispatcher.ng.filter.StrutsExecuteFilter.doFilter(StrutsExecuteFilter.java:88)\n\tcom.opensymphony.sitemesh.webapp.SiteMeshFilter.obtainContent(SiteMeshFilter.java:129)\n\tcom.opensymphony.sitemesh.webapp.SiteMeshFilter.doFilter(SiteMeshFilter.java:77)\n\torg.apache.struts2.dispatcher.ng.filter.StrutsPrepareFilter.doFilter(StrutsPrepareFilter.java:82)\n\tfr.ird.t3.web.listeners.TopiaTransactionFilter.doFilter(TopiaTransactionFilter.java:79)\n\ncause mère\n\norg.postgresql.util.PSQLException: FATAL: la base de données « t3_27_02 » n\u0027existe pas (pgjdbc: autodetected server-encoding to be ISO-8859-1, if the message is not readable, please check database logs and/or host, port, dbname, user, password, pg_hba.conf)\n\torg.postgresql.core.v3.QueryExecutorImpl.receiveErrorResponse(QueryExecutorImpl.java:2433)\n\torg.postgresql.core.v3.QueryExecutorImpl.readStartupMessages(QueryExecutorImpl.java:2566)\n\torg.postgresql.core.v3.QueryExecutorImpl.\u003cinit\u003e(QueryExecutorImpl.java:131)\n\torg.postgresql.core.v3.ConnectionFactoryImpl.openConnectionImpl(ConnectionFactoryImpl.java:210)\n\torg.postgresql.core.ConnectionFactory.openConnection(ConnectionFactory.java:49)\n\torg.postgresql.jdbc.PgConnection.\u003cinit\u003e(PgConnection.java:195)\n\torg.postgresql.Driver.makeConnection(Driver.java:452)\n\torg.postgresql.Driver.connect(Driver.java:254)\n\tcom.zaxxer.hikari.util.DriverDataSource.getConnection(DriverDataSource.java:117)\n\tcom.zaxxer.hikari.util.DriverDataSource.getConnection(DriverDataSource.java:123)\n\tcom.zaxxer.hikari.pool.PoolBase.newConnection(PoolBase.java:365)\n\tcom.zaxxer.hikari.pool.PoolBase.newPoolEntry(PoolBase.java:194)\n\tcom.zaxxer.hikari.pool.HikariPool.createPoolEntry(HikariPool.java:460)\n\tcom.zaxxer.hikari.pool.HikariPool.checkFailFast(HikariPool.java:534)\n\tcom.zaxxer.hikari.pool.HikariPool.\u003cinit\u003e(HikariPool.java:115)\n\tcom.zaxxer.hikari.HikariDataSource.\u003cinit\u003e(HikariDataSource.java:81)\n\torg.hibernate.hikaricp.internal.HikariCPConnectionProvider.configure(HikariCPConnectionProvider.java:59)\n\torg.hibernate.boot.registry.internal.StandardServiceRegistryImpl.configureService(StandardServiceRegistryImpl.java:94)\n\torg.hibernate.service.internal.AbstractServiceRegistryImpl.initializeService(AbstractServiceRegistryImpl.java:242)\n\torg.hibernate.service.internal.AbstractServiceRegistryImpl.getService(AbstractServiceRegistryImpl.java:210)\n\torg.hibernate.engine.jdbc.env.internal.JdbcEnvironmentInitiator.buildJdbcConnectionAccess(JdbcEnvironmentInitiator.java:145)\n\torg.hibernate.engine.jdbc.env.internal.JdbcEnvironmentInitiator.initiateService(JdbcEnvironmentInitiator.java:66)\n\torg.hibernate.engine.jdbc.env.internal.JdbcEnvironmentInitiator.initiateService(JdbcEnvironmentInitiator.java:35)\n\torg.hibernate.boot.registry.internal.StandardServiceRegistryImpl.initiateService(StandardServiceRegistryImpl.java:88)\n\torg.hibernate.service.internal.AbstractServiceRegistryImpl.createService(AbstractServiceRegistryImpl.java:259)\n\torg.hibernate.service.internal.AbstractServiceRegistryImpl.initializeService(AbstractServiceRegistryImpl.java:233)\n\torg.hibernate.service.internal.AbstractServiceRegistryImpl.getService(AbstractServiceRegistryImpl.java:210)\n\torg.hibernate.engine.jdbc.internal.JdbcServicesImpl.configure(JdbcServicesImpl.java:51)\n\torg.hibernate.boot.registry.internal.StandardServiceRegistryImpl.configureService(StandardServiceRegistryImpl.java:94)\n\torg.hibernate.service.internal.AbstractServiceRegistryImpl.initializeService(AbstractServiceRegistryImpl.java:242)\n\torg.hibernate.service.internal.AbstractServiceRegistryImpl.getService(AbstractServiceRegistryImpl.java:210)\n\torg.hibernate.boot.model.process.spi.MetadataBuildingProcess.handleTypes(MetadataBuildingProcess.java:352)\n\torg.hibernate.boot.model.process.spi.MetadataBuildingProcess.complete(MetadataBuildingProcess.java:111)\n\torg.hibernate.boot.model.process.spi.MetadataBuildingProcess.build(MetadataBuildingProcess.java:83)\n\torg.hibernate.boot.internal.MetadataBuilderImpl.build(MetadataBuilderImpl.java:418)\n\torg.hibernate.boot.internal.MetadataBuilderImpl.build(MetadataBuilderImpl.java:87)\n\torg.hibernate.cfg.Configuration.buildSessionFactory(Configuration.java:691)\n\torg.nuiton.topia.persistence.util.TopiaUtil.newSessionFactory(TopiaUtil.java:545)\n\torg.nuiton.topia.persistence.internal.HibernateProvider.newSessionFactory(HibernateProvider.java:382)\n\torg.nuiton.topia.migration.TopiaMigrationEngine.initTopiaService(TopiaMigrationEngine.java:187)\n\torg.nuiton.topia.persistence.internal.support.TopiaServiceSupportImpl.initServices(TopiaServiceSupportImpl.java:127)\n\torg.nuiton.topia.persistence.internal.AbstractTopiaApplicationContext.initServices(AbstractTopiaApplicationContext.java:161)\n\torg.nuiton.topia.persistence.internal.AbstractTopiaApplicationContext.init(AbstractTopiaApplicationContext.java:138)\n\torg.nuiton.topia.persistence.internal.AbstractTopiaApplicationContext.\u003cinit\u003e(AbstractTopiaApplicationContext.java:127)\n\tfr.ird.t3.entities.AbstractT3TopiaApplicationContext.\u003cinit\u003e(AbstractT3TopiaApplicationContext.java:49)\n\tfr.ird.t3.entities.T3TopiaApplicationContext.\u003cinit\u003e(T3TopiaApplicationContext.java:29)\n\tfr.ird.t3.entities.T3TopiaApplicationContextBuilder.build(T3TopiaApplicationContextBuilder.java:198)\n\tfr.ird.t3.web.T3Session.initDatabaseConfiguration(T3Session.java:328)\n\tfr.ird.t3.web.actions.SelectUserInputDatabaseAction.execute(SelectUserInputDatabaseAction.java:86)\n\tsun.reflect.NativeMethodAccessorImpl.invoke0(Native Method)\n\tsun.reflect.NativeMethodAccessorImpl.invoke(Unknown Source)\n\tsun.reflect.DelegatingMethodAccessorImpl.invoke(Unknown Source)\n\tjava.lang.reflect.Method.invoke(Unknown Source)\n\tcom.opensymphony.xwork2.DefaultActionInvocation.invokeAction(DefaultActionInvocation.java:450)\n\tcom.opensymphony.xwork2.DefaultActionInvocation.invokeActionOnly(DefaultActionInvocation.java:289)\n\tcom.opensymphony.xwork2.DefaultActionInvocation.invoke(DefaultActionInvocation.java:252)\n\tcom.opensymphony.xwork2.interceptor.DefaultWorkflowInterceptor.doIntercept(DefaultWorkflowInterceptor.java:176)\n\tcom.opensymphony.xwork2.interceptor.MethodFilterInterceptor.intercept(MethodFilterInterceptor.java:98)\n\tcom.opensymphony.xwork2.DefaultActionInvocation.invoke(DefaultActionInvocation.java:246)\n\tcom.opensymphony.xwork2.validator.ValidationInterceptor.doIntercept(ValidationInterceptor.java:265)\n\torg.apache.struts2.interceptor.validation.AnnotationValidationInterceptor.doIntercept(AnnotationValidationInterceptor.java:68)\n\tcom.opensymphony.xwork2.interceptor.MethodFilterInterceptor.intercept(MethodFilterInterceptor.java:98)\n\tcom.opensymphony.xwork2.DefaultActionInvocation.invoke(DefaultActionInvocation.java:246)\n\tcom.opensymphony.xwork2.interceptor.ConversionErrorInterceptor.intercept(ConversionErrorInterceptor.java:138)\n\tcom.opensymphony.xwork2.DefaultActionInvocation.invoke(DefaultActionInvocation.java:246)\n\tcom.opensymphony.xwork2.interceptor.ParametersInterceptor.doIntercept(ParametersInterceptor.java:249)\n\tcom.opensymphony.xwork2.interceptor.MethodFilterInterceptor.intercept(MethodFilterInterceptor.java:98)\n\tcom.opensymphony.xwork2.DefaultActionInvocation.invoke(DefaultActionInvocation.java:246)\n\tcom.opensymphony.xwork2.interceptor.ParametersInterceptor.doIntercept(ParametersInterceptor.java:249)\n\tcom.opensymphony.xwork2.interceptor.MethodFilterInterceptor.intercept(MethodFilterInterceptor.java:98)\n\tcom.opensymphony.xwork2.DefaultActionInvocation.invoke(DefaultActionInvocation.java:246)\n\tcom.opensymphony.xwork2.interceptor.StaticParametersInterceptor.intercept(StaticParametersInterceptor.java:191)\n\tcom.opensymphony.xwork2.DefaultActionInvocation.invoke(DefaultActionInvocation.java:246)\n\torg.apache.struts2.interceptor.FileUploadInterceptor.intercept(FileUploadInterceptor.java:252)\n\tcom.opensymphony.xwork2.DefaultActionInvocation.invoke(DefaultActionInvocation.java:246)\n\tcom.opensymphony.xwork2.interceptor.ModelDrivenInterceptor.intercept(ModelDrivenInterceptor.java:100)\n\tcom.opensymphony.xwork2.DefaultActionInvocation.invoke(DefaultActionInvocation.java:246)\n\tcom.opensymphony.xwork2.interceptor.ChainingInterceptor.intercept(ChainingInterceptor.java:145)\n\tcom.opensymphony.xwork2.DefaultActionInvocation.invoke(DefaultActionInvocation.java:246)\n\tcom.opensymphony.xwork2.interceptor.PrepareInterceptor.doIntercept(PrepareInterceptor.java:171)\n\tcom.opensymphony.xwork2.interceptor.MethodFilterInterceptor.intercept(MethodFilterInterceptor.java:98)\n\tcom.opensymphony.xwork2.DefaultActionInvocation.invoke(DefaultActionInvocation.java:246)\n\torg.apache.struts2.interceptor.ServletConfigInterceptor.intercept(ServletConfigInterceptor.java:164)\n\tcom.opensymphony.xwork2.DefaultActionInvocation.invoke(DefaultActionInvocation.java:246)\n\tcom.opensymphony.xwork2.interceptor.ParametersInterceptor.doIntercept(ParametersInterceptor.java:249)\n\tcom.opensymphony.xwork2.interceptor.MethodFilterInterceptor.intercept(MethodFilterInterceptor.java:98)\n\tcom.opensymphony.xwork2.DefaultActionInvocation.invoke(DefaultActionInvocation.java:246)\n\torg.apache.struts2.interceptor.MultiselectInterceptor.intercept(MultiselectInterceptor.java:73)\n\tcom.opensymphony.xwork2.DefaultActionInvocation.invoke(DefaultActionInvocation.java:246)\n\torg.apache.struts2.interceptor.CheckboxInterceptor.intercept(CheckboxInterceptor.java:91)\n\tcom.opensymphony.xwork2.DefaultActionInvocation.invoke(DefaultActionInvocation.java:246)\n\tcom.opensymphony.xwork2.interceptor.I18nInterceptor.intercept(I18nInterceptor.java:176)\n\tcom.opensymphony.xwork2.DefaultActionInvocation.invoke(DefaultActionInvocation.java:246)\n\tcom.opensymphony.xwork2.interceptor.AliasInterceptor.intercept(AliasInterceptor.java:193)\n\tcom.opensymphony.xwork2.DefaultActionInvocation.invoke(DefaultActionInvocation.java:246)\n\tcom.opensymphony.xwork2.interceptor.ExceptionMappingInterceptor.intercept(ExceptionMappingInterceptor.java:187)\n\tcom.opensymphony.xwork2.DefaultActionInvocation.invoke(DefaultActionInvocation.java:246)\n\tfr.ird.t3.web.interceptors.AbstractCheckInterceptor.intercept(AbstractCheckInterceptor.java:71)\n\tcom.opensymphony.xwork2.DefaultActionInvocation.invoke(DefaultActionInvocation.java:246)\n\tcom.opensymphony.xwork2.interceptor.I18nInterceptor.intercept(I18nInterceptor.java:176)\n\tcom.opensymphony.xwork2.DefaultActionInvocation.invoke(DefaultActionInvocation.java:246)\n\torg.apache.struts2.impl.StrutsActionProxy.execute(StrutsActionProxy.java:54)\n\torg.apache.struts2.dispatcher.Dispatcher.serviceAction(Dispatcher.java:546)\n\torg.apache.struts2.dispatcher.ng.ExecuteOperations.executeAction(ExecuteOperations.java:77)\n\torg.apache.struts2.dispatcher.ng.filter.StrutsExecuteFilter.doFilter(StrutsExecuteFilter.java:88)\n\tcom.opensymphony.sitemesh.webapp.SiteMeshFilter.obtainContent(SiteMeshFilter.java:129)\n\tcom.opensymphony.sitemesh.webapp.SiteMeshFilter.doFilter(SiteMeshFilter.java:77)\n\torg.apache.struts2.dispatcher.ng.filter.StrutsPrepareFilter.doFilter(StrutsPrepareFilter.java:82)\n\tfr.ird.t3.web.listeners.TopiaTransactionFilter.doFilter(TopiaTransactionFilter.java:79)\n```",
    "labels": [
      "Anomalie",
      "Base de données",
      "IRD-2017-03"
    ],
    "milestone": {
      "id": 504975,
      "iid": 38,
      "projectId": 2724222,
      "groupId": 0,
      "title": "2.8",
      "description": "",
      "dueDate": "May 4, 2018 2:00:00 AM",
      "startDate": "Apr 10, 2018 2:00:00 AM",
      "state": "closed"
    },
    "assignee": {
      "_id": 166231,
      "_username": "tchemit",
      "_name": "Tony CHEMIT",
      "_state": "active",
      "_darkScheme": false,
      "_isAdmin": false,
      "_canCreateGroup": false,
      "_canCreateProject": false,
      "_canCreateTeam": false,
      "_avatarUrl": "https://secure.gravatar.com/avatar/2a915aa9a1df35c8b609ff2f750d5dac?s\u003d80\u0026d\u003didenticon"
    },
    "author": {
      "_id": 1111318,
      "_username": "pcauquil",
      "_name": "Pascal Cauquil",
      "_state": "active",
      "_darkScheme": false,
      "_isAdmin": false,
      "_canCreateGroup": false,
      "_canCreateProject": false,
      "_canCreateTeam": false,
      "_avatarUrl": "https://secure.gravatar.com/avatar/b4ae117bd93e10d96298fa4d885208ea?s\u003d80\u0026d\u003didenticon"
    },
    "state": "closed",
    "updatedAt": "May 4, 2018 4:55:33 PM",
    "createdAt": "Apr 13, 2018 10:26:33 AM"
  },
  {
    "id": 10290544,
    "iid": 318,
    "projectId": 2724222,
    "title": "[N3] Exception multi-zone activity",
    "description": "Ma base contient les données 0A 2015-2018t1 + OI 2015-2018t1.\n\nJ\u0027ai effectué les traitements N0 et N1 sur toute la plage temporelle disponible.\n\nN2 sur la plage 01-2016 -\u003e 12/2017 avec prise en compte des catégories de poids.\n\nN3 demandé sur la plage 01-2016 -\u003e 12/2017 avec prise en compte des catégories de poids.\n\nL\u0027erreur suivante est apparue immédiatement :\n\n```\n\u003d\u003d\u003d\u003d\u003d\u003d\u003d\u003d\u003d\u003d\u003d\u003d\u003d\u003d\u003d\u003d\u003d\u003d\u003d\u003d\u003d\u003d\u003d\u003d\u003d\u003d\u003d\u003d\u003d\u003d\u003d\u003d\u003d\u003d\u003d\u003d\u003d\u003d\u003d\u003d\u003d\u003d\u003d\u003d\u003d\u003d\u003d\u003d\u003d\u003d\u003d\u003d\u003d\u003d\u003d\u003d\n| Classe de taille | Nombre d\u0027individus - Ratio        |\n\u003d\u003d\u003d\u003d\u003d\u003d\u003d\u003d\u003d\u003d\u003d\u003d\u003d\u003d\u003d\u003d\u003d\u003d\u003d\u003d\u003d\u003d\u003d\u003d\u003d\u003d\u003d\u003d\u003d\u003d\u003d\u003d\u003d\u003d\u003d\u003d\u003d\u003d\u003d\u003d\u003d\u003d\u003d\u003d\u003d\u003d\u003d\u003d\u003d\u003d\u003d\u003d\u003d\u003d\u003d\u003d\n\n12 avr. 2018 18:22:52 ERROR [runLevel3ActionBackgroundThread] (fr.ird.t3.web.actions.AbstractRunAction:122) executeAction - An error occurs while action\njava.lang.IllegalStateException: Only a multi-zone activity can be seen more tha once!, problem with activity: fr.ird.t3.entities.data.Activity#1523526488410#0.819512205903869\n\tat com.google.common.base.Preconditions.checkState(Preconditions.java:504)\n\tat fr.ird.t3.actions.data.level3.Level3Action.doExecuteStratum(Level3Action.java:221)\n\tat fr.ird.t3.actions.data.level3.Level3Action.executeAction(Level3Action.java:115)\n\tat fr.ird.t3.actions.T3Action.run(T3Action.java:79)\n\tat fr.ird.t3.web.actions.AbstractRunAction.executeAction(AbstractRunAction.java:119)\n\tat fr.ird.t3.web.actions.AbstractRunAction.execute(AbstractRunAction.java:109)\n\tat sun.reflect.GeneratedMethodAccessor567.invoke(Unknown Source)\n\tat sun.reflect.DelegatingMethodAccessorImpl.invoke(Unknown Source)\n\tat java.lang.reflect.Method.invoke(Unknown Source)\n\tat com.opensymphony.xwork2.DefaultActionInvocation.invokeAction(DefaultActionInvocation.java:450)\n\tat com.opensymphony.xwork2.DefaultActionInvocation.invokeActionOnly(DefaultActionInvocation.java:289)\n\tat org.apache.struts2.interceptor.BackgroundProcess$1.run(BackgroundProcess.java:57)\n\tat java.lang.Thread.run(Unknown Source)\n12 avr. 2018 18:22:53 ERROR [http-apr-8080-exec-15] (org.apache.struts2.dispatcher.Dispatcher:38) error - Exception occurred during processing request: Only a multi-zone activity can be seen more tha once!, problem with activity: fr.ird.t3.entities.data.Activity#1523526488410#0.819512205903869\njava.lang.IllegalStateException: Only a multi-zone activity can be seen more tha once!, problem with activity: fr.ird.t3.entities.data.Activity#1523526488410#0.819512205903869\n\tat com.google.common.base.Preconditions.checkState(Preconditions.java:504)\n\tat fr.ird.t3.actions.data.level3.Level3Action.doExecuteStratum(Level3Action.java:221)\n\tat fr.ird.t3.actions.data.level3.Level3Action.executeAction(Level3Action.java:115)\n\tat fr.ird.t3.actions.T3Action.run(T3Action.java:79)\n\tat fr.ird.t3.web.actions.AbstractRunAction.executeAction(AbstractRunAction.java:119)\n\tat fr.ird.t3.web.actions.AbstractRunAction.execute(AbstractRunAction.java:109)\n\tat sun.reflect.GeneratedMethodAccessor567.invoke(Unknown Source)\n\tat sun.reflect.DelegatingMethodAccessorImpl.invoke(Unknown Source)\n\tat java.lang.reflect.Method.invoke(Unknown Source)\n\tat com.opensymphony.xwork2.DefaultActionInvocation.invokeAction(DefaultActionInvocation.java:450)\n\tat com.opensymphony.xwork2.DefaultActionInvocation.invokeActionOnly(DefaultActionInvocation.java:289)\n\tat org.apache.struts2.interceptor.BackgroundProcess$1.run(BackgroundProcess.java:57)\n\tat java.lang.Thread.run(Unknown Source)\n```\n\nVoici le dump de la base résultante : https://filesender.renater.fr/?s\u003ddownload\u0026token\u003da28537e3-d6c5-3256-533a-39f7bc4eb85a",
    "labels": [
      "Anomalie",
      "Calcul - Niveau 3",
      "IRD-2017-03"
    ],
    "milestone": {
      "id": 504975,
      "iid": 38,
      "projectId": 2724222,
      "groupId": 0,
      "title": "2.8",
      "description": "",
      "dueDate": "May 4, 2018 2:00:00 AM",
      "startDate": "Apr 10, 2018 2:00:00 AM",
      "state": "closed"
    },
    "assignee": {
      "_id": 166231,
      "_username": "tchemit",
      "_name": "Tony CHEMIT",
      "_state": "active",
      "_darkScheme": false,
      "_isAdmin": false,
      "_canCreateGroup": false,
      "_canCreateProject": false,
      "_canCreateTeam": false,
      "_avatarUrl": "https://secure.gravatar.com/avatar/2a915aa9a1df35c8b609ff2f750d5dac?s\u003d80\u0026d\u003didenticon"
    },
    "author": {
      "_id": 1111318,
      "_username": "pcauquil",
      "_name": "Pascal Cauquil",
      "_state": "active",
      "_darkScheme": false,
      "_isAdmin": false,
      "_canCreateGroup": false,
      "_canCreateProject": false,
      "_canCreateTeam": false,
      "_avatarUrl": "https://secure.gravatar.com/avatar/b4ae117bd93e10d96298fa4d885208ea?s\u003d80\u0026d\u003didenticon"
    },
    "state": "closed",
    "updatedAt": "May 4, 2018 4:55:33 PM",
    "createdAt": "Apr 12, 2018 6:24:57 PM"
  },
  {
    "id": 10290293,
    "iid": 317,
    "projectId": 2724222,
    "title": "[N2] A propos des résultats d\u0027un traitement avec catégories de poids dans la stratification",
    "description": "Voici ces résultats :\n![image](/uploads/116730861d4381d4dd21a2d2eae0c7ac/image.png)\n\nSi le Niveau 0 est utilisé pour indiquer les strates sans capture, et le niveau 999 pour indiquer que le dernier niveau de substitution a été atteint sans passer les tests de qualité, pourquoi a-t-on des strates en 999 sans aucune calée (et donc capture) ?",
    "labels": [
      "Calcul - Niveau 2",
      "IRD-2017-03",
      "Tâche"
    ],
    "milestone": {
      "id": 504975,
      "iid": 38,
      "projectId": 2724222,
      "groupId": 0,
      "title": "2.8",
      "description": "",
      "dueDate": "May 4, 2018 2:00:00 AM",
      "startDate": "Apr 10, 2018 2:00:00 AM",
      "state": "closed"
    },
    "assignee": {
      "_id": 166231,
      "_username": "tchemit",
      "_name": "Tony CHEMIT",
      "_state": "active",
      "_darkScheme": false,
      "_isAdmin": false,
      "_canCreateGroup": false,
      "_canCreateProject": false,
      "_canCreateTeam": false,
      "_avatarUrl": "https://secure.gravatar.com/avatar/2a915aa9a1df35c8b609ff2f750d5dac?s\u003d80\u0026d\u003didenticon"
    },
    "author": {
      "_id": 1111318,
      "_username": "pcauquil",
      "_name": "Pascal Cauquil",
      "_state": "active",
      "_darkScheme": false,
      "_isAdmin": false,
      "_canCreateGroup": false,
      "_canCreateProject": false,
      "_canCreateTeam": false,
      "_avatarUrl": "https://secure.gravatar.com/avatar/b4ae117bd93e10d96298fa4d885208ea?s\u003d80\u0026d\u003didenticon"
    },
    "state": "closed",
    "updatedAt": "May 4, 2018 4:55:33 PM",
    "createdAt": "Apr 12, 2018 6:08:41 PM"
  },
  {
    "id": 6920027,
    "iid": 278,
    "projectId": 2724222,
    "title": "Prévenir une exception au N3",
    "description": "Lorsqu\u0027une espèce de la strate capture n\u0027est pas sélectionnée au N2 (parce qu\u0027elle ne doit pas être prise en compte pour la correction de la composition spécifique), mais qu\u0027ensuite elle est sélectionnée au N3, cela provoque l\u0027exception suivante lors du déroulement du N3 :\n\n```\n2017/09/22 03:14:30  INFO (Level3Action.java:471) Traitement Strate [14/56] (Banc libre - zone Picolo Sud-Est BL - [debut 07-2016 - fin 09-2016])\n2017/09/22 03:14:30 ERROR (AbstractRunAction.java:136) An error occurs while action\njava.lang.NullPointerException: Found a trip 492 - GUERIDEN - 28/09/2016 [fr.ird.t3.entities.data.Trip#1494321313066#0.6639476614943611] - activity 13/09/2016 - (-13.983473, 1.6501389) [fr.ird.t3.entities.data.Activity#1494321313067#0.04635289926085728] with a null CorrectedElementaryCatch#correctedCatchWeight on data: fr.ird.t3.entities.data.CorrectedElementaryCatchImpl@f1567279\n\tat com.google.common.base.Preconditions.checkNotNull(Preconditions.java:208)\n\tat fr.ird.t3.entities.T3EntityHelper.getTotal(T3EntityHelper.java:404)\n\tat fr.ird.t3.actions.data.level3.L3CatchStratum.init(L3CatchStratum.java:96)\n\tat fr.ird.t3.actions.data.level3.Level3Action.newCatchStratum(Level3Action.java:877)\n\tat fr.ird.t3.actions.data.level3.Level3Action.doExecuteStratum(Level3Action.java:479)\n\tat fr.ird.t3.actions.data.level3.Level3Action.executeAction(Level3Action.java:414)\n\tat fr.ird.t3.actions.T3Action.run(T3Action.java:87)\n\tat fr.ird.t3.web.actions.AbstractRunAction.executeAction(AbstractRunAction.java:132)\n\tat fr.ird.t3.web.actions.AbstractRunAction.execute(AbstractRunAction.java:118)\n\tat sun.reflect.NativeMethodAccessorImpl.invoke0(Native Method)\n\tat sun.reflect.NativeMethodAccessorImpl.invoke(NativeMethodAccessorImpl.java:62)\n\tat sun.reflect.DelegatingMethodAccessorImpl.invoke(DelegatingMethodAccessorImpl.java:43)\n\tat java.lang.reflect.Method.invoke(Method.java:498)\n\tat com.opensymphony.xwork2.DefaultActionInvocation.invokeAction(DefaultActionInvocation.java:450)\n\tat com.opensymphony.xwork2.DefaultActionInvocation.invokeActionOnly(DefaultActionInvocation.java:289)\n\tat org.apache.struts2.interceptor.BackgroundProcess$1.run(BackgroundProcess.java:57)\n\tat java.lang.Thread.run(Thread.java:745)\n2017/09/22 03:14:41 ERROR (CommonsLogger.java:38) Exception occurred during processing request: Found a trip 492 - GUERIDEN - 28/09/2016 [fr.ird.t3.entities.data.Trip#1494321313066#0.6639476614943611] - activity 13/09/2016 - (-13.983473, 1.6501389) [fr.ird.t3.entities.data.Activity#1494321313067#0.04635289926085728] with a null CorrectedElementaryCatch#correctedCatchWeight on data: fr.ird.t3.entities.data.CorrectedElementaryCatchImpl@f1567279\njava.lang.NullPointerException: Found a trip 492 - GUERIDEN - 28/09/2016 [fr.ird.t3.entities.data.Trip#1494321313066#0.6639476614943611] - activity 13/09/2016 - (-13.983473, 1.6501389) [fr.ird.t3.entities.data.Activity#1494321313067#0.04635289926085728] with a null CorrectedElementaryCatch#correctedCatchWeight on data: fr.ird.t3.entities.data.CorrectedElementaryCatchImpl@f1567279\n\tat com.google.common.base.Preconditions.checkNotNull(Preconditions.java:208)\n\tat fr.ird.t3.entities.T3EntityHelper.getTotal(T3EntityHelper.java:404)\n\tat fr.ird.t3.actions.data.level3.L3CatchStratum.init(L3CatchStratum.java:96)\n\tat fr.ird.t3.actions.data.level3.Level3Action.newCatchStratum(Level3Action.java:877)\n\tat fr.ird.t3.actions.data.level3.Level3Action.doExecuteStratum(Level3Action.java:479)\n\tat fr.ird.t3.actions.data.level3.Level3Action.executeAction(Level3Action.java:414)\n\tat fr.ird.t3.actions.T3Action.run(T3Action.java:87)\n\tat fr.ird.t3.web.actions.AbstractRunAction.executeAction(AbstractRunAction.java:132)\n\tat fr.ird.t3.web.actions.AbstractRunAction.execute(AbstractRunAction.java:118)\n\tat sun.reflect.NativeMethodAccessorImpl.invoke0(Native Method)\n\tat sun.reflect.NativeMethodAccessorImpl.invoke(NativeMethodAccessorImpl.java:62)\n\tat sun.reflect.DelegatingMethodAccessorImpl.invoke(DelegatingMethodAccessorImpl.java:43)\n\tat java.lang.reflect.Method.invoke(Method.java:498)\n\tat com.opensymphony.xwork2.DefaultActionInvocation.invokeAction(DefaultActionInvocation.java:450)\n\tat com.opensymphony.xwork2.DefaultActionInvocation.invokeActionOnly(DefaultActionInvocation.java:289)\n\tat org.apache.struts2.interceptor.BackgroundProcess$1.run(BackgroundProcess.java:57)\n\tat java.lang.Thread.run(Thread.java:745)\n```\n\nC\u0027est surprenant car même sans avoir été cochée au N2, son champ CorrectedElementaryCatch.correctedCatchWeight ne devrait pas être à NULL. Il devrait contenir la même veleur que le champ CorrectedElementaryCatch.catchWeight du même enregistrement (espèce non corrigée, donc poids simplement reporté). A investiguer.\n\nDE façon générale il faut pouvoir sélectionner au N3 des espèces qui n\u0027avaient pas été sélectionnées au N2 : même si leur composition spécifique n\u0027a pas été ajustée au N2, rien n\u0027empêche leur traitement au N3.",
    "labels": [
      "Anomalie",
      "Calcul - Niveau 3",
      "IRD-2017-03",
      "Traitement de données"
    ],
    "milestone": {
      "id": 504975,
      "iid": 38,
      "projectId": 2724222,
      "groupId": 0,
      "title": "2.8",
      "description": "",
      "dueDate": "May 4, 2018 2:00:00 AM",
      "startDate": "Apr 10, 2018 2:00:00 AM",
      "state": "closed"
    },
    "assignee": {
      "_id": 166231,
      "_username": "tchemit",
      "_name": "Tony CHEMIT",
      "_state": "active",
      "_darkScheme": false,
      "_isAdmin": false,
      "_canCreateGroup": false,
      "_canCreateProject": false,
      "_canCreateTeam": false,
      "_avatarUrl": "https://secure.gravatar.com/avatar/2a915aa9a1df35c8b609ff2f750d5dac?s\u003d80\u0026d\u003didenticon"
    },
    "author": {
      "_id": 1111318,
      "_username": "pcauquil",
      "_name": "Pascal Cauquil",
      "_state": "active",
      "_darkScheme": false,
      "_isAdmin": false,
      "_canCreateGroup": false,
      "_canCreateProject": false,
      "_canCreateTeam": false,
      "_avatarUrl": "https://secure.gravatar.com/avatar/b4ae117bd93e10d96298fa4d885208ea?s\u003d80\u0026d\u003didenticon"
    },
    "state": "closed",
    "updatedAt": "May 4, 2018 2:49:14 PM",
    "createdAt": "Sep 22, 2017 4:13:54 PM"
  }
]